<?xml version="1.0" encoding="UTF-8" standalone="no"?>
<!-- Created with Inkscape (http://www.inkscape.org/) -->

<svg
   xmlns:dc="http://purl.org/dc/elements/1.1/"
   xmlns:cc="http://creativecommons.org/ns#"
   xmlns:rdf="http://www.w3.org/1999/02/22-rdf-syntax-ns#"
   xmlns:svg="http://www.w3.org/2000/svg"
   xmlns="http://www.w3.org/2000/svg"
   xmlns:inkscape="http://www.inkscape.org/namespaces/inkscape"
   version="1.0"
   width="1024"
   height="717.5705"
   id="svg14734">
  <metadata
     id="metadata135">
    <rdf:RDF>
      <cc:Work
         rdf:about="">
        <dc:format>image/svg+xml</dc:format>
        <dc:type
           rdf:resource="http://purl.org/dc/dcmitype/StillImage" />
        <dc:title />
      </cc:Work>
    </rdf:RDF>
  </metadata>
  <defs
     id="defs14736">
    <radialGradient
       cx="0"
       cy="0"
       r="1"
       fx="0"
       fy="0"
       id="radialGradient2744"
       gradientUnits="userSpaceOnUse"
       gradientTransform="matrix(13.47648,0,0,-13.49245,368.23657,103.36826)"
       spreadMethod="pad">
      <stop
         id="stop2746"
         style="stop-color:#9e671e;stop-opacity:1"
         offset="0" />
      <stop
         id="stop2748"
         style="stop-color:#e7b40f;stop-opacity:1"
         offset="0.94999999" />
      <stop
         id="stop2750"
         style="stop-color:#e7b40f;stop-opacity:1"
         offset="0.94999999" />
      <stop
         id="stop2752"
         style="stop-color:#e7b40f;stop-opacity:1"
         offset="1" />
    </radialGradient>
    <linearGradient
       x1="0"
       y1="0"
       x2="1"
       y2="0"
       id="linearGradient2720"
       gradientUnits="userSpaceOnUse"
       gradientTransform="matrix(5.26006,-9.90481,-9.90481,-5.26006,362.9978,117.08273)"
       spreadMethod="pad">
      <stop
         id="stop2722"
         style="stop-color:#b17023;stop-opacity:1"
         offset="0" />
      <stop
         id="stop2724"
         style="stop-color:#a35e28;stop-opacity:1"
         offset="0.43000001" />
      <stop
         id="stop2726"
         style="stop-color:#f0cc29;stop-opacity:1"
         offset="0.92000002" />
      <stop
         id="stop2728"
         style="stop-color:#f0cc29;stop-opacity:1"
         offset="1" />
    </linearGradient>
    <linearGradient
       x1="0"
       y1="0"
       x2="1"
       y2="0"
       id="linearGradient2698"
       gradientUnits="userSpaceOnUse"
       gradientTransform="matrix(4.99581,-9.40723,-9.40723,-4.99581,365.76148,118.3866)"
       spreadMethod="pad">
      <stop
         id="stop2700"
         style="stop-color:#b17023;stop-opacity:1"
         offset="0" />
      <stop
         id="stop2702"
         style="stop-color:#955a1e;stop-opacity:1"
         offset="0.51999998" />
      <stop
         id="stop2704"
         style="stop-color:#f0cc29;stop-opacity:1"
         offset="1" />
    </linearGradient>
    <linearGradient
       x1="0"
       y1="0"
       x2="1"
       y2="0"
       id="linearGradient2678"
       gradientUnits="userSpaceOnUse"
       gradientTransform="matrix(1.85335,0,0,-1.85335,371.09732,109.38187)"
       spreadMethod="pad">
      <stop
         id="stop2680"
         style="stop-color:#986721;stop-opacity:1"
         offset="0" />
      <stop
         id="stop2682"
         style="stop-color:#f4c51a;stop-opacity:1"
         offset="1" />
    </linearGradient>
    <linearGradient
       x1="130.123"
       y1="-240.82899"
       x2="122.504"
       y2="-240.82899"
       id="linearGradient2656"
       gradientUnits="userSpaceOnUse"
       gradientTransform="matrix(1,-1,-1,-1,0,0)"
       spreadMethod="pad">
      <stop
         id="stop2658"
         style="stop-color:#edea64;stop-opacity:1"
         offset="0" />
      <stop
         id="stop2660"
         style="stop-color:#d26d1b;stop-opacity:1"
         offset="0.50999999" />
      <stop
         id="stop2662"
         style="stop-color:#f5cc1c;stop-opacity:1"
         offset="1" />
    </linearGradient>
    <linearGradient
       x1="130.17599"
       y1="-243.745"
       x2="122.467"
       y2="-243.745"
       id="linearGradient2634"
       gradientUnits="userSpaceOnUse"
       gradientTransform="matrix(1,-1,-1,-1,0,0)"
       spreadMethod="pad">
      <stop
         id="stop2636"
         style="stop-color:#edea64;stop-opacity:1"
         offset="0" />
      <stop
         id="stop2638"
         style="stop-color:#d26d1b;stop-opacity:1"
         offset="0.50999999" />
      <stop
         id="stop2640"
         style="stop-color:#f5cc1c;stop-opacity:1"
         offset="1" />
    </linearGradient>
    <linearGradient
       x1="0"
       y1="0"
       x2="1"
       y2="0"
       id="linearGradient2614"
       gradientUnits="userSpaceOnUse"
       gradientTransform="matrix(1.85489,0,0,-1.85489,365.12213,109.38178)"
       spreadMethod="pad">
      <stop
         id="stop2616"
         style="stop-color:#986721;stop-opacity:1"
         offset="0" />
      <stop
         id="stop2618"
         style="stop-color:#f4c51a;stop-opacity:1"
         offset="1" />
    </linearGradient>
    <linearGradient
       x1="0"
       y1="0"
       x2="1"
       y2="0"
       id="linearGradient2594"
       gradientUnits="userSpaceOnUse"
       gradientTransform="matrix(5.15433,0,0,-5.15433,362.5441,118.84531)"
       spreadMethod="pad">
      <stop
         id="stop2596"
         style="stop-color:#f0d524;stop-opacity:1"
         offset="0" />
      <stop
         id="stop2598"
         style="stop-color:#f2eea4;stop-opacity:1"
         offset="1" />
    </linearGradient>
    <linearGradient
       x1="0"
       y1="0"
       x2="1"
       y2="0"
       id="linearGradient2572"
       gradientUnits="userSpaceOnUse"
       gradientTransform="matrix(-2.29689,10.30835,10.30835,2.29689,364.58417,110.08139)"
       spreadMethod="pad">
      <stop
         id="stop2574"
         style="stop-color:#edea64;stop-opacity:1"
         offset="0" />
      <stop
         id="stop2576"
         style="stop-color:#d26d1b;stop-opacity:1"
         offset="0.50999999" />
      <stop
         id="stop2578"
         style="stop-color:#f5cc1c;stop-opacity:1"
         offset="1" />
    </linearGradient>
    <linearGradient
       x1="0"
       y1="0"
       x2="1"
       y2="0"
       id="linearGradient2552"
       gradientUnits="userSpaceOnUse"
       gradientTransform="matrix(5.13798,0,0,-5.13798,368.53455,118.84497)"
       spreadMethod="pad">
      <stop
         id="stop2554"
         style="stop-color:#f0d524;stop-opacity:1"
         offset="0" />
      <stop
         id="stop2556"
         style="stop-color:#f2eea4;stop-opacity:1"
         offset="1" />
    </linearGradient>
    <linearGradient
       x1="0"
       y1="0"
       x2="1"
       y2="0"
       id="linearGradient2530"
       gradientUnits="userSpaceOnUse"
       gradientTransform="matrix(5.13896,-9.67672,-9.67672,-5.13896,369.39874,120.29135)"
       spreadMethod="pad">
      <stop
         id="stop2532"
         style="stop-color:#b17023;stop-opacity:1"
         offset="0" />
      <stop
         id="stop2534"
         style="stop-color:#955a1e;stop-opacity:1"
         offset="0.51999998" />
      <stop
         id="stop2536"
         style="stop-color:#f0cc29;stop-opacity:1"
         offset="1" />
    </linearGradient>
    <linearGradient
       x1="0"
       y1="0"
       x2="1"
       y2="0"
       id="linearGradient2504"
       gradientUnits="userSpaceOnUse"
       gradientTransform="matrix(8.46951,31.54448,31.54448,-8.46951,375.50125,88.27435)"
       spreadMethod="pad">
      <stop
         id="stop2506"
         style="stop-color:#5e161a;stop-opacity:1"
         offset="0" />
      <stop
         id="stop2508"
         style="stop-color:#e8262f;stop-opacity:1"
         offset="0.95082003" />
      <stop
         id="stop2510"
         style="stop-color:#e8262f;stop-opacity:1"
         offset="1" />
    </linearGradient>
    <linearGradient
       x1="0"
       y1="0"
       x2="1"
       y2="0"
       id="linearGradient2482"
       gradientUnits="userSpaceOnUse"
       gradientTransform="matrix(8.52012,31.73305,31.73305,-8.52012,365.29511,90.93536)"
       spreadMethod="pad">
      <stop
         id="stop2484"
         style="stop-color:#5e161a;stop-opacity:1"
         offset="0" />
      <stop
         id="stop2486"
         style="stop-color:#e8262f;stop-opacity:1"
         offset="0.44808999" />
      <stop
         id="stop2488"
         style="stop-color:#5e161a;stop-opacity:1"
         offset="1" />
    </linearGradient>
  </defs>
  <g
     transform="translate(-335.57229,21.883256)"
     id="layer1">
    <g
       transform="matrix(35.488156,0,0,35.488156,-13307.938,-33860.894)"
       id="g14655">
      <g
         transform="matrix(1.25,0,0,-1.25,-66.33875,1102.8347)"
         id="g2470">
        <g
           id="g2472">
          <g
             id="g2474">
            <g
               id="g2480">
              <path
                 d="m 377.514,112.329 -0.271,-1.844 -1.198,0 0.274,1.844 -1.549,0 -0.617,-4.094 -12.157,0 c -0.031,0 -0.073,-0.018 -0.094,-0.04 l -0.836,-0.834 c -0.02,-0.022 -0.013,-0.039 0.017,-0.039 l 14.493,0 0.289,1.952 1.2,0 -0.285,-1.952 1.56,0 0.723,5.007 -1.549,0"
                 inkscape:connector-curvature="0"
                 id="path2490"
                 style="fill:url(#linearGradient2482);stroke:none" />
            </g>
          </g>
        </g>
      </g>
      <g
         transform="matrix(1.25,0,0,-1.25,-66.33875,1102.8347)"
         id="g2492">
        <g
           id="g2494">
          <g
             id="g2496">
            <g
               id="g2502">
              <path
                 d="m 380.769,108.479 c 0.103,0 0.194,0.001 0.271,0.004 0.077,0.002 0.168,0.03 0.275,0.084 0.149,0.078 0.276,0.188 0.379,0.329 0.11,0.146 0.193,0.301 0.25,0.464 0.058,0.164 0.098,0.33 0.122,0.501 0.023,0.171 0.025,0.354 0.002,0.548 -0.022,0.195 -0.077,0.364 -0.166,0.505 -0.049,0.073 -0.101,0.129 -0.157,0.168 -0.056,0.039 -0.116,0.067 -0.18,0.084 -0.065,0.017 -0.135,0.027 -0.211,0.029 -0.076,0.003 -0.158,0.004 -0.247,0.004 l -0.177,0 -0.384,-2.72 0.223,0 z m -1.236,3.85 1.866,0 c 0.182,0 0.354,-0.007 0.518,-0.022 0.162,-0.014 0.316,-0.043 0.463,-0.087 0.146,-0.044 0.285,-0.106 0.416,-0.186 0.132,-0.08 0.258,-0.186 0.377,-0.317 0.232,-0.248 0.388,-0.536 0.469,-0.864 0.08,-0.328 0.096,-0.672 0.047,-1.032 -0.045,-0.331 -0.148,-0.656 -0.309,-0.977 -0.159,-0.321 -0.375,-0.6 -0.645,-0.838 -0.288,-0.258 -0.594,-0.436 -0.92,-0.533 -0.325,-0.097 -0.664,-0.151 -1.016,-0.151 l -1.983,0 0.717,5.007"
                 inkscape:connector-curvature="0"
                 id="path2512"
                 style="fill:url(#linearGradient2504);stroke:none" />
            </g>
          </g>
        </g>
      </g>
      <path
         d="m 387.59875,965.07845 c 0.0263,-0.0275 0.0263,-0.0712 0,-0.1 l -1.2225,-1.2225 c -0.0275,-0.0263 -0.0488,-0.0175 -0.0488,0.0213 l 0,2.50125 c 0,0.0387 0.0213,0.0475 0.0488,0.02 l 1.2225,-1.22"
         inkscape:connector-curvature="0"
         id="path2514"
         style="fill:#e7262f;fill-opacity:1;fill-rule:nonzero;stroke:none" />
      <path
         d="m 384.4525,968.14595 c 0,0.04 0.0225,0.0488 0.0525,0.0213 l 1.115,-1.115 c 0.0275,-0.0287 0.0512,-0.0862 0.0512,-0.12625 l 0,-3.8025 c 0,-0.04 -0.0238,-0.0975 -0.0512,-0.125 l -1.115,-1.11375 c -0.03,-0.0287 -0.0525,-0.02 -0.0525,0.02 l 0,6.24125"
         inkscape:connector-curvature="0"
         id="path2516"
         style="fill:#e7262f;fill-opacity:1;fill-rule:nonzero;stroke:none" />
      <g
         transform="matrix(1.25,0,0,-1.25,-66.33875,1102.8347)"
         id="g2518">
        <g
           id="g2520">
          <g
             id="g2522">
            <g
               id="g2528">
              <path
                 d="m 373.655,108.786 -2.586,1.192 10e-4,8.268 2.586,1.198 -1.186,-1.198 10e-4,-8.278 1.184,-1.182"
                 inkscape:connector-curvature="0"
                 id="path2538"
                 style="fill:url(#linearGradient2530);stroke:none" />
            </g>
          </g>
        </g>
      </g>
      <g
         transform="matrix(1.25,0,0,-1.25,-66.33875,1102.8347)"
         id="g2540">
        <g
           id="g2542">
          <g
             id="g2544">
            <g
               id="g2550">
              <path
                 d="m 373.656,119.444 -2.586,-1.198 -2.552,1.198 5.138,0"
                 inkscape:connector-curvature="0"
                 id="path2558"
                 style="fill:url(#linearGradient2552);stroke:none" />
            </g>
          </g>
        </g>
      </g>
      <g
         transform="matrix(1.25,0,0,-1.25,-66.33875,1102.8347)"
         id="g2560">
        <g
           id="g2562">
          <g
             id="g2564">
            <g
               id="g2570">
              <path
                 d="m 362.528,108.785 2.581,1.193 0.001,8.268 -2.583,1.198 1.196,-1.198 -0.001,-8.265 -1.194,-1.196"
                 inkscape:connector-curvature="0"
                 id="path2580"
                 style="fill:url(#linearGradient2572);stroke:none" />
            </g>
          </g>
        </g>
      </g>
      <g
         transform="matrix(1.25,0,0,-1.25,-66.33875,1102.8347)"
         id="g2582">
        <g
           id="g2584">
          <g
             id="g2586">
            <g
               id="g2592">
              <path
                 d="m 365.11,118.246 -2.582,1.198 5.154,-0.001 -2.572,-1.197"
                 inkscape:connector-curvature="0"
                 id="path2600"
                 style="fill:url(#linearGradient2594);stroke:none" />
            </g>
          </g>
        </g>
      </g>
      <g
         transform="matrix(1.25,0,0,-1.25,-66.33875,1102.8347)"
         id="g2602">
        <g
           id="g2604">
          <g
             id="g2606">
            <g
               id="g2612">
              <path
                 d="m 365.11,109.978 -2.582,-1.193 5.154,0.001 -2.573,1.192"
                 inkscape:connector-curvature="0"
                 id="path2620"
                 style="fill:url(#linearGradient2614);stroke:none" />
            </g>
          </g>
        </g>
      </g>
      <g
         transform="matrix(1.25,0,0,-1.25,-66.33875,1102.8347)"
         id="g2622">
        <g
           id="g2624">
          <g
             id="g2626">
            <g
               id="g2632">
              <path
                 d="m 371.07,114.942 0,3.304 -2.552,1.198 1.191,-1.197 0,-2.29 1.361,-1.015"
                 inkscape:connector-curvature="0"
                 id="path2642"
                 style="fill:url(#linearGradient2634);stroke:none" />
            </g>
          </g>
        </g>
      </g>
      <g
         transform="matrix(1.25,0,0,-1.25,-66.33875,1102.8347)"
         id="g2644">
        <g
           id="g2646">
          <g
             id="g2648">
            <g
               id="g2654">
              <path
                 d="m 371.07,114.942 -10e-4,-4.966 -2.552,-1.189 1.191,1.193 0.002,3.659 1.36,1.303"
                 inkscape:connector-curvature="0"
                 id="path2664"
                 style="fill:url(#linearGradient2656);stroke:none" />
            </g>
          </g>
        </g>
      </g>
      <g
         transform="matrix(1.25,0,0,-1.25,-66.33875,1102.8347)"
         id="g2666">
        <g
           id="g2668">
          <g
             id="g2670">
            <g
               id="g2676">
              <path
                 d="m 373.655,108.786 -2.586,1.192 -2.552,-1.191 5.138,-0.001"
                 inkscape:connector-curvature="0"
                 id="path2684"
                 style="fill:url(#linearGradient2678);stroke:none" />
            </g>
          </g>
        </g>
      </g>
      <g
         transform="matrix(1.25,0,0,-1.25,-66.33875,1102.8347)"
         id="g2686">
        <g
           id="g2688">
          <g
             id="g2690">
            <g
               id="g2696">
              <path
                 d="m 365.11,118.246 2.572,1.197 -1.193,-1.194 0,-2.292 -1.379,-1.016 0,3.305"
                 inkscape:connector-curvature="0"
                 id="path2706"
                 style="fill:url(#linearGradient2698);stroke:none" />
            </g>
          </g>
        </g>
      </g>
      <g
         transform="matrix(1.25,0,0,-1.25,-66.33875,1102.8347)"
         id="g2708">
        <g
           id="g2710">
          <g
             id="g2712">
            <g
               id="g2718">
              <path
                 d="m 365.11,114.941 -0.001,-4.963 2.573,-1.192 -1.194,1.192 10e-4,3.66 -1.379,1.303"
                 inkscape:connector-curvature="0"
                 id="path2730"
                 style="fill:url(#linearGradient2720);stroke:none" />
            </g>
          </g>
        </g>
      </g>
      <g
         transform="matrix(1.25,0,0,-1.25,-66.33875,1102.8347)"
         id="g2732">
        <g
           id="g2734">
          <g
             id="g2736">
            <g
               id="g2742">
              <path
                 d="m 371.07,114.942 -5.96,-10e-4 1.379,-1.303 3.221,10e-4 1.36,1.303"
                 inkscape:connector-curvature="0"
                 id="path2754"
                 style="fill:url(#radialGradient2744);stroke:none" />
            </g>
          </g>
        </g>
      </g>
      <path
         d="m 397.49875,959.1572 -1.70125,-1.26875 -4.025,0 -1.72375,1.27 7.45,-10e-4"
         inkscape:connector-curvature="0"
         id="path2756"
         style="fill:#efe34b;fill-opacity:1;fill-rule:nonzero;stroke:none" />
      <path
         d="m 385.07,969.73845 1.20125,0 0,1.495 1.19,0 0,-1.495 1.2,0 0,3.93875 -1.2,0 0,-1.56875 -1.19,0 0,1.56875 -1.20125,0 0,-3.93875"
         inkscape:connector-curvature="0"
         id="path2758"
         style="fill:#ffffff;fill-opacity:1;fill-rule:nonzero;stroke:none" />
      <path
         d="m 389.47875,973.6772 1.2009,0 0,-3.93787 -1.2009,0 0,3.93787 z"
         inkscape:connector-curvature="0"
         id="path2760"
         style="fill:#ffffff;fill-opacity:1;fill-rule:nonzero;stroke:none" />
      <path
         d="m 393.97125,970.8272 c -0.23375,-0.25 -0.51125,-0.34875 -0.87875,-0.34875 -0.3,0 -0.50625,0.0987 -0.50625,0.28125 0,0.63625 2.3075,0.0725 2.3075,1.6775 0,0.65125 -0.55625,1.3125 -1.78375,1.3125 -0.75125,0 -1.4125,-0.16625 -1.8575,-0.765 l 0.7225,-0.5275 c 0.26125,0.3025 0.62875,0.48 1.05625,0.48 0.4725,0 0.6625,-0.1725 0.6625,-0.34375 0,-0.59875 -2.275,-0.14125 -2.275,-1.63 0,-0.77125 0.68375,-1.2975 1.69125,-1.2975 0.58875,0 1.18875,0.1675 1.56125,0.62 l -0.7,0.54125"
         inkscape:connector-curvature="0"
         id="path2762"
         style="fill:#ffffff;fill-opacity:1;fill-rule:nonzero;stroke:none" />
      <path
         d="m 396.2,970.52095 -1.15625,0 0,-0.7825 3.51375,0 0,0.7825 -1.15625,0 0,3.15625 -1.20125,0 0,-3.15625"
         inkscape:connector-curvature="0"
         id="path2764"
         style="fill:#ffffff;fill-opacity:1;fill-rule:nonzero;stroke:none" />
      <path
         d="m 399.96375,971.70845 c 0,1.05625 0.32875,1.26 0.74,1.26 0.40625,0 0.73875,-0.20375 0.73875,-1.26 0,-1 -0.2725,-1.26125 -0.73875,-1.26125 -0.48375,0 -0.74,0.3075 -0.74,1.26125 z m 0.74,2.04125 c -1.25125,0 -2.0075,-0.78625 -2.0075,-2.04125 0,-1.25625 0.75625,-2.0425 2.0075,-2.0425 1.25125,0 2.0075,0.78625 2.0075,2.0425 0,1.255 -0.75625,2.04125 -2.0075,2.04125"
         inkscape:connector-curvature="0"
         id="path2766"
         style="fill:#ffffff;fill-opacity:1;fill-rule:nonzero;stroke:none" />
      <path
         d="m 404.40625,971.3122 0.6225,0 c 0.345,0 0.595,-0.14125 0.595,-0.39625 0,-0.25 -0.1725,-0.42625 -0.545,-0.42625 l -0.6725,0 0,0.8225 z m -1.20125,-1.57375 2.0125,0 c 1.40125,0 1.67375,0.62625 1.67375,1.13625 0,0.48875 -0.3275,0.8175 -0.795,0.99 l 0.785,1.8125 -1.335,0 -0.595,-1.615 -0.545,0 0,1.615 -1.20125,0 0,-3.93875"
         inkscape:connector-curvature="0"
         id="path2768"
         style="fill:#ffffff;fill-opacity:1;fill-rule:nonzero;stroke:none" />
      <path
         d="m 408.37625,972.0047 -1.52375,-2.26625 1.3625,0 0.87875,1.33875 0.83875,-1.33875 1.09,0 -1.445,2.1725 0,1.76625 -1.20125,0 0,-1.6725"
         inkscape:connector-curvature="0"
         id="path2770"
         style="fill:#ffffff;fill-opacity:1;fill-rule:nonzero;stroke:none" />
    </g>
  </g>
</svg>
