<?xml version="1.0" encoding="UTF-8" standalone="no"?>
<!-- Created with Inkscape (http://www.inkscape.org/) -->

<svg
   xmlns:dc="http://purl.org/dc/elements/1.1/"
   xmlns:cc="http://creativecommons.org/ns#"
   xmlns:rdf="http://www.w3.org/1999/02/22-rdf-syntax-ns#"
   xmlns:svg="http://www.w3.org/2000/svg"
   xmlns="http://www.w3.org/2000/svg"
   xmlns:xlink="http://www.w3.org/1999/xlink"
   xmlns:inkscape="http://www.inkscape.org/namespaces/inkscape"
   version="1.0"
   width="58.000004"
   height="26.59343"
   id="svg2">
  <defs
     id="defs4">
    <clipPath
       id="id14">
      <path
         d="m 0,0 595.276,0 0,841.89 L 0,841.89 0,0 z"
         inkscape:connector-curvature="0"
         id="path225" />
    </clipPath>
    <image
       xlink:href="data:image/png;base64, iVBORw0KGgoAAAANSUhEUgAAAIUAAAAqCAIAAAAS8g9QAAAJl0lEQVR42u2aeVhTVxbAk7AoFjcE xIVdZBEIOxbEqjgIKghUCsqO4GjZUVGUslPUUhVkIgJCylLBCio6wqdUEASlRYuodRkH7XwdLLK6 JBG0zJzw8PFISHhJHlPna853/4B3c8997/zuueec+x7pP2L5kIQkNgGx8uON5p7uHjGPD0JqL9dI kyiWxiZMBkPM4w+W69ca5WRnkoZlmYWlcEjEPAiDMWf6LBJG2EiYTDGPP0AuX6ya/dEMEpdYmph0 d3cLzKOy4kzcnpik2C8IafExewtP5KMTdHU+/zIhMXFfLCHKE2Njk+Pi/vHwEaq/hP4NzEjUzcfF 7D1dWiqQBavPX5hKliTxEKrekq6ubsF4rLOzIxEq+to66AQNV2pJRAs97wSq39TAkFjlK62tiYKB iKmhEf5Ywubhsm4dsY8ENkInaLx6VYJQ5WQSqZhOR/V/bGZG7M3brVhJIAxBw/ufhQeMkmQ3MoUg HpDaylCk8N82zvDOk4eBjh7tSEbGV+mjLT09LTHJb/NmHc1FIvIAo+wIC886fBir//CBg7sjIm1t bKTY1iOGh5zsDMc1a/YnJVWcOlVX8/21uqsXKytzaceCg4IsTUylSRTheEAAnzVtuqArCWacMLzz 5LF29Wo+w75K/ZKP1SbkAVdab/3ES3lz03UTfUMReUwlS+zdsZN/qXyn9fbOsHCygDyqKivHBYlH ILz39PQIwwO9raGhISaTxXjNGBgYwI7Myz5OEYEHrFbkB4MDA6AcGlb5q5cvNVVUheZhoKt3t+0O VmF3V3dzU1Njff39u/ew11ksluTYhcWfx9/PnQMYfPwXbKKhrLpYXUNTRQ1pykrzwU3ROANLra+3 T3geT9qfaKioKs6SmysnD3hzj2Wjg60tLETnsXnjRqikQD/ct7uLS+dvncj1rEOHheOxZLF2X9/o Axfl56+wsoLtBRwaTD+FRFk4V2ndX+yQpPzNmzeSuP3jwlk2DFdHR29Pr3GRgKrkuPh8ehFr7Nod AjvUN+yOjJonr/AeSa+QPO7f+5kydsqfWm4iXeHbtovOY5nlUmyX12efIdf/9fSXcbdELh7m2F6w V+utW0jXi/5+B1tbPruHoa4ehBYpfP4B25QUieLk4AB/hwSHaOvpU7hubH9yMvQGbQuJ2ftFbPTu PZFRwCAuJiaHRuv4d8fwLb2AQAA/tjA2gaUgDI+H9x9wrKDighFzRIWEis5jpfUybJeVmTlyvfPZ M3w8xviHt4cHch2e1trcAmfqNSGPC2fPTiGznyOPdoxt8cCtRqbmUmOTNei+e7sNPCMkLMrd04dj FlgogT4+sPnD8OVL2Uvwk4+tXr96Jap/zJD56JenT5Eu+1WrCPePHaFhyPXSomKygPsVrJvb750j IjiYqPrj3OlyNIAfPXQIrmwN3Eo1MePmcaOxkc0jNNLTx19ifOUrYHj743ZEoRnViCOW4Igf/2xX mceOSAsUlSAZra2pGVkyZ85KEhHP3V1dZ06VVZgpB2l0dETk4OAge3WzWKaGVEHjh76OLnKRyWRA tCOEB0fRh/Dw9wvQMaBypzNN9Q2If/DiAZJ9NAs0bHBweG8rKhYJrvyqv/8FjEF8DZHTpWUi5rso DwaD0dvTy8CUr/19fTZjnQYnD0d7+/enrdeELkKxPKBY4ajAM79m80iIS3BxdjUzMtZSVddSY7dF qmpLtLTvtd1hMFn8eay3swMNiftiMeaidnV24uUxrrS1tu4MDed1WmAiCA9ugaBHz8k1NzLGx2M0 nnu6uSEXy0tLySLzgIx5Conz3jPSv+ZfnfT29vHnsdTUFH6WnXl07EWzoeE0bGIeLCbru29Pwm5e VlICf2DtePX7K7JSU0X0j4bauuKCAlBeVlxcWV4OaRU6duOGDQLxgN8jF6/V1VNE5tHb2+u8di1H b+Ywj+qLVXnHcw6mpmIPntMSE3u6u1+8fMWfx+rly0HDoQMHsCXLvujdeHk8+Pk+ZawptTU0q86f H6kSjhwRkQekGVhbT5OUDtu2HR3OfTbDZ79C52UymUoExQ9/T09sLxI/vL18tPUNyULFj7g9MaBh i7c3aopMjM/hyne5Vesu0nr79i3iPbNlZ4iW71pzW/zMqVO8Umo+PCCkoeV3+PbPicqvfDZt4uAR 4B9ANTbjKOxH8yvePKAUhUj8++9DqvMXIENoRzJErT9AZKVl0NzZQEeXwPoDkfS0NKQXnl+gevCv fv4jLsJgmOB4NUIZzpInDJwbnZyQ3uNZWSM8TMbh0dpyE+GxyduP23uU5BSuXLoEw3dFRI4LQ5j6 AxF3Fxek9927d/PkFUWrPyw5emdNk3304CHSu29XtEA8IAI/fvR45NXk8+erbGz45GnmVKNvCwsX a2jiSWQ+Xb8eendFRLB3m4BAqAclxvIAK5WXlkHv9uAwb78ti1TV58srzJdXBFcAg0A9hBzu0jIy ycOzc8PAe36lqaIG27HSHIWFinMNdfV2R0ahR/nfnTxJFvH8ys0Nig9QDk19obLjmjUtzc3ocDOu KoQ/DxBIzN5gjo8KT+RD2aQwczaUYNAgPmmoqELkR2wHAk+HM7Hc4LAWjE7PzYsIi5CbPWccD5ij cKPpenxCSsuPLdzDf+vogBIdGbU/KVnI8ysQCBVQpg0MDHJN8ExdWUXEeA4eNjCsfHDwLYf+6GG/ FpQHUvfeud2GVcV4zYAc/eYPPzxtf8Ixi5a6Bv5E/1MnJ9jfVBco83K7BXPn+Xp67YmK2hkWjjQI gUG+fhAmZSSkETc6mJJK8PsPkLLiEi01jcl4/wEChZW7i6ug5yVjNy7KjtCwjl9/5TNLU0NDgJcX /vPdkfDu4SH0y00JHtvUxDz0tLQPpqSkJSSmxiegDf6FDd3N2XmxuiZFtPeDIUFbDyQlcyhPiYv/ fEuglZk5nxc+Ar0fnC4tY7/KNi0xqaKs7HJVdU11dWVFRS6NFhwUZGpIlRT2fe0WL6/JgPHn+p5B YrhNWLfjfH/u4+5BOIwRHs5E8+A4L6FMKg9Twr8vWYHz+xL86xgnjBEejvb2xD4SVW/J6PdXtXVk EsGC/d7Ogscxl9Bia7Mc//dXHq6uEyqEXTHnbzQBvr+CqrIgJ7e4gE5Ig3QQdmrM4WD/ycKiovwC QpSDnhL6N5A4ovqvXLpMz8sj6ubBDvW1dQJ9n+iLqd7H9YzszKPi73f/p8ILCf5tSsxj0pEIAUPM Y7KQCAdDzINg8XZ3FwWGmAfxEuTrexx3NiXm8aGLmIeYh1jEPP5f5L8+YJy42zwRYAAAAABJRU5E rkJggg=="
       width="1"
       height="1"
       preserveAspectRatio="none"
       transform="matrix(1,0,0,-1,0,1)"
       id="id29" />
    <clipPath
       id="id23">
      <path
         d="m 225.061,200.389 c -0.961,-0.172 -1.69,-1.013 -1.69,-2.023 l 0,0 c 0,-1.136 0.92,-2.056 2.057,-2.056 l 0,0 c 1.023,0 1.871,0.748 2.028,1.728 l 0,0 0,0.657 c -0.138,0.859 -0.809,1.541 -1.663,1.694 l 0,0 -0.732,0 z"
         inkscape:connector-curvature="0"
         id="path221" />
    </clipPath>
    <filter
       color-interpolation-filters="sRGB"
       id="id5">
      <feBlend
         in2="BackgroundImage"
         mode="multiply"
         id="feBlend218" />
    </filter>
    <clipPath
       id="id7">
      <rect
         width="336.95999"
         height="385.92001"
         x="369.414"
         y="1.6671799"
         id="rect215" />
    </clipPath>
    <mask
       id="id12">
      <image
         xlink:href="data:image/png;base64, iVBORw0KGgoAAAANSUhEUgAAALAAAAIYCAAAAADoDDkoAAALrUlEQVR42u3da4xV1RUH8HXe995z zp0HU+Q1Dq9MQUYJxiIFEmGQ2li1L4vEStEmaJsSaauhlg+tSR+xn7QlsYkkNmnViJCa1kilwZJU xYjWBlOaQhUIwsjQcWBggAFm7ikPk4IMgb322nt1O+sfo+Mws/llzdr7nLPPuXcAJBKJRCKRSCQS iUQikUgkEolEIpFIJBKJRCKRSCQSiUQikUgkEolEIpFIJBKJRCKRSCQSiUQikUgkEolEIpFIJBKJ RCKRSCQSiUTifDyqgRrra0Vx6p8Camf+U0Bx+v9rxUANTn38/wau/+6is2A4o66dCz774emPB05/ Gjav3Mv/g3q8UMiuqzX+Jp/m59Sm8tUtX2QHR7nSlyfs4LBe6cvL7OBYrcIldnAlcQycB461RBZ+ ssH8LZGpHTBLHjc4Vfvyks9eYdfAasswlAPHWiJxriUCx8BJ6Bg4TFwDVxwDB9xg3zVwqLgOB2Vm cKBYYS/lrrAiGLhbIlE9X+RuiTQyeygnB2ehYy1RVh2lxA0OHKtw7lqFlQvGDc5dA6ef+ArH0sNq qSqvg9xHOuWW8BzrYY2NCaZlzWcF+8rLWswLDjLHWkL9mrLECw6Vl7WIFxwpL6thiRWcRcpNxAuu KA/iJ6zgXL3CZVZwGrhWYeUzAy/knXTqfyvvpMvVv4W3JRD7OJFjLcFcYQS45Bo4lkln9KJZKmz6 CokZrH7+ztwSmLtuvBXOHatwXHKswnnkWIXzwDFwGjrWElngGBhzW5O1JeoQ3xN5jGDMXUL8fitT SySugWNOMOLIDCEnOHOth50DY1oicq3CQcAHDjCrBH5HWx8cYsD4/VaCCmNaAr/fSgDOHatwCXPm hb9noA/GnL+DH/OBqxiwxwhuwGxOe4w9nKHOxRnX4Qz1XYwtkbsGxj1am7jWEom0hNGLZlZwNjQm XSyT7rIPsq61RDhEwHwtEbgGTnDrcMQGroSOVTiPHAOngWPgDAdGb67pg3F3KxI+MO7bYjYw8oVb fBVOXQNXXWsJ53oYd0kHUehYDwehYy0BrvVwkDCBfWRL+BETGHnBgX9GWxccpK6Bkcsa+p6BLjhB VsrnmnQZcvJ4XC2RYQ8AXC2RYu9yh65VmA2M/caya2CuVQL91hZcky53rSXSIVPhRFrCcEsk0hKG 12Gmk5/AtZYInKsw+ukopnU4rKLBHgs4QT+7gz2R1gTn6NtX2CeINcEZ+rHaiAecox/6LLtW4RJT D4NjqwT6uIHeINYE498PMiw71hLYvSq2lsDuBg61CmuAS66tEoljq4THAvbxLQEsLYG/4GAChxpg lpYINVqCZR0Oy461BP6CA71XpQfOQsdaIg8cA+tUmKeHYQiBIw6wxhvQA8tVs8aBDnv/SQ+s8X7u POuwTg8HMukMgyuuTTrk5poW2NOpcMIADrSOdIF9cJg6VmGdKyQesGsVTjV+iQL2CWItcB7q/Hhi +2Cd83fsXpVehTWukMCLGHpY5/dp+wwtoXPcwL4RjV6Fdb7ZZwDrHDfAC6TCZisMDOA6LXDsWoWd A3Mc6Rzr4cC1CoeugYPUsUmnWWH7Z2uVkha4Yh2sdf7O0RJZoAX2pcKXPG5wbN9rVVjLy7AOa4I9 6+DUtQrrnfsw9HBVD4x7vpWxwr5zPew7tkrgjjuMLVGyXWFfsyVC22DN02HkI88a4EB30pUsgyPN Hg5tg8sVPbBne5WoRnpgsD3p6kLNlsgcqzBu0mqA63U7InQM7FnvYU0w3GB7WdMFr1hgF5zpguMn b7YKTnXBkK6+ySa4og2GbHW7UxU+NXHXzrQHzgnA0LCqwRbYr1KA4aqfWANXSMDw7c9bAoc5Ddhf OcISWHsdhlpx+t8TH7UDjolaAmDhPVbAaaQt9T66DH3kShvgckBVYRj+WGgBXBeRgeHLy22AQzow /GC8BbA+8387KdXvmQdnQJm7JzsGzpaaX9ZIwXDnWLcqDPX3mAbntGC4u8EwuEIMvvIhw+AqMRiW zXSqhwGSlalR8HBqMFz7MJjLrev6CvIMfMEUd8zThZHsuPTFh/KNkbr58ydWWkYaqsQzXycesOHB 7YXR3EHKDZf8uzCc9xoJvTM3FubzYzrvfb0WvEXnJebd5V+YrXg0pp5ixSBzPu3cRDP4cgPVrNUG +eTbNNeK7f22wP3XUbREvnaEkXV3kMOAf3ADwbnEfW1gLXcN0wc33m+mvoMeZ0fdog9e0AwWs1Ab HHzDphfmtOmCPzPdKri0WBd8U2AVDIuGa4JbTcmKwT99xVJNcAqWs3SiHnjAVIGLi512/1QP3G25 JU6to/O0wFtttwR4P/R0wOuPmXJd9E/mzdc5+emaOsW6uO5ZnXHbesxcXtQu/kd903ROL/d/cJtn ucJh8ILWyIsPFpbTM0Hrmm7Liw0tidWFIunboLnz8+kZk4ePaKqr5pYOfPuv6aTYqqpW8yzPS3O+ ZV780C8IB/uahS5+t0pR4fLYsVPaxtePbrTQFPeu0gW3zp131Vh7527vzNA7xN78fI/lpe1OHe6E NYX1bNbYHbt9X8GQBWjvsn4Ob/EGtsRLCqbcjjs0T1pj97B8zp7T71A7Pw9WmbwwdzYGPPqrXF4I vokB31rPBoYvNSPAX+HzQsNd6uBJsxnBcFugDG4vc4KnjlcGX8vphfL1qmBvHCsYrlEFR0284FZV cFDmBY8OFcHFAC+4IVYEn+jiBZ//cuLLANd28YIL5WVtGy/4RE0V/DYv+Ei/Kvgt3iY+pAze/3dW cI9yS8ArvBVWP718irUnDqiDdz7BCe5GXNNtLDh7GAF+/V3HwEc+cGvSAfS5NekAdvB5BzAtAe/w gfsPY8Av9fKd+6AqvHPZMS7wsSMYMDzJduzoPY4CA9uF3fkna5cNTuezgU+iwG0tXOCDBQrc7LOB AQXmu9TvwYH51uFuHPgwW4n348A9/VzgfThwZw/XuU8HDnxgKxP46F4cuPgLE7gLOelg7VEe8J5j SPC/nuEB760hwfDIIRbwx+acAvi9h3kqjAbDY7/nAO/Gg4sl6xiW4T14MHQv/Kf9C6QODTAc/r71 A3TXhzpgWP+dmu05d0wLDE/c8dEORW3bb3ZbOW58vEKqb3Sydt30qaO8Azu3b++d9myreXAH5WDj Nph/SOkB0GuJ83dXbllh/OhHvW067WWzBa61U1cgXt5tEtxn4JWSk1fXzIEPGnkp6ufMTb7dmZGZ ESx6zRB4S2xoMgf3nzQCftWnXNbOPan61QIjB76ThSEwwPPXrzpJD+43B4Z997b/mRx84Q1Nyk3J Vxf3ugWGfW9Qg32zYPgtOdgzC37uTWJwaBjc98Bx4lMVw2B45We04134XpXUty5+uY90uAt/yQg1 +BDtQ25ZZBoM/yAdrZIZB9M+MhbXGwdvIn0WJB5mHLydtMTeCOPggT+QDjfSOBjWHKYcbbR58A7S Eo8xD4bHKbc4x/jmwa//kRJcMg+Gnx+hG6up0QL4by/QjVUeaQFM+XxQ+CkL4Hgs4WD1NsANhIPV WQCHlPtLVQvg/j7HKtz3IeFguY0Kdzg26eB9x1qCFNzoOwZuii2AOwhfRdFYsQDuJNz/yZssgLsI H+dOmi2AewnfUc6bYAHcRznrWi2Aa9scA8NbhGNNqVgAbyJcJponWgDv2ks3VjTDAvh4J+FgsyyA ByifNp5VMQ8mfXXYuGkWwK8RjuXPtQDeQ/ki0jkWwDHlu05e12wefJTyVRR1s82D/0N6g3GOeXA3 6RPzs2Lj4COkL45vnWQcfHwn5WjRbOPggvb+4izjYNhCOtqMinnwCcrRWq42Dt5F+lhqMNs4uHer oSY29lLPzaSjzRxmHLyJdLQrZhoHv7mXdLh24+CDtC/AmxebBsN60tEmTzUO3niAcrTwRuPgjr+S DmceDC+Sjja9xTj4JdJXFmftxsHvv0w63HzjYHiOdLQb6o2D/0R6Fj/q7Bt2hgbBh379I6Dbnwg+ e2Zl/y9h8eiUsjl/9wAAAABJRU5ErkJggg=="
         width="1"
         height="1"
         preserveAspectRatio="none"
         id="image212" />
    </mask>
    <clipPath
       id="id21">
      <path
         d="m 45.355,196.502 101.245,0 0,9.068 -101.245,0 0,-9.068 z"
         inkscape:connector-curvature="0"
         id="path209" />
    </clipPath>
    <clipPath
       id="id2">
      <rect
         width="595.276"
         height="841.89001"
         x="0"
         y="0"
         id="rect206" />
    </clipPath>
    <clipPath
       id="id22">
      <path
         d="m 161.221,185.59 79.022,0 0,29.552 -79.022,0 0,-29.552 z"
         inkscape:connector-curvature="0"
         id="path203" />
    </clipPath>
    <clipPath
       id="id24">
      <rect
         width="1.99994"
         height="2.0000899"
         x="-0.99998498"
         y="-1"
         id="rect200" />
    </clipPath>
    <clipPath
       id="id20">
      <path
         d="m 0,0 595.276,0 0,841.89 L 0,841.89 0,0 z"
         inkscape:connector-curvature="0"
         id="path197" />
    </clipPath>
    <image
       xlink:href="data:image/jpeg;base64, /9j/4AAQSkZJRgABAgAAAQABAAD/7gAOQWRvYmUAZAAAAAAA/8QAPAABAAIDAQEAAAAAAAAAAAAA AAYFBAMBAgcQAQABBAMBAQEAAwEAAAAAAAABBBECAwUhEjFBURUUYRP/2wBDAA0JCQ4JDhIPDxIY FhcWGB0aGhoaHSIXGBgYFyIiHR8fHx8dIiMpKSkpKSMuMjIyMi46Pj4+Oj4+Pj4+Pj4+Pj7/wAAL CAQwA6gBAREA/9oACAEBAAA/APmAAAAAAAAAAAAAAAAAAAAAAAAAAAAAAAAAAAAAAAAAAAAAAAAA AAAAAAAAAAAAAAAAAAAAAAAAAAAAAAAAAAAAAAAAAAAAAAAAAAAAAAAAAAAAAAAAAAAAAAAAAAAA AAAAAAAAAAAAAAAAAAAAAAAAAAAAAAAAAAAAAAAAAAAAAAAAAAAAAAAAAAAAAAAAAAAAAAAAAAAA AAAAAAAAAAAAAAAAAAAAAAAAAAAAAAAAAAAAAAAAAAAAAAAAAAAAAAAAAAAAAAAAAAAAAAAAAAAA AAAAAAAAAAAAAAAAAAAAAAAAAAAAAAAAAAAAAAAAAAAAAAAAAAAAAAAAAAAAAAAAAAAAAAAAAAAA AAAAAAAAAAAAAAAAAAAAAAAAAAAAAAAAAAAAAAAAAAAAAAAAAAAAAAAAAAAAAAAAAAAAAAAAAAAA AAAAAAAAAAAAAAAAAAAAAAAAAAAAAAAAAAAAAAAAAAAAAAAAAAAAAAAAAAAAAAAAAAAAAAAAAAAA AAAAAAAAAAAAAAAAAAAAAAAAAAAAAAAAAAAAAAAAAAAAAAAAAAAAAAAAAAAAAAAAAAAAAAAAAAAA AAAAAAAAAAAAAAAAAAAAAAAAAAAAAAAAAAAAAAAAAAAAAAAAAAAAAAAAAAAAAAAAAAAAAAAAAAAA AAAAAAAAAAAAAAAAAAAAAAAAAAAAAAAAAAAAAAAAAAAAAAAAAAAAAAAAAAAAAAAAAAAAAAAAAAAA AAAAAAAAAAAAAAAAAAAAAAAAAAAAAAAAAAAAAAAAAAAAAAAAAAAAAAAAAAAAAAAAAAAAAAAAAAAA AAAAAAAAAAAAAAAAAAA7EXe41zL3GmXJ0zDxOFnlwAAAAAAAAAAAAAAAAAAAAAAAAAAAAAAAAAAA B16xwu36tE5M7RQzl+MzHjZt8a93HzjHxXb6ecWHnjZ4AAAAAAAAAAAAAAAAAAAAAAAAAAAAAAAA AAAB2Iu24aplmaKScvxb0nGzlbpe0fE3t0tMOI6+MSs4u0T0jfIUPm/ShqNPmWJlFnkAAAAAAAAA AAAAAAAAAAAAAAAAAAAAAAAAAHbPWOF2Tqp5yWVLQTlbpeUXFXt0kNFxNrdL2l46MfxnxRREfGFW UMTE9IpytB96RHkKTzM9KXdr8y0zDgAAAAAAAAAAAAAAAAAAAAAAAAAAAAAAAAADsRduw1TLNp6O cvxcUfGTlbpIKHifnSQ0fGRFulzT0UY/jP16YxbfDGqNPqFByVH6iekN5WgtfpFq2m8zKszws1gA AAAAAAAAAAAAAAAAAAAAAAAAAAAAAAADr1jhdk6aeclnS0E5W6XtDxV7dJFQ8Va3S+pePjG3S000 0YsnHCIbIgeM8bsCrp/USjHKUN79IdydDaZ6Rup0eZYWUWeQAAAAAAAAAAAAAAAAAAAAAAAAAAAA AAAAHvDG7Np9HqV3Rcf6t0kVBxXzpIqPjIxt0uaejjH8Z2vTGLdGNnQGrZheFTXUvqJ6RPlaD70h /I0fmZ6Ue/V5ljTFnAAAAAAAAAAAAAAAAAAAAAAAAAAAAAAAAAb9ON5XfH6PUwl3F0UTbpKqGiiI jpb6aeMWTjhZ7sADkwx9+r1Cj5Gj9RPSH8rQfekTrqXzM9KnbhaWpwAAAAAAAAAAAAAAAAAAAAAA AAAAAAAAAAZGie0g4zKLwm3E5R0ldHa0LLCHoAAecouw6nR6iUc5OhvE9IbylDa/SMVdP5mVfnjZ 4AAAAAAAAAAAAAAAAAAAAAAAAAAAAAAAAG3VlaVvQb/MwmHEVnztMePqfUQutWd4bgAAa88bq2sp vUSi3K0F79IdyVF5mekfqNPmWJlFnkAAAAAAAAAAAAAAAAAAAAAAAAAAAAAAAB2Jsy6fb5lIuMrL THaacVW3t2lNJv8AUQsMJu9AABLRt1+oU9fSeonpEeVoPvSI8hSeZnpS7tfmWiYcAAAAAAAAAAAA AAAAAAAAAAAAAAAAAAAAbMMrSs6Ko8zCWcTW2t2mfG1XqI7X+jZ6hkQAADkxdi1Gn1Cg5Ki9RPSG 8rQWv0itbTeZlWbMLNYAAAAAAAAAAAAAAAAAAAAAAAAAAAAAAADsMjRs8yvuNqvMx2mfE1l7dpbR VHqIWeGV4ewAAec8bq+rp/USjPKUN79IbydDaZ6Ryq0eZlg5Y2eQAAAAAAAAAAAAAAAAAAAAAAAA AAAAAAAHrGbLGj3+ZhKeJrLW7TTjKu8R2kVPt9Qyom7oAANWzC8KqupfUT0ifK0H3pD+Ro/Mz0ot +rzLGmLOAAAAAAAAAAAAAAAAAAAAAAAAAAAAAAAA63ac/MrrjqnzMJlxFb87S+gqPUQt9eV4bAAA cmLsfdq9Qo+Ro/UT0h/K0H3pE66l8zKp24eZanAAAAAAAAAAAAAAAAAAAAAAAAAAAAAAAAesZsza Xd5mEm4qstMdprxVZeI7SWl3eohm4zd0AAHnKLsOp0eolG+TobxPSHcpQ2v0jFXT+ZlX542eAAAA AAAAAAAAAAAAAAAAAAAAAAAAAAAAG3XlaVvQVHmYTDiK352mPH1PqIXWrO8NwAADXnhdW1lN6iUW 5WgvfpDuSovMz0j1Rp8yxJizgAAAAAAAAAAAAAAAAAAAAAAAAAAAAAAAOxNmXTbfMpFxdXaY7TTi qy9u0ppN/qIWGOV3oAACYaNuv1Cmr6T1E9Ihy1D96RHkKXzM9Kbbr8y0y4AAAAAAAAAAAAAAAAAA AAAAAAAAAAAAADZhlaVnRVHmYSzia21u0y42r9RHa/0bPUMiJdAAByYuxKjT6hHuTo/UT0hnK0Nr 9IvWU/mZVueNngAAAAAAAAAAAAAAAAAAAAAAAAAAAAAAAHYlkaNnmV7x1X5mO0x4mt+dpbQ1HqIW uvK8NgAADxnjdXVlP6iUW5WhvfpDeTovMz0j1Rp8yxMos8gAAAAAAAAAAAAAAAAAAAAAAAAAAAAA AA9YzZn0m7zMJPxVZaY7TTi6y8R2klNt9QzMZu6AABLTt1+oU1fS+onpEeWofvSIchSeZnpS7tfm WmXAAAAAAAAAAAAAAAAAAAAAAAAAAAAAAAAbdWdpXFBU+ZhMOIrfnaY8fU+ohc6s7w3AAAOTF2LU avUI9yVH6iekN5WhtfpFqym8zKtzxs1gAAAAAAAAAAAAAAAAAAAAAAAAAAAAAAA7E2ZdNt8yknF1 dpjtNOKrL27Sik3eohn4zd6AAAeM8bq+rp/USi/KUN79IbydF5mekdqdPmZYeUWeQAAAAAAAAAAA AAAAAAAAAAAAAAAAAAAAbNeVpWlDUeZhLuJrPnaZ8bVeojte6dnqG+AAACWnbh6hUV9L6iekS5ag +9IfyFJ5melJu1+ZaJhwAAAAAAAAAAAAAAAAAAAAAAAAAAAAAAAdiWTo2eZX/GVfmY7TTiay9u0s ot/qIWOGV4ewAAHJi7GqNXqFByVH6iekO5WgtfpFK2m8zKs2YWlqAAAAAAAAAAAAAAAAAAAAAAAA AAAAAAAB7wyssaPf5mEr4mstbtNOMq/UR2kFPs9QyokAAAec8bsCq0eolGuUob36Q3k6G0z0jdVo 8zLAyxs8gAAAAAAAAAAAAAAAAAAAAAAAAAAAAAADsN+nO0rzjqrzMJnxFb87S6hqPUQtNeV4bAAA Bq2YXhV1tL6iUT5Wg+9IfyNH5melDv1eZY0xZwAAAAAAAAAAAAAAAAAAAAAAAAAAAAAAAesZsz6T d5mEn4qstMdppxdZeI7SSm3eoZmM3dAAAJhj7tfqFHyNJ6iekP5Wg+9InXUvmZ6VG3DzLVLgAAAA AAAAAAAAAAAAAAAAAAAAAAAAAAA3as7SuKCp8zCX8TW/O0w4+q9RHa61Z+oboAAAHnKLsOp0eolH eTobxPSG8pQ2v0jFXT+ZlXZ42eAAAAAAAAAAAAAAAAAAAAAAAAAAAAAAAB2Jsy6fb5lIuMrPMx2m fFVt7dpTR7/UQscMrvQAAA8Z43VtZTeolFuVob36Q7kqLzM9I9UafMsTKLPIAAAAAAAAAAAAAAAA AAAAAAAAAAAAAAA2YZWlZUVR5mEr4mttbtM+Nq/UR2v9Gz1DJiXQAACWjbr9Qp6+k9RPSJcrQfek Q5Ck8zPSl3a/MtEw4AAAAAAAAAAAAAAAAAAAAAAAAAAAAAAA7Dfp2eZXnHVXmY7TPia352ltDUeo ha68rw2AAADkxdi1Gn1Cg5Kj9RPSHcrQWv0itbTeZnpV7MLS1gAAAAAAAAAAAAAAAAAAAAAAAAAA AAAAD1jNmfSbvMwk/FVlpjtNeLq7xHaSU231EMuJu6AAAPOeN2BVaPUSjPKUN79IbydDaZ6Ruq0e Zlg5Y2eQAAAAAAAAAAAAAAAAAAAAAAAAAAAAAABu1Z2lc8fU+ZhMOIrfnaY8fU+ohcas7w2gAAA1 bMLwqq6l9RKKcrQfekO5Gj8zPSi36vMsaYs4AAAAAAAAAAAAAAAAAAAAAAAAAAAAAAA7jNmZTbfM pLxdXaY7TTiqy8R2lFLu9RDOxm7oAAA5MXaN2r1Ci5Gk9RPSH8rQ/ekSrqXzM9KnZhaWoAAAAAAA AAAAAAAAAAAAAAAAAAAAAAAAbNeVpW1DUeZhLuIrfnaZ8dVeohd6c7w3wAAADzlF2FVafUSjfKUV 4npDeUobX6Rmr0eZlgZ42eAAAAAAAAAAAAAAAAAAAAAAAAAAAAAAAHYmzKp9vmUh4yr8zHaacTWX t2lVHv8AUQscMrvQAAANezC8KytpvUSinK0N79IdyVH5melBUavMsWYs4AAAAAAAAAAAAAAAAAAA AAAAAAAAAAAA94ZWWdFv8zCV8TW2t2mnG1fqI7X+jZ6hkRLoAAATDH3a/UKXkKT1E9Ify1D96RGv pfMz0qNuHmWqXAAAAAAAAAAAAAAAAAAAAAAAAAAAAAAAdhv07PMr3jqrzMdplxNb87S2hqPUQtde V4bAAAAcyi7CqdPqJR3k6K8T0hvKUNr9IvV0/mZV+eNngAAAAAAAAAAAAAAAAAAAAAAAAAAAAAAB 6xmzOpN3mYSfiq21u004usvEdpJTbvUQzcZu6AAADXnjdW1lP6iUW5WhvfpDeSo/Mz0j9Rq8yxJi zgAAAAAAAAAAAAAAAAAAAAAAAAAAAAAADbqztK4oKnzMJfxNb87TDj6r1ELvTneG6AAAAJho3a/U KXkKT1E9IhytB96RGvpPMz0p9uvzLTMOAAAAAAAAAAAAAAAAAAAAAAAAAAAAAAA7E2ZVPt8ykXGV dpjtNOJrb27Smj3+ohY4ZXegAAAcyi7EqNPqEe5Ki9RPSHcpQWv0i1ZTeZlW542awAAAAAAAAAAA AAAAAAAAAAAAAAAAAAAHvDKyzot/mYSzia21u0042q9RHa+0bPUMmJAAAAeM8bq+rp/USjHKUN79 IbydFaZ6Ryp0+Zlh5RZ5AAAAAAAAAAAAAAAAAAAAAAAAAAAAAAB2GRo2eZXvG1XmY7TTiaz52llF UeohaYZXh7AAAAatuF4VFdS+onpEuVoPvSIchR+ZnpR7tXmWPMWcAAAAAAAAAAAAAAAAAAAAAAAA AAAAAAB6xmywo9/mYSniay1u014urvEdpFT7fUMqJu6AAADkxdjb9XqFFyNH6iekR5TjvvSLVlDM TPSs200w0Zaph4nGzjgAAAAAAAAAAAAAAAAAAAAAAAAAAAAADfpztK646p8zCZcRW/O0voKj1ELf XleGwAAAB5yxuwqnR6hQ1/H+r9I1XcVe/SkqOKmPxXbuOmPxhbaOY/GLnomGrLCzzZwAAAAAAAAA AAAAAAAAAAAAAAAAAAAAesZszaXd5mEm4qstMdprxVZeI7SWl3eohm4zd0AAAB4zxuw99NGStqOO jL8VdRxMT+Kup4f/AIqaniLfipqeMnH8Vm+inH8YWzRMNM4Wcs4AAAAAAAAAAAAAAAAAAAAAAAAA AAAA26s7St6Cp8zCYcTW/O0x4+q9RHa61Z3hugAAAAeZxu15aYlozpYn8Ym2gifxX1HGRP4p6viP vSjrOJtfpS1PGTH4rd1FOP4w86eYacsJh5s4AAAAAAAAAAAAAAAAAAAAAAAAAAAAOxNmXT7fMpDx lX5mO004qtvbtKaPf6iFjhld6AAAAAs8ThEtWeiJYe+ijL8VdVxkZfimq+IvfpS1XEWv0p6njJx/ FXvopx/GDs0zi0zjZ5AAAAAAAAAAAAAAAAAAAAAAAAAAAAHvDKyzoqjzMJXxNba3aZ8bV+ojtf6N vqGTE3dAAAAALPOWF2jZojJibqKMvxXVHGxP4p6vib36UFbxVr9KGr4+cb9KrdTTixctcw8TDgAA AAAAAAAAAAAAAAAAAAAAAAAAAOw36dnmV5x1V5mO0y4mt+dpbQ1HqIW2vK8NgAAAAAFnmcIlqz0R LD30cZfiorONjK/SPV3FfekerOLmL9KeooZx/GBs0Ti0ZYWeXAAAAAAAAAAAAAAAAAAAAAAAAAAA B6xmzOpd3mYSbiqy0x2mvF1l4jtJabb6hmYzd0AAAAAAecsLsbbTxkraqgjL8UlZxUTfpQ1vE/el DV8bON+lTvo5x/GFnqmGucbPIAAAAAAAAAAAAAAAAAAAAAAAAAAA26s7SuKCp8zCYcRW/O0x4+p9 RC51Z3huAAAAAAByYu156olibqSMvxV1XHRlfpRVvE3v0j9bxVr9KOq4+cfxWbqacfxjZYWeJhwA AAAAAAAAAAAAAAAAAAAAAAAAAHYmzLptvmUk4urtMdppxVZeI7Smk3eohnYzd6AAAAAAAeZxu07N MZMGoooy/FPWcZGV+lBXcT96R+s4ycb9KWoo5x/GBs1Ti0zFnAAAAAAAAAAAAAAAAAAAAAAAAAAA bNeVpWlDUeZhLuJrfnaZ8dVeohe6dnqG+AAAAAAAAs8ZYRLG200ZK2qoIyv0oq7i736Ruv4u1+ke rKKcb9Kvbq8seYs4AAAAAAAAAAAAAAAAAAAAAAAAAAOxLJ0bPMpBxlV5mO004msvbtK6Lf6iFjhl d7AAAAAAAByYu1Z6olhVFJGUfFHX8bE36RXkuNtfpF62k8TPSp24eZanAAAAAAAAAAAAAAAAAAAA AAAAAAB7wyssaPf5mEr4mstbtNOMq/UR2kFPs9QyokAAAAAAAAeMsLsKpp4yiUe5OhiYnpDeVorX 6Rer0eZlX5RZ5AAAAAAAAAAAAAAAAAAAAAAAAAAHYb9OzzK842q8zCZ8RW/O0uoaj1ELTXleGwAA AAAAAAeM8bwq62n9RKJ8tRfekL5Kl8zPSh36/MtEuAAAAAAAAAAAAAAAAAAAAAAAAAAD1jNmfSbv MwlHFVdpjtNeLqrxHaR02z1DLiXQAAAAAAACWNv1+oUHJ0vqJ6QvlqO1+kTrdHmZVueNpeAAAAAA AAAAAAAAAAAAAAAAAAAAAb9OVpXnG7piYTbh90zZL6HO8Qs8Pj0AAAAAAAAPOeN1dWaPUSifLUd7 9IXydL5mekf36/MsaXAAAAAAAAAAAAAAAAAAAAAAAAAAHYbtON5XfHapvCacPqmLJhQ42iFrh8eg AAAAAAAAlo3YeoUXJUvqJQvl6O1+kRrtHmZVeeNpeAAAAAAAAAAAAAAAAAAAAAAAAAAHvCLs+k0e phJ+Lor26TLi6TzEdJJTavMQzcYdAAAAAAAAB5yi7ArNPqJRXlqS9+kK5SltM9I7Ua/MsWYs4AAA AAAAAAAAAAAAAAAAAAAAAADI0YXle8bTephNOJo/nSWUNN5iFprwtDYAAAAAAAAANO7C8KPkab1E oZy9H96RCup/MyqtmNpawAAAAAAAAAAAAAAAAAAAAAAAAB2GbSYXmEq4jTeYTni9FohI6fXaGTEA AAAAAAAAA5lF2BV6fUSi/K0l79IVylLaZ6Rup1eZYkxZwAAAAAAAAAAAAAAAAAAAAAAAAB3H6sqK O4TDhse4TjjceoXumOm0C4AAAAAAAADTtwvCl5Gn9RKG8vSfekOr9HmZVOzG0tYAAAAAAAAAAAAA AAAAAAAAAAADuP1Y0WVphLuG2dwnHGbImIX+nK8Nt3mc7PM7YI2Xeoyu9wAAAAAAAAOZRdg1er1E ovy1JeJ6QnlKW0z0jdTq8yxJizgAAAAAAAAAAAAAAAAAAAAAAAAOwy6bO0wknFVPmYTXi62LR2kd PWRb63zVx/WnOrj+tf8AtXbte27L15XbodAAAAAAAAGnbheFNyFN6iUO5ai+9IfX03mZVG3C0tIA AAAAAAAAAAAAAAAAAAAAAAADbqytK1oqnxMJLx/Jebdr+m5aLfWV/lYn9civ9frJ0bpyWlNeVjqh vh0AAAAAAAAcyi7DqdPqJRvk6P1E9IZytDa/SMVdP5mWBnjZ4AAAAAAAAAAAAAAAAAAAAAAAAB2J s36tvlYU9bOP6sdPJzH6ztPITl+raj2zsmEhodczZe02q0M7DGzYAAAAAAAAA17MbwrK2m9RKK8r QXv0h/JUXmZ6UFRonGWJljZ5AAAAAAAAAAAAAAAAAAAAAAAAB2Js947Jhv1bputqHOcphLeJ1erJ fx+jqF1q12htiHQAAAAAAAACYaN2v1Cmr6P1E9InynH/AHpE6+i8zPSk36vMsaYs4AAAAAAAAAAA AAAAAAAAAAAAAA26fq843HuE44bCLQmFDj1Czxjp0AAAAAAAAAHJi7F36fUKTkKL1E9IjynH/ekU rqTzM9Kjbr8y0y4AAAAAAAAAAAAAAAAAAAAAAAADZqm0rzjc7TCb8NsjpMaHO8Qs8ZvD0AAAAAAA AAA85Y3YdTo9Qj/JUPqJ6Q/lKC1+kWrKbzMq3PCzWAAAAAAAAAAAAAAAAAAAAAAAAD1hNpWlDttM Jfw9Va3aa8bUxMQvNOy8N8SAAAAAAAAAAPGeN1fV0/qJRjlKC9+kP5OhtM9I5U084ywssbPAAAAA AAAAAAAAAAAAAAAAAAAA7DKp9nmUg42r8zHaY8XX/O0oo6uMojtZ69sZNsTd0AAAAAAAAACWrZh6 hU1tL6iekW5Tjr36RLkKCcZnpRVFPOMsPLCzwAAAAAAAAAAAAAAAAAAAAAAAAPeGVlhS1HmYSHju Q827SvjuTvbtI6StjKI7WerdGTfE3dAAAAAAAAAByYu0btXqFRW0XqJ6RjkuMvfpFq/jpxv0oqim nGWFnhZ4s4AAAAAAAAAAAAAAAAAAAAAAADsNmGdmdTVU4yvqDkZxt2lPHcne3aSUdbGVu1tp2+oZ ETd0AAAAAAAAAHJi7H26fUKqsooyiekb5HjL36Rav43zfpQ1NLOM/GBnrs1zDgAAAAAAAAAAAAAA AAAAAAAAAO3e8M7MynqZxle8fyE4zHaV8ZyN7dpTRVfqI7W2rP1DcBdy56g9QeoPUHqHbgAAAAAA 5MXaduqMlXV0UZRPSO8jxl79ItyHG2v0j9VSTjM9K7Zr8tUw4AAAAAAAAAAAAAAAAAAAAAAAA945 WZtNUTjKQ8bXWmO0w4yvvbtJqSqjKI7WOG2JbPUPOWcQ0574hpyq4j9a5ro/rn+9H9cmvj+uRXx/ WzGtif1vwqYlvx2RL3E3dAAAAAAcmLtWzV6V1VRxlE9I9yHG3v0i/IcZa/SO1dFOMz0rNury0TFn AAAAAAAAAAAAAAAAAAAAAAAAGzDKyxpKnzMJJxvI+bdpTQcn87XlPyMTH1mY1sf1r210RH1XVPJx j+q3dzER+sbLmo/rzPNR/Xiea/6RzX/W/VzMT+rKm5WMv1a01dGX6sdW6MmRGV3QAAAAACYas9d2 BU0sZR8UHIcfE36RTkqDzfpGayn8zKs2Y2lqcAAAAAAAAAAAAAAAAAAAAAAAB2JbdezysKarnD9X dHyk427XVNzFv1n4czFvrXu5jr6qqvlr37VO/lJmfrGy5Kf68/5Kf68zyM/0jkZ/rdq5OY/VpScr MW7SCg5W9u0ho+QjK3a301EZMrHO73cAAAAAByWnbayqrYxtKK8pjj2h/I4xeVFvjtjS4AAAAAAA AAAAAAAAAAAAAAAAA7EtmOyzI1VM4/rM1V8x+srHkp/rznyUz+sPdWzl+sPOomWud0uf+sn/AKyf +svWO6YZWirnH9XFFyM427STj+V+dpLQ8jGVu13T1MZM3DK7YAAAAAOTNmrZtjFg1FZGP6pK7kIi /aMclXRN+0Xrqj1MqjdleWiXAAAAAAAAAAAAAAAAAAAAAAAAAdibPUbJh6jdJO6Xmc7vMy4APWOV mTp3zitKOunGY7STjuT+dpXx1f6t2kFNv9QzccrvQAAAAXeMs7MbdUxirKrkIxv2oa7lbX7R2u5W 9+1DV185X7Ve7f6Y2WV3gAAAAAAAAAAAAAAAAAAAAAAAAAAAAB2Js36ts4ytaKsnGY7Sri+R+dpd x9b6iO17o3eoZWM3dAAABycrNOzdGLBqKyMf1TVnJxjftH67lvvaPVnJzlftTVFZOX6wdm6cmqcr vIAAAAAAAAAAAAAAAAAAAAAAAAAAAAAOxNmRp2+ZXVBWeZjtLeL5H52ldBWxlEdrnTt9QyIm7oAA F3jLOzF3VMYqur5CMb9qGu5W1+0ereVvftQ1XITlftWbqicmNlnd5u4AAAAAAAAAAAAAAAAAAAAA AAAAAAAAAPWM2ZVPu8yvuPrvMx2lvF8j87SmhrIyiO1tq2em6JdAAcnKzTs3RiwKitjH9U1bycY3 7R6u5b72j1Zyc5X7U9RWTl+sLPbOTTM3cAAAAAAAAAAAAAAAAAAAAAAAAAAAAAAAHvHKzMpqicZS Djq/zMdpdxnI3t2k9HVxlEdrTXs9NsSAEy15Z2Yu6pjFV1fIRjftQ13K2v2jtbyt79qKqr5yv2rN tROTHyzu83cAAAAAAAAAAAAAAAAAAAAAAAAAAAAAAAAe8MrM+lqZxmEi43kLW7S/jOQvbtJaSqjK I7WOGd2wHmcrNOzdGLAqa2Mf1S1vJxF+0eruW+9o9WclOV+1Rvq5y/WFntnJqmbuAAAAAAAAAAAA AAAAAAAAAAAAAAAAAAAAANmGdljSVU4zHaS8byFrdpbxvI3t2kVLVRlEds/DZds9PGWyIYu6qjH9 VVXyMY37UFdytr9o7Xcre/ajqq+cv1W7aicmPlnd5cAAAAAAAAAAAAAAAAAAAAAAAAAAAAAAAAAH Ylt17LLKkq5xmO0k47krW7Snj+Tvbtf01dGUfWV/txb6xaiujGPqlreUiL9o9Xct97R+s5Kcr9qj fVzl+sPPbMtUzdwAAAAAAAAAAAAAAAAAAAAAAAAAAAAAAAAAAdiW3Xs8rGlq5xmO1/Qcn5t2kNJy 3Uds7/LRb6wKvlup7UFbykzftSVNdOV+1bt3zk0ZZ3eAAAAAAAAAAAAAAAAAAAAAAAAAAAAAAAAA AAB2JbMNlmboqpx/Vlo5Kcf1k/5WbfWLv5Gcv1W76ucv1h57JlrmbuAAAAAAAAAAAAAAAAAAAAAA AAAAAAAAAAAAAAD3jnZtx3TD1/sS8ZbplqnK7yAAAAAAAAAAAAAAAAAAAAAAAAAAAAAAAAAAAAAA AAAAAAAAAAAAAAAAAAAAAAAAAAAAAAAAAAAAAAAAAAAAAAAAAAAAAAAAAAAAAAAAAAAAAAAAAAAA AAAAAAAAAAAAAAAAAAAAAAAAAAAAAAAAAAAAAAAAAAAAAAAAAAAAAAAAAAAAAAAAAAAAAAAAAAAA AAAAAAAAAAAAAAAAAAAAAAAAAAAAAAAAAAAAAAAAAAAAAAAAAAAAAAAAAAAAAAAAAAAAAAAAAAAA AAAAAAAAAAAAAAAAAAAAAAAAAAAAAAAAAAAAAAAAAAAAAAAAAAAAAAAAAAAAAAAAAAAAAAAAAAAA AAAAAAAAAAAAAAAAAAAAAAAAAAAAAAAAAAAAAAAAAAAAAAAAAAAAAAAAAAAAAAAAAAAAAAAAAAAA AAAAAAAAAAAAAAAAAAAAAAAAAAAAAAAAAAAAAAAAAAAAAAAAAAAAAAAAAAAAAAAAAAAAAAAAAAAA AAAAAAAAAAAAAAAAAAAAAAAAAAAAAAAAAAAAAAAAAAAAAAAAAAAAAAAAAAAAAAAAAAAAAAAAAAAA AAAAAAAAAAAAAAAAAAAAAAAAAAAAAAAAAAAAAAAAAAAAAAAAAAAAAAAAAAAAAAAAAAAAAAAAAAAA AAAAAAAAAAAAAAAAAAAAAAAAAAAAAAAAAAAAAAAAAAAAAAAAAAAAAAAAAAAAAAAAAAAAAAAAAAAA AAAAAAAAAAAAAAAAAAAAAAAAAAAAAAAAAAAAAAAAAAAAAAAAAAAAAAAAAAAAAAAAAAAAAAAAAAAA AAAAAAAAAAAAAAAAAAAAAAAAAAAAAAAA/9k="
       width="1"
       height="1"
       preserveAspectRatio="none"
       transform="matrix(1,0,0,-1,0,1)"
       id="id8" />
    <clipPath
       id="id18">
      <path
         d="m 0,0 595.276,0 0,841.89 L 0,841.89 0,0 z"
         inkscape:connector-curvature="0"
         id="path193" />
    </clipPath>
    <clipPath
       id="id3">
      <path
         d="m 0,0 595.276,0 0,841.89 L 0,841.89 0,0 z"
         inkscape:connector-curvature="0"
         id="path190" />
    </clipPath>
    <clipPath
       id="id30">
      <path
         d="m 0,0 595.276,0 0,841.89 L 0,841.89 0,0 z"
         inkscape:connector-curvature="0"
         id="path187" />
    </clipPath>
    <g
       clip-path="url(#id7)"
       id="id9">
      <g
         transform="matrix(336.96001,0,0,385.92001,369.41432,1.6671753)"
         id="g182">
        <use
           id="use184"
           x="0"
           y="0"
           width="595.276"
           height="841.89001"
           xlink:href="#id8" />
      </g>
    </g>
    <clipPath
       id="id26">
      <path
         d="m 161.221,185.59 79.022,0 0,29.552 -79.022,0 0,-29.552 z"
         inkscape:connector-curvature="0"
         id="path179" />
    </clipPath>
    <clipPath
       id="id16">
      <path
         d="m 423.176,21.371 141.586,0 0,25.91 -141.586,0 0,-25.91 z"
         inkscape:connector-curvature="0"
         id="path176" />
    </clipPath>
    <clipPath
       id="id11">
      <path
         d="M 382.653,292.668 552.297,33.92 l 42.978,28.177 0,133.017 -108.651,165.721 -103.971,-68.167 z"
         inkscape:connector-curvature="0"
         id="path173" />
    </clipPath>
    <clipPath
       id="id17">
      <path
         d="m 407.244,15.764 179.528,0 0,38.803 -179.528,0 0,-38.803 z"
         inkscape:connector-curvature="0"
         id="path170" />
    </clipPath>
    <g
       clip-path="url(#id4)"
       id="id6">
      <path
         d="m 419.814,328.187 232.56,0 0,-266.04 -232.56,0 0,266.04 z"
         inkscape:connector-curvature="0"
         id="path167"
         style="fill:#000000;fill-opacity:0.55000299;fill-rule:nonzero;stroke:none;filter:url(#id5)" />
    </g>
    <clipPath
       id="id28">
      <path
         d="m 119.924,259.456 c -0.706,-0.686 -1.414,-1.374 -2.12,-2.061 l 0,0 c -0.079,-0.098 -0.157,-0.196 -0.235,-0.294 l 0,0 c -0.198,-0.199 -0.396,-0.385 -0.59,-0.589 l 0,0 c -0.055,-0.059 -0.219,-0.086 -0.176,-0.236 l 0,0 c 1.099,-1.079 2.199,-2.159 3.298,-3.238 l 0,0 c 3.199,-3.22 6.399,-6.44 9.599,-9.659 l 0,0 c 0.305,0.084 0.773,0.715 1.002,0.942 l 0,0 c 0.117,0.098 0.234,0.196 0.352,0.294 l 0,0 c 0.668,0.688 1.335,1.375 2.003,2.062 l 0,0 c 3.219,3.199 6.439,6.4 9.658,9.599 l 0,0 c -0.079,0.288 -0.562,0.621 -0.765,0.825 l 0,0 c -0.668,0.667 -1.336,1.335 -2.003,2.002 l 0,0 c -1.531,1.551 -3.062,3.102 -4.593,4.653 l 0,0 c -0.864,0.843 -1.728,1.688 -2.591,2.532 l 0,0 c -0.589,0.609 -1.178,1.217 -1.767,1.826 l 0,0 c -0.118,0.098 -0.236,0.196 -0.354,0.294 l 0,0 c -0.219,0.22 -0.643,0.803 -0.942,0.884 l 0,0 c -3.258,-3.279 -6.518,-6.558 -9.776,-9.836 m -24.852,-12.132 19.493,0 0,18.374 -19.493,0 0,-18.374 z m -22.497,0 19.493,0 0,18.374 -19.493,0 0,-18.374 z m -22.496,0 19.552,0 0,18.374 -19.552,0 0,-18.374 z"
         inkscape:connector-curvature="0"
         id="path164" />
    </clipPath>
    <radialGradient
       cx="0"
       cy="0"
       r="1"
       fx="0"
       fy="0"
       id="id25"
       gradientUnits="userSpaceOnUse"
       spreadMethod="pad">
      <stop
         id="stop35"
         style="stop-color:#f58220;stop-opacity:1"
         offset="0" />
      <stop
         id="stop37"
         style="stop-color:#f58220;stop-opacity:1"
         offset="0.015873" />
      <stop
         id="stop39"
         style="stop-color:#f58220;stop-opacity:1"
         offset="0.031746" />
      <stop
         id="stop41"
         style="stop-color:#f58220;stop-opacity:1"
         offset="0.047619" />
      <stop
         id="stop43"
         style="stop-color:#f58220;stop-opacity:1"
         offset="0.0634921" />
      <stop
         id="stop45"
         style="stop-color:#f58320;stop-opacity:1"
         offset="0.0793651" />
      <stop
         id="stop47"
         style="stop-color:#f58320;stop-opacity:1"
         offset="0.0952381" />
      <stop
         id="stop49"
         style="stop-color:#f58320;stop-opacity:1"
         offset="0.111111" />
      <stop
         id="stop51"
         style="stop-color:#f58320;stop-opacity:1"
         offset="0.126984" />
      <stop
         id="stop53"
         style="stop-color:#f58320;stop-opacity:1"
         offset="0.142857" />
      <stop
         id="stop55"
         style="stop-color:#f58320;stop-opacity:1"
         offset="0.15873" />
      <stop
         id="stop57"
         style="stop-color:#f58320;stop-opacity:1"
         offset="0.174603" />
      <stop
         id="stop59"
         style="stop-color:#f58420;stop-opacity:1"
         offset="0.190476" />
      <stop
         id="stop61"
         style="stop-color:#f58420;stop-opacity:1"
         offset="0.206349" />
      <stop
         id="stop63"
         style="stop-color:#f68520;stop-opacity:1"
         offset="0.222222" />
      <stop
         id="stop65"
         style="stop-color:#f68520;stop-opacity:1"
         offset="0.238095" />
      <stop
         id="stop67"
         style="stop-color:#f68621;stop-opacity:1"
         offset="0.253968" />
      <stop
         id="stop69"
         style="stop-color:#f68620;stop-opacity:1"
         offset="0.26984099" />
      <stop
         id="stop71"
         style="stop-color:#f68620;stop-opacity:1"
         offset="0.285714" />
      <stop
         id="stop73"
         style="stop-color:#f68720;stop-opacity:1"
         offset="0.30158699" />
      <stop
         id="stop75"
         style="stop-color:#f68821;stop-opacity:1"
         offset="0.31746" />
      <stop
         id="stop77"
         style="stop-color:#f68821;stop-opacity:1"
         offset="0.33333299" />
      <stop
         id="stop79"
         style="stop-color:#f68921;stop-opacity:1"
         offset="0.349206" />
      <stop
         id="stop81"
         style="stop-color:#f68921;stop-opacity:1"
         offset="0.36507899" />
      <stop
         id="stop83"
         style="stop-color:#f68a21;stop-opacity:1"
         offset="0.380952" />
      <stop
         id="stop85"
         style="stop-color:#f68a21;stop-opacity:1"
         offset="0.39682499" />
      <stop
         id="stop87"
         style="stop-color:#f68b21;stop-opacity:1"
         offset="0.412698" />
      <stop
         id="stop89"
         style="stop-color:#f68c22;stop-opacity:1"
         offset="0.42857099" />
      <stop
         id="stop91"
         style="stop-color:#f78d22;stop-opacity:1"
         offset="0.444444" />
      <stop
         id="stop93"
         style="stop-color:#f78d22;stop-opacity:1"
         offset="0.46031699" />
      <stop
         id="stop95"
         style="stop-color:#f78f23;stop-opacity:1"
         offset="0.47619" />
      <stop
         id="stop97"
         style="stop-color:#f78f22;stop-opacity:1"
         offset="0.49206299" />
      <stop
         id="stop99"
         style="stop-color:#f79023;stop-opacity:1"
         offset="0.50793701" />
      <stop
         id="stop101"
         style="stop-color:#f79123;stop-opacity:1"
         offset="0.52381003" />
      <stop
         id="stop103"
         style="stop-color:#f79224;stop-opacity:1"
         offset="0.53968298" />
      <stop
         id="stop105"
         style="stop-color:#f79324;stop-opacity:1"
         offset="0.555556" />
      <stop
         id="stop107"
         style="stop-color:#f79324;stop-opacity:1"
         offset="0.57142901" />
      <stop
         id="stop109"
         style="stop-color:#f89525;stop-opacity:1"
         offset="0.58730203" />
      <stop
         id="stop111"
         style="stop-color:#f89624;stop-opacity:1"
         offset="0.60317498" />
      <stop
         id="stop113"
         style="stop-color:#f89725;stop-opacity:1"
         offset="0.619048" />
      <stop
         id="stop115"
         style="stop-color:#f89825;stop-opacity:1"
         offset="0.63492101" />
      <stop
         id="stop117"
         style="stop-color:#f89926;stop-opacity:1"
         offset="0.65079403" />
      <stop
         id="stop119"
         style="stop-color:#f89a26;stop-opacity:1"
         offset="0.66666698" />
      <stop
         id="stop121"
         style="stop-color:#f99b27;stop-opacity:1"
         offset="0.68254" />
      <stop
         id="stop123"
         style="stop-color:#f99d28;stop-opacity:1"
         offset="0.69841301" />
      <stop
         id="stop125"
         style="stop-color:#f99d28;stop-opacity:1"
         offset="0.71428603" />
      <stop
         id="stop127"
         style="stop-color:#f99f29;stop-opacity:1"
         offset="0.73015898" />
      <stop
         id="stop129"
         style="stop-color:#f9a028;stop-opacity:1"
         offset="0.746032" />
      <stop
         id="stop131"
         style="stop-color:#faa229;stop-opacity:1"
         offset="0.76190501" />
      <stop
         id="stop133"
         style="stop-color:#faa32a;stop-opacity:1"
         offset="0.77777803" />
      <stop
         id="stop135"
         style="stop-color:#faa42a;stop-opacity:1"
         offset="0.79365098" />
      <stop
         id="stop137"
         style="stop-color:#faa52b;stop-opacity:1"
         offset="0.809524" />
      <stop
         id="stop139"
         style="stop-color:#faa72b;stop-opacity:1"
         offset="0.82539701" />
      <stop
         id="stop141"
         style="stop-color:#faa82c;stop-opacity:1"
         offset="0.84127003" />
      <stop
         id="stop143"
         style="stop-color:#fbaa2d;stop-opacity:1"
         offset="0.85714298" />
      <stop
         id="stop145"
         style="stop-color:#fbab2d;stop-opacity:1"
         offset="0.873016" />
      <stop
         id="stop147"
         style="stop-color:#fbad2e;stop-opacity:1"
         offset="0.88888901" />
      <stop
         id="stop149"
         style="stop-color:#fbaf2f;stop-opacity:1"
         offset="0.90476203" />
      <stop
         id="stop151"
         style="stop-color:#fcb030;stop-opacity:1"
         offset="0.92063498" />
      <stop
         id="stop153"
         style="stop-color:#fcb230;stop-opacity:1"
         offset="0.936508" />
      <stop
         id="stop155"
         style="stop-color:#fcb331;stop-opacity:1"
         offset="0.95238101" />
      <stop
         id="stop157"
         style="stop-color:#fdb632;stop-opacity:1"
         offset="0.96825403" />
      <stop
         id="stop159"
         style="stop-color:#fdb733;stop-opacity:1"
         offset="0.98412699" />
      <stop
         id="stop161"
         style="stop-color:#fdb934;stop-opacity:1"
         offset="1" />
    </radialGradient>
    <mask
       id="id10">
      <rect
         width="336.95999"
         height="385.92001"
         x="369.414"
         y="1.6671799"
         id="rect30"
         style="fill:#000000" />
      <use
         id="use32"
         x="0"
         y="0"
         width="595.276"
         height="841.89001"
         xlink:href="#id9" />
    </mask>
    <image
       xlink:href="data:image/jpeg;base64, /9j/4AAQSkZJRgABAgAAAQABAAD/7gAOQWRvYmUAZAAAAAAB/8QAmQABAAIDAQEBAAAAAAAAAAAA AAQFBgMCAQcIEAACAQMDAQQGBAwGAQUBAQABAAIDEQQhBRIxQVETYXEiBhSBMpGhscFCFdGyooJy UiMzYgdjNMKSJEPh8NJzVDUlFgEBAQEBAQAAAAAAAAAAAAAAAAEDAgQRAQEAAgEDBAIDAQEAAAAA AAABAhEDITFxElEyQYGRYQSx8CL/2wCEAA0JCQkJCQ0JCQ0RCwsLERUPDg4PFRkTFBQUExkWExUU FBUTFhQdICAgHRQmKSkpKSY1ODg4NT4+Pj4+Pj4+Pj4BDgoKDQoNDw0NDxIODg4SFBAQEBAUFBES FBIRFBYUFRcXFRQWFxcXFxcXFxsbGxsbGyAgICAgJiYmJikpKS4uLv/AABEIAhgAsAMBIgACEQED EQH/2gAMAwEAAhEDEQA/APmCSQJJAkkCSQJJAkkCSQJJAkkCSQJJAkkCSQJJAkkCSQJJAkkCSQJJ AkkCSQJJAkkCSQJJAkkCSQJJAkkCSQJJAkkCSQJJAkkCSQJJAkkCSQJJAkkCSQJJAkkCSQJJAkkC SQJJAkkCSQJJAkkCSQJJAkkCSQJJAkkCSQJJAkkCSQJJAkkCSQJJAkkCSQJJAkkCSQJJAkkCSQJJ AkkCSQJJAkkCfQDIiMRcnQBkfi/MP/Ufq/KhGTKG2Z56UZfV+V6G07ielCR+j8qENM78TboemNP6 vyvUdg3iekcSofQB+VCvTJzdvztuqRpZ1CePOcecRMWvG9rj6GMgSSBJIEkgSSBJIEkgSSHoJBBG hGoLJw8Srm1TTpiRIFyYjl9OoYrZ7LvFfaa0pUYCoKoAMe3t6aHvXXXTrXHLc8cLePGZZ/Uv/T/U XMxJ4dQU6nISIv60eP0am7oFyQAbXbLe9wys+vTnk0vBEI2hHyOvXRg0aWR/PpQlIUzfkBcCzZvX XpV4rncMbySY52dZP+qdiwq0uUJy5dCLE/fZn0ongJ8h1txvr9DCoV6leAqVLDWwA6MqnCYlxkSA DfiRY9/VKjb7fhi37BUH1xahuN9/l43pqf6GnZVEkgSSBJIEkgSSBJIEkgdlAVDVj4Xz30dbsowl OrGMZcSToe5sErc4Z1OrGGd84AsO4WFvqs94X4z90re6/wAggeJoOl9PrdO4UJ0K3Cdbxzb5rk/a 7cTFyKuHWrUq4pwgBzp8rcrm3S+rR3jxtQgL20vfzOrYkZArn3syNbjG4kACI2HHQeTBiIiAjLpY BmikaNY05yFSfGMjIS56EAgX+LERd8H8DHP9Ux9UGmbvfB/xaJ7py+sD8jSMqiSQJJAkkCSQJJAk kCSQO3Hpwq14U6k/ChI2Mz2Ot24sKE68I5MjTpE+tIdQGwbM+hQxsg06FYZEbA8x3uzFxMerjSrV MgQqROlLtOodWfTxKWQYYVQ1qVh6xFtbahkYdDb5Y861WsYZMNadK1+R00aN14gXn8psDfoLs2NK hQqeHQqQrCwkZU+mvYWDy4jkeml+2wZw92jUEMSr49PjczEeNpX+ViI+9/5Okf8AE/0tG3u9f5GH lVH5smiZVEkgSSBJIEkgSSBJIEkh67sT3Y5EPe+QoX9fj1s6XfgyxY5MJZsTKgPmEerYPc73P3mf uHI4/wCCZ9WRhfi8Y8pT5nLF+AHTs8mPnSxJZUzhRlGhf1BLrZmYU9sGFISjUOb61jH5ezjdo6uY i9ibWvbr5s4HFMx7nKc6fEEmpHiRK50HwYUTxsSCQCL262vrb4MwTx5VT7oKnhd9Tre59HYxGreR fbwe6rH82bQOQ7uL7bI91SB/ODjzKsEkgSSBJIEkgSSBJIEkh6ydvlhQyOWfGU6PGWkf3rer3MZl 7dLBjXJ3CJlT4niI/vdjYNebLFnkzlhxMKBPqCXX72dhVNujhSjKnUllnlaUflvpxufpYObLGllV JYcTGgT6gl1s2GHPbI7fKMo1Dmm/Ex+S+luXwaPIm2tr2Ivbra+tvgzvExZ1B7nGrGmAeXi6G/I2 4/q2YMTbXU6i9utr62+DN8TFnVthxmKYvc1L3Opt1A7GI83TXbKvkYH63HHI9y//ADK36n50XHGV YJJAkkCSQJJAkkCSQJJD1mbadvFaR3ESNPj6oj+8w2btkdulUn+MTIQEfU46a3/I0aMw4xyqpwxK OOZHwxLrx7LthiT2uO3mMhVOab8ePy3uLX+DWVvD8WXg/wAu/q37m0xfxWNuJNSfvmtqYvYm4t2d 12jm9hfU2te3W19bM6VTBnVHuHiGmAeRqi2vZZg8hEXPQWvbu7WdOWB4kRgVZVo68zLs6cfwYsQ3 DXbcj9mJ/Tg425Lma7fkD+j7JRcaZVgkkCSQJJAkkCSQJJAkkPWftWJg5U6gzcgYwiBxJ1BubHpr 0YDYbZtkdwFSUq0aIpcb8u3kQPvehCrxpwrThSlzpxkRGXeO9tcbHwo7b45yQK+p8HtJuBbr5tTV gKdSUAeQibCQ7W3xdrttv4wNSnYRMuJ0n1EbD6UVqvxFzp0ue6/az61LGoVIQx8iOVzBMuH4Nj22 JYN7fEgfTozq2AdvMBI0z4pNhT6+ra9xYd7Ee5OuDkD/AAy405LW1w64/wAKX2ONKrBJMBJIEkgS SBJIEkgSSHrP23acvcY1KmPpCkQJy7uWgYDMwcfcawkcETt0PC/X4eh6EWpCVOpKnLrEkH4NnR2y vTwY59SI8Kd5RJPYCI6D0tXIESIl1BsfS2FChljGEqnieB8wFzwtcdfiiuza2uoOlu++jLnt1bb5 R8eHhyneIBlciwBt1NurEIEgRLoWRwyo8JZMq0wLimapJA6X43YiRPXFrj/CqfmlxpyUa0ag76cx +iXGlVgkmAkkCSQJJAkkCSQJJD1m4O57hhUp08SRFOUhKQtyHIDQ/C7CbXbN6p7fjVKEsWnXlMki cuovGUf9T0KuUjKRlI3JNyWzx9y3Cph+4yqkYoHHhbqL8rA+kNWTck9+rb090FXBjg08eMJxjxnV 0vIcuV9db+hFayOQsDY9h7iGVUzc3MMfe6oq8DyFhbUgRufgGKeVjx69nmzcnPhmClCliRxPCJMj E/NcRFu/sYjZT1hId8ZfYXGnJKJvp5H7HG1SCSYokkCSQJJAkkCSQJJD1t9tGx+5TlnSl7x61oga W4nj+k1Db4exDKwDmmuIaTPG17cBfX0vQqDa+nRu/wD+NHb4GhI++mIEoa/NfXs7mkbuGyGhhjcP GjIeHGoY69JHjbp1RUcmwJ7vsZmVLbrwjgTNQk+tc3sLR8h23YZIiLln5W21MGmKs505RnPgOJ1J 4iV7de1iGP8AMA445Djn14+kfa4/IWkR3EqkeJJiiSQJJAkkCSQJJAkkPWXTwc+eMa1OEzRsZaXs QNCe7tYjYUt6zaOH7lAxFPjKGoubS6vQr2bDEzqcIVqkJihobm/Gx6HuYTZS3zNq4cNumY+AOI6a 2ie9D0gEES1B6vXu1ajadWNQAm0TUva9umvbZ4kDKJANj2Hzd+Rm5maYjJMAIHkeHaQBHX/axG2g bTj6Q0dYWqzHdI/a3VE+tH0hpsjTIqj+uX2lUjWkmKJJAkkCSQJJAkkCT6oDdwydkG0mnKEve/CM Ra9ufK9zr3NIzaeOaFq0JfxYi4uAY9O4vQhN1k5GyS2sQoxPvfGAHWwkCeR6tPUmaszOVgZG5sLB m1drlSwo5nIWmSAP2b+Xke1DuRIiTHUs3Nr7RUhCO2xkJ8hflfSNvWvcsGEv4UZHuDIljVaUDUmA Ii1zcdpsxHtPqPS1OVplVh/iS+0tpAtbmC2XW/8Akl9qpGhJMUSSBJIEkgSSBJIH18fVAezXqmHh mR49Hh20qXMgnofo9J8noa4xlI2iDI9w1ZEhnSpClITNOOojqQL9dPg7DVGOPD4cZjr5+YU8weFS EKc41Y8vFmTeMrn1bRtpYIdUgJURGXdYh6EDccpmQHQG31vEMkViIkAHtkTa3o/9WdoN/tYjuLAz v85W/aJ+lnhg7h/nKnpB+oKkRkkxRJIEkgSSBJIEkgfXx9UAC5A72wpjjRlU7LH6AwYaziO8ht8W pOeDkYkeNqouQYgyvC/G0rXHV6EU0q8xToTJuQJWHX1vlD3LbpxiZGjOAiLmWunnq21Xac/PyqNf bKUqtOvQpTjUjYRjKI4mMpG1jdn7h7Nb3RwjUhjTqk2MvCnyIjbpKN/WZ6pLrcX029ZKw0iVOoQT eUT9PmzRPkBLtIv9kT9oYswZ1ZEgjUR1Fjoy69edetGpMQjKUdRTiIR/BiPVjYdjUroFibhTqePO rxPhkxjztpy4RNr97KDmHsdhYO64m67buEPEoVpY57pRl4RtOB7JB5yvpm1wx9V1HzpNjv2zZGw7 nV2/I9YQPKlUtYVKZ+WY+/za5d0s0JJAkkCSQJJAkkD6+PqgAkG46hn4YrV68IUDx8U626xH4RDA bDYqwobhCZ6AFZXWNs9nWE9WUl+6+pbEcenh0qdACFOnG0IjsHf6T2t9SkZDQXcRwa9GnapTJ8OZ 5GA7L9zf4+dlVIjw+FGHoufrfNjlJ3evLHXZSe2XsmNypHcNtgIZ1M8pwAsKo7b/ANT82p85TlOo OJHq8T2Wftk6lecTesJEi2sR91n577a7UMXMhuFKNqeVpVt0FUdv6w1dePk3fT+nn5ePp6p+WNhy 32GrCnlZsCbco48v0ZBxEN57OZHgbhU1tzpUvq5PXN8L+P8AXP8AX68mM8/4zP2w9no+0O08qI/5 2IDUxzbWWl5Uv1raeb8eIINjoQ/fMKp4lCMgdbPyr282CW07vPLoxth7hI1aZA0hM61Kf06jyeOL L6/Trmw11/bF0k6shJIEkgSSBv8AYfZLM3kRyKshi4h6TkLyn+xHT6S1+zYMc/Pp0an8qPr1P2Y9 nxOj9IoZkKUYiNgIiwA6ADsc+Tk9PSd23Bwzk63tGN71sO1bDThOjSNeYHzVpGVz38RaP1OIVZ+J VnU/ekT9Jcw9rs+OTTER+C4Y3i3Zbep/YxmNkk0nUMnIp48YDwxAX48oAk3N9Sx6FQxyRM2BMjcD pq8itIQ4d3QusEg37Q6XrNMpdWX2rMdvz/DgO0uR7fmymAZHU/U4Ng1ucQL+hyjbZgxiD2F8meOn sxy9TMKExKIIF/S+5OFQzaEqGVTjVpy7JAW07fS6cEjiPNtIRuFi5ysj5Hv+HPbdwngyhERh69Ko BYyhLpf0dGvpZUsbNozj+FTiD8JSc4/uJthNChucBrRPhVP2Z6xP0uAzP/Lxif3B+dN9Evrwu/bq wk9HLNe/T8vqexZ06tKHIW0HVs952rF33bau35ItGqLwn2wmPlmPQ4xs2UadOEQetnLsOpzgB1fP hdPTy4/b4PmYlbByq2HkDjWx5ypzHnE20dLmv9zdpOLutLdKY/h58OMz3VaQEfrjZwp9Mu5t48pq 2CSagkkCSQtdhrijVrAG0pQBHoB1+1tpbpKA6lxanUnSmKlM2lHoWVPNFUetExPbxNx9bnnx7u2/ DzTHHV6Nm4ZcsiWpYD1KQkbi7y6YTU0z5MvVdtvCkIg63t3/APh1ytf1enm+JrhKwa5p1BDvOjlm 15A0F9HCoyMZCQ6g3cj22uPVI6HVx5sftvwZfXs+g7dUvEN1RkS4ztdT1QQ5FjkcdO1yxaZvN3wI 7ntuRhS/7qZiPKXWJ+l+K14zpZOPGYtOnyhIdxjOQL90Eu9+Ze3+ySwtzo7lRh/xcoy5kdI1SeRH 63UOuGXee8ZZY9cb7UwNwhREQdSejmuz5E6lMHibHvcH2HbzXlHKrDT/AK4np6XO9viKYF3KfJ6s vi69pNlpb9tFXBnYVbeJQmfwasQeJ9B6HyL8PqU50pypVAYzgTGUT1BBsQX9CA8ovyX+4mz/AIv3 j3+lG1DcQZm3QVY6VB8biXxduO9de7ycuPTfsxNJOjISSBJIb8PFqZuRDHpaGXWR6RA6kuZYmxbb i44jGAqVra1agBkT5dgaD2fpHlOoPmkRTHkB60vuc0oYcJ0BeVqkvlHUkuPLlbdTtHo4cJrd71hG 9YpoVSR0al+k+0Wx0pbJXyCB4uPTM+Q8ur82e+G7x8OOeayn8iSdGQ2m1VjpDtifqLVszbDbJt2E fY88k3jXfFdZT+X0Daq3qR1cmxa9wB2uGbdI6WPoclwKkiBcvl7V67NxexIOodG44OPueJPEyoid KoNQewjUEeYdlHpcu4xFnpn2rEpY34vn4EgBx6EdCO9n41fmYiLJ3nENfH8WA/iUrm3fHtDU7fV9 cAS+l47VtL6sd/cZNRkSPJp/a/ZxvGz1seIvWh/FoHuqQHT9YXDbY4sB5uyrHlAg9rpL9sL16X7f n4gg2OhD43PtbgDb9/yqUBanUkK0AOlqg5H9K7TO8u5L7vPZq2ewkmoJJC79n6lo1I/uHl8Jaf6X McHI8OPiS1kel+wOAbRVlTzYxHy1AYSHwuPrDkJ3Hhpezjyzr5er+vd4+GUbluNOttOVjk3M6M4/ SH5U5TnboDjSAl1BDiz1wdq4/ta3NCSdWAytv/zAI7vvDFZW339407vvDM/jXXH8p5ZhtswI6uSb fVjcOJY0jAAi4v0bvb6kriz5L3e2dYzKjUjKI7Db4O0SHT4NdiVjxF9GcJaX6vUrLKPTG4IOrUVN vlj5Pi0tacj8v7rcqUAdSFcdky1+WqifVHodsvleYREej1PSJbOyV8l/uMR//oI26jGhf08qhcVc k9vpiftJWAN+FOlH9ES+9xt2w+M8MM/lfIknpyJJDulOdOpGdPScSDH0t3lYtbxOMPWPaB3tEDYg 9zl+LOE6nidRLjIegufJ3jXgvf8ACFT9nc/JjGpUsIdTTB9Yhb57NwwccZWLIniP4lM66d8S5N73 GjHgSLnWX/tazddxhUpGPlYh4meUs1+m2XFMp1/bCk+yFpEDoC+PoeTsMvb4nmZjqLBiMzb5ESl8 HnP411x/KMnw8inwEZAxPobrEHKxhq0GHkCw5BvsCdORBtx8xo+bKPXjWRYV+IuGwiD3sLEGgMTc ebYRjcXbHGVe62833nfTouNhZ44ka2vZqOjbsLzOYMC+GR1eKh9Q+hmx8d9sqnie0mab3EZQj/tp wDSNj7Q1RW33PqDUHIqAfqnj9zXPox7Tw8+XyvkSTUEkgbfac+xjjTNpR/lyPaOvH8jULpqGZT1T S45XG7jIMjcZRJDX1smdUG1ywzXrS+acj6Tq7cfMlSBp1Bzpn6R6Hmcev5a3n307Nc4PABLJqCMg alM8o9vl6Q8UKfKUjbQB6mXRzcd2NFmXg/hHzDrqU7O3AGsvSGZXeNJjrKLrFlYaG/pbzBqC4cdp Wjq2mHVvIOOUbY1muBVFgLtvSlp1cb2+roPvb6jKJiCD6WQySwQXwi/3PkTo9dnc9OezVMAdGPkS EKcpHoBc/BkzGty1e+1fA2rMrdOFCrL6ISea6j4rkVDWr1Kx61Jyn/uN3Wk+l5RJIEkgSSBJIegm JuDYthg1RXnKnIATMbgjobeTXPVOpKlUjUgbSibhmU3HWOXpv8LKvQtqXjCj604jssWTlyBgJw18 QAxHpesbD93jylrUlrLy8nOXo211bYHTzDKxqlpC2jH4j5nqF+oeas6Mr2yuLAEuQ4tQ2tfRwnb8 gxkNXJ8HLuAC8uu6/jK4BewdGJTqgi7vjUuGudNhDR+1VxsOfb/69T81u73DTe08PE2TPiOpxqv1 QJZ9zyfV8PiqSfS8wkkCSQJJAkkCSQu9oIyoxE9ZY2lu8H5WbkHgwfZy3LIB62gfzmwrQ5zMT0Hz OOfTKvRx3eMc8AY3dYvE+TthISBA04vM7D0sVto1OBuDYt7g5PS5+LjUZES1Z2PlGFtWVYzahlXh pr6WZQrg9XGcLM5WHVt6Na+oDztVzGYIY+fSFfGq0Dr4tOdP/dEj73ijVkSyT63E+YW01qvghBBI OhGhfHfmw8PMyKf7lWcfokQ6H1PKJJAkkCSQJJAkkLX2fnxy6keyVMn6DEtvkepDzk0G0T4bjQN7 CUjE/rAhyOtHnUHcNS48vy/Dbhv/AJ/KNCPh9ep1KnZVTYl9lHjCJPaLvMrSxHnobh2Urki7xIXP e+iRBbUi8wZxFvub3EqXFhqXE8WvIGw+LfYFfiRc3B0LxXUZFRNrdzMpyEo2a/FqcgGZS0l5Ir43 7S0Dje0G40iLWyKkh6Jy5j6pNY5b/cfB9232OXEepnUYzJ/rp/w5fVGLiT6cLvGeHlymsr5Ek1BJ IEkgSSBJIbsOfh5dCZ0EakSfRcOXSHrOFuX49UZGPTrD8OIJ9Pb9bnyztWvDe8aqkPWu9yAMRE9L PRFwHVKQHwLk1RpCUDpqEImWp0DvlTBketur54YA0btLHVD1TYaBtsOZha+rV09DZnUKo0iyrKyP CyhcDq3FORFpd/VxfEPEgg3PeW/w6vKIBeVqj/uRhe8bLSzYj1sKsOR/oqjgf0hF+YP3DdsEbntO ZgWucijKMP2wOVP9IB+IEEGx0I6h34bua9mHLNXfu8STozEkgSSBJIEkgb7YsgSx50JHWkbj9mX/ AJSeOT4u+L5LIkd4Yc5gykL9Sk5N43iQsDcdHjkJa9gSQ6iTI6dO1lUJRj2j4pJFljzHePpbTDyR GQiSLHzSeK6i8oV4SjEiQBHm/Ifa3AjtvtDm0Ifyp1PGp26cao8QAejlZJ14e98MubtPL//Z"
       width="1"
       height="1"
       preserveAspectRatio="none"
       transform="matrix(1,0,0,-1,0,1)"
       mask="url(#id12)"
       id="id13" />
    <clipPath
       id="id27">
      <path
         d="m 260.28,185.416 65.539,0 0,30.446 -65.539,0 0,-30.446 z"
         inkscape:connector-curvature="0"
         id="path26" />
    </clipPath>
    <clipPath
       id="id4">
      <rect
         width="232.56"
         height="266.04001"
         x="419.814"
         y="62.147202"
         id="rect23" />
    </clipPath>
    <style
       type="text/css"
       id="style20" />
    <style
       type="text/css"
       id="style18" />
    <font
       horiz-origin-x="0"
       horiz-origin-y="0"
       horiz-adv-x="90"
       vert-origin-x="45"
       vert-origin-y="90"
       vert-adv-y="90"
       id="font5" />
  </defs>
  <metadata
     id="metadata7">
    <rdf:RDF>
      <cc:Work
         rdf:about="">
        <dc:format>image/svg+xml</dc:format>
        <dc:type
           rdf:resource="http://purl.org/dc/dcmitype/StillImage" />
        <dc:title />
      </cc:Work>
    </rdf:RDF>
  </metadata>
  <g
     transform="translate(449.35352,-134.99896)"
     id="layer1">
    <g
       transform="matrix(0.9966133,0,0,-0.9966133,-710.59497,347.98728)"
       clip-path="url(#id27)"
       id="g1730">
      <g
         transform="translate(286.5029,193.3602)"
         id="g1732">
        <path
           d="m 0,0 c 0.549,-0.538 1.785,-1.185 2.74,-1.185 1.15,0 1.84,0.652 1.84,1.17 0,0.613 -0.479,0.938 -1.208,1.074 L 2.241,1.27 c -2.608,0.479 -3.336,1.322 -3.336,2.645 0,1.573 1.323,3.029 3.643,3.029 1.284,0 2.416,-0.384 3.682,-1.285 L 5.098,4.26 C 4.12,5.085 3.257,5.295 2.605,5.295 1.742,5.295 0.899,4.873 0.899,4.125 0.899,3.57 1.34,3.283 2.106,3.148 L 4.12,2.764 C 5.769,2.458 6.575,1.672 6.575,0.292 c 0,-1.362 -1.113,-3.125 -3.932,-3.125 -1.47,0 -2.921,0.617 -3.932,1.428 L 0,0 z"
           inkscape:connector-curvature="0"
           id="path1734"
           style="fill:#000000;fill-rule:nonzero;stroke:none" />
      </g>
      <g
         transform="translate(316.4522,207.0011)"
         id="g1736">
        <path
           d="m 0,0 c -0.045,0 -0.093,0.001 -0.14,0.003 -0.095,0.007 -0.188,0.014 -0.277,0.025 -0.091,0.009 -0.179,0.025 -0.264,0.04 -0.103,0.02 -0.204,0.044 -0.296,0.071 -0.056,0.017 -0.109,0.033 -0.161,0.052 -0.053,0.017 -0.103,0.036 -0.153,0.054 -0.131,0.055 -0.252,0.113 -0.358,0.173 -0.057,0.031 -0.109,0.061 -0.158,0.093 -0.046,0.032 -0.09,0.06 -0.13,0.09 L -2.036,0.676 -2.131,0.757 C -2.176,0.794 -2.212,0.828 -2.249,0.863 L -2.273,0.886 C -2.316,0.928 -2.357,0.974 -2.401,1.024 -2.437,1.063 -2.473,1.107 -2.509,1.151 -2.539,1.195 -2.574,1.238 -2.605,1.286 -2.63,1.32 -2.653,1.356 -2.678,1.395 -2.706,1.439 -2.735,1.489 -2.762,1.54 -2.808,1.626 -2.852,1.717 -2.89,1.811 -2.917,1.869 -2.938,1.931 -2.96,1.992 -2.977,2.044 -2.992,2.096 -3.008,2.149 -3.019,2.19 -3.027,2.232 -3.036,2.274 l -0.013,0.06 C -3.06,2.385 -3.066,2.436 -3.074,2.487 l -0.003,0.031 c -0.007,0.044 -0.008,0.091 -0.009,0.133 -0.006,0.043 -0.006,0.088 -0.006,0.131 0,0.058 0.003,0.116 0.006,0.172 0.002,0.076 0.012,0.149 0.023,0.221 0.029,0.227 0.084,0.442 0.161,0.643 0.06,0.157 0.138,0.308 0.222,0.447 l 0.046,0.069 0.067,0.102 c 0.034,0.046 0.065,0.09 0.101,0.13 0.031,0.038 0.063,0.076 0.097,0.114 l 0.101,0.104 c 0.038,0.04 0.083,0.079 0.126,0.119 0.048,0.041 0.097,0.081 0.149,0.122 l 0.075,0.056 0.092,0.063 c 0.053,0.036 0.111,0.069 0.168,0.104 0.062,0.037 0.123,0.07 0.189,0.099 0.076,0.038 0.161,0.076 0.248,0.108 0.163,0.064 0.344,0.121 0.54,0.162 l 0.094,0.019 0.072,0.011 0.054,0.008 0.045,0.008 0.039,0.005 c 0.047,0.006 0.094,0.012 0.144,0.017 l 0.102,0.006 c 0.057,0.004 0.118,0.006 0.179,0.008 l 0.088,0.003 c 0.073,0 0.15,-0.005 0.228,-0.008 C 0.405,5.691 0.45,5.688 0.495,5.685 0.557,5.677 0.622,5.67 0.684,5.663 L 0.727,5.655 C 0.767,5.65 0.805,5.643 0.839,5.638 0.884,5.63 0.928,5.623 0.972,5.614 1.012,5.604 1.052,5.594 1.092,5.587 L 1.169,5.569 C 1.206,5.557 1.244,5.548 1.282,5.539 L 1.376,5.513 1.404,5.504 1.498,5.477 C 1.539,5.466 1.58,5.448 1.619,5.439 L 1.72,5.404 C 1.761,5.389 1.8,5.375 1.839,5.362 1.904,5.34 1.96,5.318 2.01,5.299 2.121,5.257 2.189,5.229 2.189,5.229 l 0,-1.034 -0.11,0.062 C 2.039,4.277 1.99,4.305 1.934,4.333 L 1.828,4.387 C 1.783,4.408 1.733,4.434 1.683,4.455 1.621,4.483 1.559,4.512 1.489,4.54 1.441,4.56 1.39,4.58 1.337,4.598 c 0,0 -0.03,0.012 -0.09,0.031 C 1.215,4.642 1.17,4.656 1.12,4.669 1.086,4.68 1.05,4.692 1.008,4.703 0.946,4.72 0.877,4.736 0.803,4.751 0.753,4.76 0.699,4.77 0.645,4.777 0.585,4.787 0.521,4.796 0.455,4.801 L 0.35,4.809 C 0.296,4.812 0.242,4.814 0.188,4.815 l -0.07,0 C 0.044,4.815 -0.034,4.812 -0.11,4.806 -0.151,4.802 -0.188,4.797 -0.231,4.793 -0.27,4.788 -0.312,4.782 -0.352,4.774 L -0.464,4.751 -0.574,4.724 C -0.614,4.712 -0.653,4.701 -0.692,4.686 L -0.799,4.647 -0.906,4.604 C -1.128,4.501 -1.346,4.357 -1.539,4.165 L -1.576,4.124 -1.647,4.042 -1.699,3.98 C -1.743,3.921 -1.782,3.862 -1.817,3.801 L -1.861,3.719 -1.914,3.615 -1.944,3.534 -1.983,3.423 C -1.995,3.378 -2.008,3.339 -2.016,3.301 -2.032,3.24 -2.042,3.184 -2.048,3.132 -2.063,3.044 -2.067,2.968 -2.07,2.908 l 0,-0.068 c 0,-0.026 0,-0.064 0.003,-0.108 l 0.006,-0.09 c 0.009,-0.084 0.02,-0.187 0.049,-0.296 0.01,-0.037 0.022,-0.078 0.032,-0.117 0.017,-0.05 0.036,-0.104 0.06,-0.156 l 0.041,-0.095 0.06,-0.111 0.049,-0.074 0.053,-0.079 0.06,-0.079 C -1.616,1.587 -1.572,1.538 -1.524,1.492 L -1.511,1.479 -1.502,1.47 -1.483,1.453 -1.45,1.423 -1.368,1.356 -1.276,1.288 -1.202,1.24 -1.128,1.196 c 0.049,-0.029 0.103,-0.055 0.153,-0.08 L -0.901,1.084 -0.858,1.067 -0.793,1.04 C -0.644,0.987 -0.49,0.948 -0.337,0.923 -0.245,0.903 -0.151,0.895 -0.058,0.89 0.018,0.884 0.097,0.883 0.171,0.883 c 0.035,0 0.071,0 0.114,0.001 C 0.344,0.889 0.411,0.891 0.486,0.9 0.533,0.903 0.581,0.91 0.634,0.917 L 0.699,0.929 C 0.884,0.965 1.094,1.015 1.325,1.096 1.445,1.141 1.57,1.192 1.702,1.253 1.775,1.287 1.848,1.327 1.926,1.368 1.996,1.406 2.064,1.446 2.134,1.49 L 2.21,1.534 2.246,1.556 2.246,0.504 2.192,0.477 C 2.151,0.458 2.107,0.436 2.067,0.418 2.024,0.399 1.979,0.38 1.939,0.36 1.87,0.331 1.812,0.309 1.761,0.29 1.723,0.275 1.693,0.264 1.668,0.255 L 1.624,0.239 C 1.574,0.223 1.524,0.206 1.473,0.19 1.426,0.177 1.381,0.163 1.335,0.15 1.27,0.134 1.202,0.115 1.134,0.102 1.086,0.091 1.039,0.082 0.992,0.074 0.913,0.061 0.834,0.048 0.747,0.036 0.695,0.033 0.639,0.024 0.578,0.022 L 0.551,0.017 C 0.403,0.005 0.24,-0.002 0.07,-0.002 L 0,0 z m 3.874,6.711 -8.203,0 0,-7.718 8.203,0 0,7.718 z"
           inkscape:connector-curvature="0"
           id="path1738"
           style="fill:#000000;fill-rule:nonzero;stroke:none" />
      </g>
      <g
         transform="translate(308.5009,207.6068)"
         id="g1740">
        <path
           d="m 0,0 c -0.565,-0.564 -1.584,-0.537 -1.584,-0.537 l -2.093,0 0,5.561 1.803,0 c 0.971,0 1.403,-0.509 1.403,-0.509 0,0 0.39,-0.339 0.39,-0.928 0,-0.586 -0.265,-0.827 -0.34,-0.903 -0.16,-0.16 -0.368,-0.26 -0.368,-0.26 0,0 0.458,-0.095 0.824,-0.457 C 0.457,1.542 0.424,0.989 0.424,0.989 0.424,0.989 0.457,0.457 0,0 m -5.831,-1.613 8.206,0 0,7.718 -8.206,0 0,-7.718 z m 3.701,4.331 0.105,0.004 c 0.1,0.009 0.234,0.021 0.371,0.061 l 0.079,0.024 c 0.106,0.037 0.21,0.095 0.288,0.172 0.063,0.062 0.104,0.132 0.132,0.198 0.035,0.082 0.044,0.161 0.049,0.216 0.008,0.052 0.005,0.083 0.005,0.083 L -1.102,3.535 C -1.106,3.599 -1.117,3.7 -1.168,3.8 -1.191,3.846 -1.224,3.891 -1.27,3.936 -1.321,3.988 -1.387,4.029 -1.456,4.06 -1.59,4.119 -1.745,4.143 -1.875,4.151 -1.93,4.155 -1.979,4.155 -2.025,4.155 l -0.658,0 0,-1.438 0.476,0 c 0,0 0.034,0 0.077,10e-4 M -0.732,1.501 -0.768,1.545 -0.857,1.622 C -0.912,1.662 -0.972,1.697 -1.039,1.725 -1.13,1.764 -1.23,1.789 -1.337,1.812 -1.392,1.823 -1.452,1.83 -1.511,1.836 -1.547,1.84 -1.586,1.844 -1.627,1.845 l -0.103,0.004 -0.953,0 0,-1.519 0.985,0 0.054,0.004 c 0.033,0 0.078,0.003 0.137,0.008 0.105,0.008 0.246,0.029 0.384,0.074 0.123,0.042 0.244,0.105 0.334,0.197 l 0.091,0.109 c 0.077,0.124 0.094,0.245 0.1,0.317 l 0,0.048 0,0.037 c 0,0.029 -0.002,0.085 -0.019,0.146 -0.018,0.073 -0.052,0.155 -0.115,0.231"
           inkscape:connector-curvature="0"
           id="path1742"
           style="fill:#000000;fill-rule:nonzero;stroke:none" />
      </g>
      <g
         transform="translate(297.4619,207.0695)"
         id="g1744">
        <path
           d="m 0,0 -2.092,0 0,5.561 1.806,0 c 0.969,0 1.401,-0.508 1.401,-0.508 0,0 0.391,-0.34 0.391,-0.929 C 1.506,3.538 1.241,3.297 1.165,3.221 1.004,3.061 0.796,2.962 0.796,2.962 c 0,0 0.462,-0.096 0.823,-0.458 0.426,-0.425 0.393,-0.977 0.393,-0.977 0,0 0.033,-0.533 -0.426,-0.99 C 1.023,-0.027 0,0 0,0 m 3.959,6.642 -8.203,0 0,-7.718 8.203,0 0,7.718 z M -0.437,3.259 c 0.098,0.01 0.232,0.021 0.37,0.061 L 0.012,3.344 C 0.117,3.382 0.218,3.439 0.299,3.517 0.362,3.579 0.402,3.648 0.432,3.714 0.465,3.796 0.476,3.875 0.481,3.93 0.485,3.982 0.485,4.013 0.485,4.013 l 0,0.059 C 0.481,4.136 0.467,4.238 0.419,4.337 0.396,4.383 0.362,4.428 0.317,4.473 0.263,4.525 0.199,4.567 0.13,4.597 -0.005,4.656 -0.159,4.68 -0.287,4.689 -0.345,4.692 -0.395,4.692 -0.439,4.692 l -0.657,0 0,-1.438 0.476,0 c 0,0 0.034,0 0.076,0.002 l 0.107,0.003 z M 0.079,0.879 C 0.186,0.887 0.326,0.908 0.463,0.953 0.585,0.995 0.708,1.059 0.798,1.151 L 0.887,1.26 c 0.076,0.123 0.095,0.244 0.1,0.316 l 0.002,0.048 0,0.037 C 0.989,1.69 0.984,1.746 0.969,1.807 0.952,1.88 0.918,1.962 0.855,2.038 L 0.816,2.083 0.728,2.159 C 0.674,2.199 0.612,2.234 0.547,2.262 0.458,2.301 0.358,2.326 0.249,2.349 0.193,2.36 0.135,2.367 0.075,2.374 0.035,2.377 0,2.381 -0.04,2.383 l -0.103,0.004 -0.953,0 0,-1.519 0.986,0 0.052,0.003 c 0.034,0 0.079,0.003 0.137,0.008"
           inkscape:connector-curvature="0"
           id="path1746"
           style="fill:#000000;fill-rule:nonzero;stroke:none" />
      </g>
      <g
         transform="translate(309.5583,203.0652)"
         id="g1748">
        <path
           d="m 0,0 0,-8.219 c 0,-1.978 0.229,-2.362 0.824,-2.707 l -0.951,-1.595 c -1.267,0.736 -1.868,1.5 -1.868,3.033 l 0,9.487 L 0,0 z"
           inkscape:connector-curvature="0"
           id="path1750"
           style="fill:#000000;fill-rule:nonzero;stroke:none" />
      </g>
      <g
         transform="translate(317.9873,196.3741)"
         id="g1752">
        <path
           d="M 0,0 C -0.422,1.42 -1.477,2.167 -2.742,2.167 -4.008,2.167 -5.043,1.381 -5.37,0 L 0,0 z m 1.841,-3.585 c -1.113,-1.4 -2.647,-2.243 -4.315,-2.262 -3.24,0 -5.119,2.434 -5.119,4.888 0,2.454 1.879,4.889 5.119,4.889 1.936,0 4.813,-1.591 4.813,-5.215 l 0,-0.364 -7.709,0 c 0.116,-1.418 1.439,-2.435 2.84,-2.435 1.074,0 1.992,0.518 2.683,1.438 l 1.688,-0.939 z"
           inkscape:connector-curvature="0"
           id="path1754"
           style="fill:#000000;fill-rule:nonzero;stroke:none" />
      </g>
      <g
         transform="translate(262.1292,206.0208)"
         id="g1756">
        <path
           d="m 0,0 0,-12.02 c 0,-1.939 0.905,-2.684 3.069,-3.715 l 0.077,-0.037 0.97,1.73 -1.155,0.66 c -0.539,0.313 -0.78,0.637 -0.78,1.727 L 2.181,0 0,0 z"
           inkscape:connector-curvature="0"
           id="path1758"
           style="fill:#000000;fill-rule:nonzero;stroke:none" />
      </g>
      <path
         d="m 266.99,200.07 1.998,0 0,-9.275 -1.998,0 0,9.275 z"
         inkscape:connector-curvature="0"
         id="path1760"
         style="fill:#000000;fill-rule:nonzero;stroke:none" />
      <g
         transform="translate(269.2329,202.2986)"
         id="g1762">
        <path
           d="m 0,0 c 0,-0.688 -0.557,-1.244 -1.245,-1.244 -0.687,0 -1.244,0.556 -1.244,1.244 0,0.688 0.557,1.245 1.244,1.245 C -0.557,1.245 0,0.688 0,0"
           inkscape:connector-curvature="0"
           id="path1764"
           style="fill:#000000;fill-rule:nonzero;stroke:none" />
      </g>
      <g
         transform="translate(276.9844,196.3814)"
         id="g1766">
        <path
           d="M 0,0 C 0.327,1.384 1.364,2.172 2.632,2.172 3.901,2.172 4.957,1.422 5.38,0 L 0,0 z M 2.901,3.939 C 0.08,3.939 -1.709,2.096 -2.131,0 l -1.927,0 0,3.458 c 0,0.692 0.48,1.364 1.287,1.364 0.365,0 0.615,-0.057 0.884,-0.172 l 0.825,1.805 c -0.422,0.173 -1.056,0.25 -1.536,0.25 -2.402,0 -3.459,-1.633 -3.459,-3.362 l 0,-3.343 -1.18,0 0,-1.652 1.18,0 0,-6.883 1.999,0 0,6.883 1.884,0 c 0.318,-2.205 2.134,-4.208 5.075,-4.208 1.672,0.019 3.208,0.864 4.323,2.267 l -1.691,0.941 c -0.691,-0.921 -1.614,-1.44 -2.69,-1.44 -1.402,0 -2.727,1.018 -2.843,2.44 l 7.723,0 0,0.366 c 0,3.63 -2.881,5.225 -4.822,5.225"
           inkscape:connector-curvature="0"
           id="path1768"
           style="fill:#000000;fill-rule:nonzero;stroke:none" />
      </g>
      <g
         transform="translate(304.8007,200.0873)"
         id="g1770">
        <path
           d="m 0,0 0,-5.247 c 0,-1.436 -0.71,-2.393 -2.183,-2.393 -1.164,0 -2.074,0.651 -2.074,2.202 l 0,5.438 -1.858,0 -0.034,0 -2.308,0 0,2.978 -1.995,0 0,-2.978 -1.131,0 0,-1.879 1.131,0 0,-4.557 c 0,-1.585 0.642,-2.347 1.999,-3.107 l 0.819,1.669 c -0.593,0.345 -0.823,0.804 -0.823,1.801 l 0,4.194 2.308,0 0,-3.483 c 0,-2.604 1.601,-4.154 3.565,-4.154 1.22,0 1.911,0.267 2.656,1.148 l 0.037,0 0,-0.383 c 0,-1.628 -1.091,-2.431 -2.347,-2.431 0,0 -1.808,0.005 -2.025,0.025 l 0,-1.814 c 0.233,-0.055 2.135,-0.088 2.135,-0.088 1.636,0 4.019,1.243 4.019,4.078 L 1.891,0 0,0 z"
           inkscape:connector-curvature="0"
           id="path1772"
           style="fill:#000000;fill-rule:nonzero;stroke:none" />
      </g>
    </g>
  </g>
</svg>
