<?xml version="1.0" encoding="UTF-8" standalone="no"?>
<!-- Created with Inkscape (http://www.inkscape.org/) -->
<svg xmlns:rdf="http://www.w3.org/1999/02/22-rdf-syntax-ns#" xmlns="http://www.w3.org/2000/svg" height="235.57" width="600.03" version="1.1" xmlns:cc="http://creativecommons.org/ns#" xmlns:xlink="http://www.w3.org/1999/xlink" xmlns:dc="http://purl.org/dc/elements/1.1/">
 <defs>
  <linearGradient id="linearGradient3266" gradientUnits="userSpaceOnUse" gradientTransform="matrix(0,65.88366,-65.88366,0,299.99881,-4.5839518e-4)">
   <stop stop-color="#FFF" offset="0"/>
   <stop stop-color="#4e4e50" offset="1"/>
  </linearGradient>
  <mask id="mask3258">
   <path opacity="0.69999701" d="m-0.012722,0.01582,600.02,0,0,65.885-600.02,0,0-65.885z" fill-rule="nonzero" fill="#000"/>
   <path opacity="0.69999701" fill="url(#linearGradient3266)" d="m6.6062,0.01582c-3.6625,0-6.6287,3.0006-6.6287,6.6728v50.907c20.048-4.3585,128.98-24.446,277.18-19.911,147.85,4.52,271.08,19.714,322.82,28.216v-59.212c0-3.6772-2.9221-6.6728-6.5454-6.6728h-586.82z"/>
  </mask>
 </defs>
 <metadata>
  <rdf:RDF>
   <cc:Work rdf:about="">
    <dc:format>image/svg+xml</dc:format>
    <dc:type rdf:resource="http://purl.org/dc/dcmitype/StillImage"/>
    <dc:title/>
   </cc:Work>
  </rdf:RDF>
 </metadata>
 <g fill-rule="nonzero" transform="translate(0.00215,0.00120031)">
  <g transform="translate(-0.00295,8.9892482e-4)">
   <path fill="#000" d="m251-0.00079923-244.37,0c-3.6608,0-6.627,2.9956-6.627,6.6727v94.238c0,3.6772,2.9662,6.658,6.6286,6.658h244.37v-107.57z"/>
   <path fill="#d8571c" d="m593.46-0.00079923-337.68,0,0,107.57,337.68,0c3.6183,0,6.5454-2.981,6.5454-6.658v-94.237c0-3.6772-2.927-6.6727-6.5454-6.6727"/>
  </g>
  <g fill="#FFF" transform="translate(-0.00295,8.9892482e-4)">
   <path d="m310.75,17.094-10.53,2.187v17.219c-3.67-0.814-7.91-1.688-11.91-1.688-11.5,0-14.59,6.268-14.59,15.157v12.156c0,11.257,6.69,14.937,16.72,14.937,8.16,0,17.13-1.566,20.31-2.624v-57.344zm-20.47,26.094c3.02,0,6.51,0.654,9.94,1.468v23.25c-3.18,0.736-6.28,0.844-8.41,0.844-6.03,0-7.59-1.81-7.59-6.625v-11.75c0-4.481,1.08-7.187,6.06-7.187z" transform="translate(0.00295,-8.9922902e-4)"/>
   <path d="m323.8,35.532,10.522,0,0,40.792-10.522,0,0-40.792z"/>
   <path d="m323.48,27.128,0-9.5459,11.174,0,0,7.1827-11.174,2.3632z"/>
   <path d="m364.75,34.812c-11.909,0-17.781,5.293-17.781,14.594,0,5.0545,2.0236,10.034,6.75,11.75-3.584,3.4271-5.7812,6.4486-5.7812,9.4688,0,2.123,1.4652,4.3063,4,4.875-4.7362,0.8972-7.0152,5.484-7.0938,9.1562v0.40625c0,7.3396,6.2052,11.656,18.031,11.656h4.25c13.547,0,21.438-4.7502,21.438-14.781,0-9.4672-7.4242-12.781-16.156-12.781h-11.156c-2.3681,0-3.4375-0.51875-3.4375-1.9062,0-1.3041,1.8888-3.566,3.0312-4.625,1.7945,0.1618,3.2535,0.15625,4.3125,0.15625h1.2188c12.238,0,18.031-4.168,18.031-13.469,0-2.3681-0.9042-4.4139-2.125-6.125h6.7812v-7.8125l-13.625,0.96875c-2.6083-0.98056-5.7139-1.5312-8.8125-1.5312h-1.875zm-0.65625,7.25,3.1875,0c5.0598,0,7.0938,2.7854,7.0938,6.7812,0,4.241-1.7888,6.75-7.0938,6.75h-3.1875c-5.2215,0-7-2.509-7-6.75,0-3.9959,2.0236-6.7812,7-6.7812zm-3.09,34.657h10.125c4.898,0,7.4062,1.3318,7.4062,5.6562,0,4.8147-3.8436,6.6875-10.531,6.6875h-3.75c-6.1189,0-9.375-1.9006-9.375-5.6562v-0.46875c0-2.6084,1.3888-6.2188,6.125-6.2188z"/>
   <path d="m400.32,35.532,10.527,0,0,40.792-10.527,0,0-40.792z"/>
   <path d="m399.99,27.128,0-9.5459,11.174,0,0,7.1827-11.174,2.3632z"/>
   <path d="m456.12,74.771c-3.5889,1.2208-9.0606,2.2848-14.277,2.2848-8.8105,0-12.399-4.3244-12.399-11.669v-21.617h-8.2418v-8.242h8.2418v-12.89l10.522-2.1181v15.008h15.174v8.2418h-15.174v19.337c0,4.6479,0.73543,5.7903,4.5695,5.7903,2.3681,0,6.6091-0.73544,9.2959-1.466l2.2896,7.3396z"/>
   <path d="m483.62,34.812c-4.9411,0.12563-11.136,0.70876-17.562,1.7812l2.2188,8.0625c3.349-0.65207,11.253-1.5312,15.656-1.5312,5.6285,0,6.5417,1.7076,6.625,5.375v2.2188h-10.438c-10.365,0-16.156,4.5388-16.156,13.188v2.0625c0,6.5255,4.4041,11.094,12.562,11.094,4.893,0,9.543-1.0792,15.5-3.6875l1.0625,2.9375h7.9688v-27.812c0-10.684-5.5368-13.688-15.406-13.688-0.65263,0-1.3254-0.01795-2.0312,0zm3.1875,22.75c1.7945-0.02023,3.3014,0,3.75,0v8.0625c-2.201,0.8187-8.3236,2.9375-11.344,2.9375-3.2653,0-4.75-1.1416-4.75-4v-1.5312c0-3.5104,1.8986-5.1458,6.875-5.3125,1.591-0.0809,3.6743-0.13602,5.4688-0.15625z"/>
   <path d="m532.31,34.812c-4.9401,0.12563-11.105,0.70876-17.531,1.7812l2.1875,8.0625c3.344-0.65207,11.28-1.5312,15.688-1.5312,5.6285,0,6.5104,1.7076,6.5938,5.375v2.2188h-10.438c-10.36,0-16.156,4.5388-16.156,13.188v2.0625c0,6.5255,4.4041,11.094,12.562,11.094,4.893,0,9.5479-1.0792,15.5-3.6875l1.0625,2.9375h8v-27.812c0-10.684-5.568-13.688-15.438-13.688-0.65263,0-1.3255-0.01795-2.0312,0zm3.1875,22.75c1.7951-0.02023,3.3014,0,3.75,0v8.0625c-2.2059,0.8187-8.3284,2.9375-11.344,2.9375-3.2653,0-4.7188-1.1416-4.7188-4v-1.5312c0-3.5104,1.8722-5.1458,6.8438-5.3125,1.5934-0.0809,3.6737-0.13602,5.4688-0.15625z"/>
   <path d="m582.81,75.344c-4.0792,1.2208-7.5848,1.716-9.6244,1.716-7.0209,0-9.3008-4.0841-9.3008-8.8154v-49.112l10.527-2.2848v48.137c0,2.2798,0.48538,3.4271,3.2604,3.4271,0.89233,0,2.2848-0.25005,3.6723-0.57364l1.466,7.5063z"/>
   <path d="m82.938,34.812c-4.9411,0.12563-11.136,0.70876-17.562,1.7812l2.2188,8.0625c3.343-0.652,11.252-1.531,15.655-1.531,5.6285,0,6.5104,1.7076,6.5938,5.375v2.2188h-10.438c-10.36,0-16.156,4.5388-16.156,13.188v2.0625c0,6.5255,4.4041,11.094,12.562,11.094,4.893,0,9.5479-1.0792,15.5-3.6875l1.0625,2.9375h8v-27.813c0-10.684-5.5368-13.688-15.406-13.688-0.65262,0-1.3254-0.01795-2.0312,0zm3.1562,22.75c1.7951-0.02023,3.3014,0,3.75,0v8.0625c-2.201,0.8187-8.2923,2.9375-11.312,2.9375-3.2653,0-4.75-1.1416-4.75-4v-1.5312c0-3.5104,1.8674-5.1458,6.8438-5.3125,1.5885-0.0809,3.6737-0.13602,5.4688-0.15625z"/>
   <path d="m141.33,76.322,0-26.025c0-4.241-0.81388-7.0994-5.3834-7.0994-3.4271,0-8.2418,1.716-10.85,2.6917v30.432h-10.527v-40.792h7.7515l1.3875,2.9368c3.5889-1.6278,8.6487-3.6674,14.277-3.6674,10.688,0,13.87,6.3591,13.87,14.356v27.167h-10.527z"/>
   <path d="m183.19,34.812c-4.941,0.12563-11.109,0.70876-17.531,1.7812l2.1875,8.0625c3.34-0.652,11.25-1.531,15.65-1.531,5.6285,0,6.5466,1.7076,6.625,5.375v2.2188h-10.438c-10.36,0-16.156,4.5388-16.156,13.188v2.0625c0,6.5255,4.4041,11.094,12.562,11.094,4.898,0,9.543-1.0792,15.5-3.6875l1.0625,2.9375h8v-27.813c0-10.684-5.568-13.688-15.438-13.688-0.65263,0-1.3254-0.01795-2.0312,0zm3.1875,22.75c1.7945-0.02023,3.3014,0,3.75,0v8.0625c-2.201,0.8187-8.3236,2.9375-11.344,2.9375-3.2604,0-4.7188-1.1416-4.7188-4v-1.5312c0-3.5104,1.8674-5.1458,6.8438-5.3125,1.591-0.0809,3.6743-0.13602,5.4688-0.15625z"/>
   <path d="m233.68,75.344c-4.0792,1.2208-7.5897,1.716-9.6244,1.716-7.0209,0-9.3057-4.0841-9.3057-8.8154v-49.112l10.527-2.2848v48.137c0,2.2798,0.49028,3.4271,3.2653,3.4271,0.89233,0,2.2848-0.25005,3.6723-0.57364l1.466,7.5063z"/>
   <path d="m52.248,74.527c-4.7313,1.466-12.483,2.5299-18.111,2.5299-13.542,0-16.807-5.7119-16.807-15.258v-11.502c0-10.767,5.0598-15.498,16.155-15.498,5.1382,0,12.806,0.65208,18.356,1.7111l-2.3681,7.9966c-4.814-0.736-10.443-1.305-13.949-1.305-6.7709,0-7.6681,2.525-7.6681,8.2369v9.9578c0,4.8931,0.65208,7.2563,7.9133,7.2563,3.9959,0,10.031-0.73544,14.194-1.8778l2.2848,7.7515z"/>
  </g>
 </g>
 <g transform="translate(0.00215,0.00120031)">
  <g mask="url(#mask3258)">
   <path opacity="0.69999701" d="M277.18,37.667c147.85,4.525,271.08,19.719,322.82,28.216v-59.212c0-3.6772-2.927-6.6728-6.5405-6.6728h-586.83c-3.6625,0-6.6287,3.0006-6.6287,6.6777v50.902c20.048-4.3589,128.97-24.441,277.17-19.911" fill-rule="nonzero" transform="translate(-0.00295,8.9969482e-4)" fill="#FFF"/>
  </g>
 </g>
 <g transform="translate(2037.1584,673.91622)">
  <g transform="translate(-2.7917008e-5,-7.9285428e-6)">
   <path style="direction:ltr;enable-background:accumulate;baseline-shift:baseline;block-progression:tb;text-indent:0;color:#000000;text-transform:none;text-align:start;" fill="#FFF" d="m-2012.5-548.38s-6.0171-0.0241-12.125,2.375c-3.054,1.1995-6.1642,3.0232-8.5313,5.8125s-3.9687,6.5515-3.9687,11.406v70.844s0,4.9369,3.125,9.8438c3.1231,4.9069,9.4804,9.75,21.5,9.75h550.78s6.0171,0.0241,12.125-2.375c3.054-1.1995,6.1641-2.9919,8.5312-5.7812,2.3672-2.7893,3.9376-6.5827,3.9376-11.438v-70.844s0.029-4.9369-3.0938-9.8438c-3.1231-4.9069-9.4804-9.75-21.5-9.75z"/>
   <g fill-rule="nonzero" transform="translate(-2037.1535,-1490.7012)">
    <path fill="#0d0b09" d="m578.67,949.39,0-0.0363-406.3,0,0,96.456,406.3,0,0-0.065c3.6871-0.3446,15.379-2.5352,15.379-16.411v-63.502s-0.008-15.718-15.379-16.442"/>
    <path fill="#ee2722" d="m20.388,949.35,0,0.13455c-14.431,1.52-14.441,16.35-14.441,16.35v63.504c0,12.532,9.7613,15.529,14.442,16.247v0.2282h143.96v-96.341h-143.96z"/>
    <g fill="#FFF" transform="translate(0.24999952,665.08092)">
     <path d="m195.51,321.88,14.815-26.552,12.348,0-25.591,43.713-8.8119,0-11.454-43.713,12.349,0,6.3448,26.552z"/>
     <path d="m230.37,329.41,13.622,0-1.5223,9.6237-24.988,0,6.9238-43.712,11.362,0-5.3984,34.088z"/>
     <path d="m266.68,295.31-23.734,43.727,12.056,0,4.2329-7.5965,15.646,0,1.6251,7.5965,12.132,0-9.5618-43.727-12.396,0zm3.9683,13.53,0.11332,0,2.4188,13.908-9.4484,0,6.9162-13.908z"/>
     <path d="m313.5,295.31-23.734,43.727,12.056,0,4.2329-7.5965,15.646,0,1.6251,7.5965,12.132,0-9.524-43.727-12.434,0zm3.9683,13.53,0.11332,0,2.4188,13.908-9.4484,0,6.9162-13.908z"/>
     <path d="m344.84,295.33,11.364,0,16.579,26.728,0.11791,0,4.2329-26.728,11.361,0-6.9238,43.713-11.361,0-16.572-26.785-0.11635,0-4.2434,26.785-11.359,0,6.9207-43.713z"/>
     <path d="m395.4,295.31-6.9162,43.727,16.1,0c12.118,0,23.718-9.5527,25.662-21.845,1.9486-12.29-6.5685-21.882-18.746-21.882h-16.1zm9.8263,9.6373,2.6833,0c7.3047,0,11.742,4.4188,10.507,12.245-1.3515,8.5232-7.7325,12.207-14.513,12.207h-2.5322l3.8549-24.452z"/>
     <path d="m447.41,304.95-1.158,7.3062,12.814,0-1.5238,9.6222-12.812,0-1.1943,7.5375,13.507,0-1.5238,9.6237-24.873,0,6.9253-43.712,24.87,0-1.5238,9.6222-13.507,0z"/>
     <path d="m469.59,295.31-6.9162,43.727,11.376,0,2.6455-16.818,0.11332,0,8.05,16.818,14.173,0-10.922-17.914c6.3765-1.1006,10.572-6.3296,11.527-12.358,1.4754-9.335-4.4007-13.454-13.039-13.454h-17.007zm9.9775,8.6925,1.096,0c3.7083,0,7.7809,0.72563,7.0296,5.48-0.75284,4.7544-5.0235,5.4423-8.7303,5.4423h-1.096l1.7007-10.922z"/>
     <path d="m518.53,304.95-1.155,7.3062,12.81,0-1.5238,9.6222-12.812,0-1.1928,7.5375,13.506,0-1.5223,9.6237-24.87,0,6.9207-43.712,24.873,0-1.5238,9.6222-13.51,0z"/>
     <path d="m540.72,295.33,11.365,0,16.581,26.728,0.11489,0,4.2298-26.728,11.365,0-6.9238,43.713-11.362,0-16.569-26.785-0.11791,0-4.2419,26.785-11.362,0,6.9207-43.713z"/>
    </g>
    <g fill="#d3d2d2" transform="translate(0.24999952,665.08092)">
     <path d="m405.66,368.94-3.6766,0,0-18.516,3.6766,0,0,18.516z"/>
     <path d="m441.22,359.04,0,0.56841c0,5.9744-3.5753,9.7522-9.1657,9.7522-5.7673,0-9.9215-4.0242-9.9215-9.6041,0-5.6282,4.2057-9.7507,10.023-9.7507,2.3175,0,4.3039,0.66517,5.9411,1.9501,0.80727,0.64249,1.2623,1.1353,2.1391,2.4188l-3.2215,1.7022c-0.57899-0.83901-0.85564-1.158-1.3606-1.5782-0.97961-0.76645-2.189-1.161-3.5496-1.161-3.5496,0-6.1906,2.7393-6.1906,6.4188,0,3.6539,2.6153,6.3448,6.1664,6.3448,1.3848,0,2.644-0.44445,3.5511-1.2094,0.37491-0.34619,0.70598-0.76796,0.92972-1.2094,0.25549-0.44445,0.32805-0.76494,0.48225-1.5299h-4.4354v-3.1127h8.6124z"/>
     <path d="m461.38,368.94-3.6766,0,0-18.516,3.6766,0,0,18.516z"/>
     <path d="m483.71,368.94,0-15.379-4.2314,0,0-3.1368,12.165,0,0,3.1368-4.257,0,0,15.379-3.6766,0z"/>
     <path d="m512.75,350.04-8.1634,18.897,3.8927,0,1.7385-3.8927,7.7099,0,1.5873,3.8927,3.9683,0-7.9744-18.897-2.7589,0zm1.3606,5.4423,2.6833,6.6139-5.4423,0,2.7589-6.6139z"/>
     <path d="m544.91,350.04-8.1634,18.897,3.8927,0,1.7007-3.8927,7.7099,0,1.6251,3.8927,3.9305,0-7.9366-18.897-2.7589,0zm1.3606,5.4423,2.6456,6.6139-5.4045,0,2.7589-6.6139z"/>
     <path d="m575.84,365.81,5.8126,0,0,3.1354-9.4907,0,0-18.516,3.6781,0,0,15.38z"/>
     <path d="m369.44,350.41,0,18.519,5.3667,0c2.8466,0,4.9388-0.67121,6.7272-2.1542,2.1663-1.7521,3.4014-4.3659,3.4014-7.1808,0-5.3319-4.2102-9.1838-10.129-9.1838h-5.3667zm3.666,3.1368,0.98263,0c2.3901,0,3.8444,0.45352,5.0265,1.5117,1.2865,1.1126,2.0408,2.8587,2.0408,4.6108,0,1.7778-0.78157,3.5375-2.0408,4.6486-1.1565,1.037-2.6592,1.474-5.0265,1.474h-6.354v-12.245z"/>
    </g>
    <path fill="#FFF" d="m132.15,957.5-24.814,48.909-12.296-48.909-77.56,0-2.1588,17.799,17.476,0-7.8746,63.108,20.496,0,7.7673-63.108,24.715,0,16.492,63.108,17.367,0,43.367-80.907-22.977,0z"/>
   </g>
  </g>
 </g>
</svg>
