<?xml version="1.0" encoding="UTF-8" standalone="no"?>
<!-- Created with Inkscape (http://www.inkscape.org/) -->

<svg
   xmlns:dc="http://purl.org/dc/elements/1.1/"
   xmlns:cc="http://creativecommons.org/ns#"
   xmlns:rdf="http://www.w3.org/1999/02/22-rdf-syntax-ns#"
   xmlns:svg="http://www.w3.org/2000/svg"
   xmlns="http://www.w3.org/2000/svg"
   xmlns:xlink="http://www.w3.org/1999/xlink"
   xmlns:inkscape="http://www.inkscape.org/namespaces/inkscape"
   version="1.1"
   width="600pt"
   height="260pt"
   viewBox="0 0 600 260"
   id="svg2"
   style="display:inline">
  <metadata
     id="metadata132">
    <rdf:RDF>
      <cc:Work
         rdf:about="">
        <dc:format>image/svg+xml</dc:format>
        <dc:type
           rdf:resource="http://purl.org/dc/dcmitype/StillImage" />
      </cc:Work>
    </rdf:RDF>
  </metadata>
  <defs
     id="defs130">
    <linearGradient
       id="linearGradient3512">
      <stop
         id="stop3514"
         style="stop-color:#161650;stop-opacity:1"
         offset="0" />
      <stop
         id="stop3516"
         style="stop-color:#ffffff;stop-opacity:0"
         offset="1" />
    </linearGradient>
    <linearGradient
       id="linearGradient3504">
      <stop
         id="stop3506"
         style="stop-color:#000000;stop-opacity:0.89019608"
         offset="0" />
      <stop
         id="stop3508"
         style="stop-color:#ffffff;stop-opacity:0.39444444"
         offset="1" />
    </linearGradient>
    <linearGradient
       x1="400.63586"
       y1="205.73274"
       x2="538.48547"
       y2="30.031649"
       id="linearGradient3518"
       xlink:href="#linearGradient3512"
       gradientUnits="userSpaceOnUse" />
  </defs>
  <g
     id="layer4"
     style="display:inline">
    <rect
       width="537.92084"
       height="203.0112"
       rx="25"
       x="30.8384"
       y="27.871201"
       id="rect3020-1"
       style="fill:#000000;fill-opacity:1;fill-rule:nonzero;stroke:none;display:inline" />
  </g>
  <g
     id="layer3"
     style="display:inline">
    <path
       d="m 72.5,37.53125 c -17.3125,0 -31.25,13.9375 -31.25,31.25 l 0,186.28125 c 0,17.3125 13.9375,31.25 31.25,31.25 l 401.21875,0 0,-248.78125 -401.21875,0 z"
       inkscape:connector-curvature="0"
       transform="scale(0.8,0.8)"
       id="rect3020"
       style="fill:#ffffff;fill-opacity:1;fill-rule:nonzero;stroke:none" />
  </g>
  <g
     id="layer5"
     style="display:inline">
    <path
       d="m 473.71875,37.53125 0,248.78125 203.0625,0 c 17.3125,0 31.25,-13.9375 31.25,-31.25 l 0,-186.28125 c 0,-17.3125 -13.9375,-31.25 -31.25,-31.25 l -203.0625,0 z"
       inkscape:connector-curvature="0"
       transform="scale(0.8,0.8)"
       id="rect3020-7"
       style="fill:#161650;fill-opacity:1;fill-rule:nonzero;stroke:none;display:inline" />
  </g>
  <g
     id="layer14"
     style="display:inline">
    <path
       d="m 473.71875,37.53125 0,248.78125 141.3125,0 c 35.82938,-26.62434 59.03125,-69.27134 59.03125,-117.34375 0,-57.81562 -33.58675,-107.757136 -82.3125,-131.4375 l -118.03125,0 z"
       inkscape:connector-curvature="0"
       transform="scale(0.8,0.8)"
       id="path3419"
       style="fill:#3771c8;fill-opacity:1;fill-rule:nonzero;stroke:none" />
  </g>
  <path
     d="m 489.2,173.2 c 0.5,0.5 0.5,0.5 0,0 z"
     inkscape:connector-curvature="0"
     id="path112"
     style="fill:#3b6c3f;stroke:#3b6c3f;stroke-width:0.09375" />
  <g
     id="layer15">
    <path
       d="m 378.975,30.025 0,199.025 113.05,0 c 28.6635,-21.29947 47.225,-55.41707 47.225,-93.875 0,-46.252496 -26.8694,-86.205709 -65.85,-105.15 l -94.425,0 z"
       inkscape:connector-curvature="0"
       id="path3419-4"
       style="fill:url(#linearGradient3518);fill-opacity:1;fill-rule:nonzero;stroke:none;display:inline" />
  </g>
  <g
     id="layer11"
     style="display:inline">
    <path
       d="m 394.5,64.4 c 2,0.1 3.6,-0.9 5,-2.2 -0.1,1 -0.2,2.1 -0.3,3.2 -1.2,0.8 -2.4,1.6 -3.6,2.4 -0.1,0.6 -0.4,1.7 -0.6,2.3 2.6,2.6 6.6,3.1 9.7,1.2 0.9,0 2.5,0 3.3,-0.1 -3,2 -6.7,2 -10.2,2.6 1.2,0.7 2.3,1.4 3.5,2 -3.2,3.4 -6.6,7.5 -11.5,8.1 1.1,-1.2 2.1,-2.5 3.1,-3.7 -0.6,-0.2 -1.7,-0.5 -2.3,-0.7 2,-1.3 4,-2.6 6,-3.9 0,-1 0,-2 0,-3 -1.4,-0.5 -2.9,-1 -4.3,-1.4 0.1,-2.5 0.6,-4.9 2.2,-6.8 z"
       inkscape:connector-curvature="0"
       id="path36"
       style="fill:#495533;stroke:#495533;stroke-width:0.09375;display:inline" />
    <path
       d="m 379.5,128.8 c 2.7,-0.6 5.5,-1.1 8.2,-0.4 -0.8,1.4 -1.7,2.7 -2.5,4 2.6,2.1 5.6,3.9 9,4 0.7,0.7 1.4,1.5 2.1,2.2 1,-0.5 1.9,-1 2.9,-1.4 0.3,1.5 0.6,3.1 0.9,4.6 0.3,-0.6 0.8,-1.9 1,-2.6 1,0 2,-0.1 3,-0.1 0.2,0.6 0.5,1.7 0.7,2.3 -0.9,0.4 -1.8,0.8 -2.7,1.1 -0.6,0.2 -1.7,0.4 -2.2,0.5 -1.1,1.2 -2,2.4 -2.9,3.7 -1.8,-1.7 -3.5,-4.2 -6.2,-4.1 -3.7,-0.2 -7.1,-1.8 -10.7,-2.3 -0.4,-3.9 -0.5,-7.7 -0.6,-11.5 z"
       inkscape:connector-curvature="0"
       id="path94"
       style="fill:#495533;stroke:#495533;stroke-width:0.09375;display:inline" />
    <path
       d="m 428.1,201.6 c 1.1,-0.3 2.3,-0.6 3.4,-0.9 0.4,1.3 0.8,2.5 1.2,3.8 5.1,0.3 10.2,0.7 15.4,0.1 4.1,-0.8 5.1,4.5 8.6,5.4 2.3,1 5.4,0.7 6.9,3 -1.1,1.4 -2.8,1.9 -4.3,2.6 1.6,0.2 3.1,0.3 4.6,0.4 -0.1,3.2 -0.5,6.7 1.4,9.4 -1.5,1.2 -3.1,2.3 -4.6,3.4 l -0.7,0.4 c -8,0.1 -16.1,0 -24.2,0 0.9,-0.7 1.8,-1.5 2.7,-2.2 -2.1,-0.8 -4.4,-1.8 -5.1,-4.1 -1.3,-3.9 -1,-8.1 -2.7,-11.9 -4.1,-1.4 -4,-6 -2.6,-9.4 z"
       inkscape:connector-curvature="0"
       id="path122"
       style="fill:#495533;stroke:#495533;stroke-width:0.09375;display:inline" />
  </g>
  <g
     id="layer10"
     style="display:inline">
    <path
       d="m 380.1,117.9 0,0.9 c -0.4,3.3 -0.7,6.6 -0.6,10 0.1,3.8 0.2,7.6 0.6,11.5 3.6,0.5 7,2.1 10.7,2.3 2.7,-0.1 4.4,2.4 6.2,4.1 0.9,-1.3 1.8,-2.5 2.9,-3.7 0.5,-0.1 1.6,-0.3 2.2,-0.5 0.1,1.7 0.2,3.3 0.3,5 3.3,-0.1 6.5,0.3 9.7,1.2 -7,0.3 -13.9,2.8 -21.1,1.9 -3.9,-0.4 -7.9,0 -11.8,0.8 0,-10.5 0,-21.1 0.1,-31.6 0.2,-0.5 0.6,-1.4 0.8,-1.9 z"
       inkscape:connector-curvature="0"
       id="path90"
       style="fill:#1e5d38;stroke:#1e5d38;stroke-width:0.09375;display:inline" />
    <path
       d="m 412.3,148.7 c 3,-0.2 5.7,1.3 8.7,1.3 2.2,0 4.3,0.3 6.3,0.9 0.1,0.9 0.2,1.8 0.3,2.7 2.4,-0.4 4.9,-0.9 7.4,-0.4 2.2,1 4.2,2.8 6.8,2.5 4.5,-0.3 8.8,2.3 13.2,0.5 7.4,-0.2 15.1,3.1 19.6,9.1 -2.8,3.7 -3.9,8.2 -3.7,12.7 0.7,-0.6 1.4,-1.3 2.2,-2 0.6,3.7 1.5,7.3 2.5,10.9 -0.5,0.3 -1.3,0.9 -1.7,1.2 -0.1,-4 -2.2,-7.6 -5,-10.4 -2.6,1.8 -5.1,4 -8.4,4.4 -1.6,0.2 -3.4,-0.7 -4.7,0.5 -1.1,0.8 -2.2,1.8 -3.2,2.7 -0.5,-1 -1,-1.9 -1.4,-2.8 -1,0.1 -2.1,0.2 -3,0.3 -0.9,-0.5 -1.7,-1 -2.6,-1.5 -0.2,0.2 -0.6,0.5 -0.8,0.7 0.2,1.9 0.3,5.7 -2.7,4.3 -1.5,-1.6 -2.7,-3.5 -4.1,-5.3 -0.7,3 0.3,6 -0.1,8.9 -1.6,2.9 -4.2,0.2 -5.8,-1.2 -0.3,-2.9 -0.5,-5.8 -1.5,-8.5 -1.8,-3.6 -6.6,-5.7 -6.4,-10.2 -0.3,-4.3 3.9,-8.6 1.3,-12.7 -2.2,-2.8 -6.2,-2.3 -9.3,-3.5 -1.7,-1.3 -2.7,-3.3 -3.9,-5.1 z"
       inkscape:connector-curvature="0"
       id="path104"
       style="fill:#1e5d38;stroke:#1e5d38;stroke-width:0.09375;display:inline" />
    <path
       d="m 503.2,217.9 c 3.3,-2.3 6.2,-5 8.9,-8 -3.3,5.1 -8.4,8.4 -12.7,12.6 -3.3,3.1 -7.5,5.6 -12.3,5.2 1,-1.2 2.1,-2.3 3.2,-3.4 3.1,-2.7 8.6,-3.3 9.5,-8 1.2,0.5 2.2,1 3.4,1.6 z"
       inkscape:connector-curvature="0"
       id="path126"
       style="fill:#1e5d38;stroke:#1e5d38;stroke-width:0.09375;display:inline" />
  </g>
  <g
     id="layer9"
     style="display:inline">
    <path
       d="m 411.9,137.2 c 2.6,4.3 7.1,6.7 11.8,7.8 -1.6,-0.9 -3.4,-2.4 -2,-4.4 1.6,1.2 3.2,2.5 4.9,3.8 1.3,-0.1 2.7,-0.1 4.1,-0.2 0.4,1.7 0.7,3.3 1.1,5 3.5,0.1 7,0.3 10.5,0.5 0.4,-1.1 0.9,-2.2 1.4,-3.3 4.7,0.6 9.4,-0.1 14.1,-0.1 3.5,1.3 6.9,3.2 10.3,4.7 4.5,2.1 7.5,6.3 8.6,11.1 -0.7,1 -1.4,2.1 -2.1,3.2 -4.5,-6 -12.2,-9.3 -19.6,-9.1 -4.4,1.8 -8.7,-0.8 -13.2,-0.5 -2.6,0.3 -4.6,-1.5 -6.8,-2.5 -2.5,-0.5 -5,0 -7.4,0.4 -0.1,-0.9 -0.2,-1.8 -0.3,-2.7 -2,-0.6 -4.1,-0.9 -6.3,-0.9 -3,0 -5.7,-1.5 -8.7,-1.3 l -0.2,0 c -3.2,-0.9 -6.4,-1.3 -9.7,-1.2 -0.1,-1.7 -0.2,-3.3 -0.3,-5 0.9,-0.3 1.8,-0.7 2.7,-1.1 2,-0.9 4,-1.7 6.1,-2.5 0.2,0.8 0.5,2.3 0.6,3.1 0.2,-1.6 0.3,-3.2 0.4,-4.8 z"
       inkscape:connector-curvature="0"
       id="path98"
       style="fill:#3b6c3f;stroke:#3b6c3f;stroke-width:0.09375;display:inline" />
    <path
       d="m 485.3,143.2 c 3.1,1.9 4.5,5.3 4.7,8.9 -0.5,-0.4 -1.7,-1.2 -2.2,-1.6 -0.7,-0.4 -1.4,-0.9 -2.1,-1.3 -0.1,-2 -0.3,-4 -0.4,-6 z"
       inkscape:connector-curvature="0"
       id="path100"
       style="fill:#3b6c3f;stroke:#3b6c3f;stroke-width:0.09375;display:inline" />
    <path
       d="m 460.5,182.1 c 3.3,-0.4 5.8,-2.6 8.4,-4.4 2.8,2.8 4.9,6.4 5,10.4 0.5,3 0.9,6.1 -1.5,8.5 0.5,0.6 1,1.3 1.5,1.9 0.9,-1.1 1.8,-2.3 2.7,-3.4 0,1.5 -0.9,3.5 0.6,4.7 1.2,1.6 4.2,4 4.8,0.6 1.3,0.3 2.6,0.5 3.8,0.8 1.7,-1 3.5,-2.1 5.1,-3.1 -1.5,4.4 -6.1,6.6 -9.7,9.2 -1.5,0.9 -2.9,1.7 -4.3,2.6 -0.4,2.4 -0.2,5.2 -1.9,7.2 -1.7,1.7 -4.4,2 -5.9,3.9 -1.3,1.5 -2.5,3 -3.8,4.4 -1.9,-2.7 -1.5,-6.2 -1.4,-9.4 -1.5,-0.1 -3,-0.2 -4.6,-0.4 1.5,-0.7 3.2,-1.2 4.3,-2.6 -1.5,-2.3 -4.6,-2 -6.9,-3 -3.5,-0.9 -4.5,-6.2 -8.6,-5.4 -5.2,0.6 -10.3,0.2 -15.4,-0.1 -0.4,-1.3 -0.8,-2.5 -1.2,-3.8 -1.1,0.3 -2.3,0.6 -3.4,0.9 0.9,-2.3 2.7,-4 4.6,-5.6 -0.1,-2.4 -0.3,-4.9 -0.6,-7.3 1.6,1.4 4.2,4.1 5.8,1.2 0.4,-2.9 -0.6,-5.9 0.1,-8.9 1.4,1.8 2.6,3.7 4.1,5.3 3,1.4 2.9,-2.4 2.7,-4.3 0.2,-0.2 0.6,-0.5 0.8,-0.7 0.9,0.5 1.7,1 2.6,1.5 0.9,-0.1 2,-0.2 3,-0.3 0.4,0.9 0.9,1.8 1.4,2.8 1,-0.9 2.1,-1.9 3.2,-2.7 1.3,-1.2 3.1,-0.3 4.7,-0.5 m 9.2,22 c -0.4,2.8 2.3,3.8 4.5,4.6 0.8,-1.5 1.3,-3.2 1.7,-4.9 -2,-0.2 -4.1,-0.1 -6.2,0.3 z"
       inkscape:connector-curvature="0"
       id="path114"
       style="fill:#3b6c3f;stroke:#3b6c3f;stroke-width:0.09375;display:inline" />
    <path
       d="m 503.7,193.8 c 2.3,0 3,-1.8 3.6,-3.7 0,1 0,2.1 0.1,3.1 -3,3.8 -4.2,8.5 -6.9,12.4 -1.2,1.5 -1.8,3.6 -3.7,4.3 1.5,-2.5 3.8,-4.8 4.1,-7.8 0.2,-1.6 0.3,-3.1 0.5,-4.6 0.5,-0.4 1.4,-1.1 1.9,-1.5 0.1,-0.5 0.3,-1.6 0.4,-2.2 z"
       inkscape:connector-curvature="0"
       id="path118"
       style="fill:#3b6c3f;stroke:#3b6c3f;stroke-width:0.09375;display:inline" />
  </g>
  <g
     id="layer8"
     style="display:inline">
    <path
       d="m 412.8,41.2 c 1,0.5 2.1,1.1 3.2,1.6 0.5,1.2 0.5,2.6 0.8,3.9 1.7,-0.2 3.4,-0.3 5.1,-0.4 0.6,-0.7 1.3,-1.5 1.9,-2.2 2.1,1.7 4.6,2.7 7.3,2.8 2.3,2.7 5.8,3.8 9,5.3 -4.9,0.2 -9.8,0.4 -14.6,1.4 -0.7,1.4 -1.5,2.8 -2.4,4.2 0.7,0.4 2.1,1.1 2.8,1.5 -0.4,0.3 -1.2,0.8 -1.6,1.1 -2.3,0 -4.6,-0.1 -6.9,-0.2 0,0.7 -0.1,2.1 -0.2,2.8 -1.7,0.6 -3.6,1 -5.3,2 -0.9,1.3 -1.5,2.8 -2.3,4.2 -0.7,-1.3 -1.3,-2.5 -2,-3.8 -1.3,0 -2.7,0 -4,0 -1,1.9 -2.1,3.7 -3.4,5.4 1.5,0.2 3,0.4 4.5,0.5 -3.1,1.9 -7.1,1.4 -9.7,-1.2 0.2,-0.6 0.5,-1.7 0.6,-2.3 1.2,-0.8 2.4,-1.6 3.6,-2.4 0.1,-1.1 0.2,-2.2 0.3,-3.2 -1.4,1.3 -3,2.3 -5,2.2 1.2,-1.9 1.8,-4 2.4,-6.1 4.2,0.3 8.4,0.9 12.6,1.4 0.8,-1.6 1.6,-3.1 2.5,-4.7 -1.7,-1.8 -3.3,-3.6 -5,-5.4 3.9,-0.1 8.4,0.7 11.2,-2.6 -3.7,-0.7 -7.5,-0.7 -11.2,-0.1 2.6,-1.1 4.3,-3.4 5.8,-5.7 z"
       inkscape:connector-curvature="0"
       id="path22"
       style="fill:#637f49;stroke:#637f49;stroke-width:0.09375;display:inline" />
    <path
       d="m 425.5,56.7 c 0.9,-0.5 1.7,-0.9 2.5,-1.4 3.5,0.3 6.9,0.3 10.3,0.1 1.5,1.9 2.9,3.8 4.5,5.7 -0.7,-0.3 -2.2,-0.7 -3,-0.9 -0.5,-0.9 -1,-1.8 -1.5,-2.7 -1.4,-0.1 -2.7,-0.3 -4.1,-0.4 0.7,5.7 7.1,7.4 11.3,10.2 -2,2.3 -3.9,4.7 -5.4,7.4 -2.2,-0.1 -4.1,-1.2 -5.3,-3.1 2.2,0 4.5,0.1 6.8,0.1 0,-0.7 0,-2.2 0,-2.9 -4,-3.6 -9.6,-5.4 -12.3,-10.3 -0.9,0 -1.7,0.1 -2.5,0.2 l -0.9,0.6 c -0.2,-0.9 -0.3,-1.8 -0.4,-2.6 z"
       inkscape:connector-curvature="0"
       id="path30"
       style="fill:#637f49;stroke:#637f49;stroke-width:0.09375;display:inline" />
    <path
       d="m 428.5,65.2 c 0.2,-1.2 0.1,-2.5 1,-3.4 -0.1,0.6 -0.3,1.7 -0.4,2.3 0.2,1.5 0.4,3 0.7,4.5 -1.2,-0.1 -2.3,-0.1 -3.5,-0.1 0.1,-0.5 0.2,-1.5 0.3,-2 0.5,-0.3 1.4,-1 1.9,-1.3 z"
       inkscape:connector-curvature="0"
       id="path38"
       style="fill:#637f49;stroke:#637f49;stroke-width:0.09375;display:inline" />
    <path
       d="m 461,68.7 c 3.2,-0.2 6.2,-1.2 9.1,-2.2 -1,1.9 -3.3,3.5 -2.9,5.8 2.4,1.5 5,3 7.9,3.5 2.3,-1.3 4.5,-2.9 6.7,-4.3 -0.8,2.5 -1.7,5.1 -1.4,7.8 -0.7,-1.4 -1.5,-2.7 -2.3,-4.1 -0.9,0.8 -1.7,1.6 -2.5,2.4 -1.5,-0.5 -3,-1 -4.4,-1.5 -2.4,0.4 -5.1,0.6 -7,-1.2 C 462.8,73 462,70.8 461,68.7 z"
       inkscape:connector-curvature="0"
       id="path48"
       style="fill:#637f49;stroke:#637f49;stroke-width:0.09375;display:inline" />
    <path
       d="m 380.1,118.8 c 1.8,0.3 3.6,0.5 5.4,0.8 0.1,1.1 0.2,2.1 0.3,3.2 3,-0.6 6.1,-1.5 9.2,-1 4.6,0.8 9.2,-0.4 13.7,0.8 -1,1.2 -3.7,2.3 -2.8,4.2 1.3,4 6.2,3.5 9.5,3.8 -0.3,-1.9 -0.6,-3.8 -0.8,-5.7 2.1,1.8 3.4,4.3 5.2,6.4 2.4,1.3 5.3,0.8 7.9,1.8 -0.3,-1.4 -0.6,-2.7 -0.9,-4.1 0.4,0.2 1,0.5 1.3,0.7 0.2,0.7 0.6,2.2 0.8,2.9 2.9,0 5.7,-0.6 8.6,-0.9 2.4,0.5 2.3,3.7 3.6,5.4 5.7,0.6 11.4,-1.1 17.1,-0.5 0.1,1 0.2,1.9 0.3,2.9 4,0.9 7,3.5 10,6 3.3,1.2 6.1,-1.7 8.9,-3.1 1.8,-1.5 4,-0.3 5.9,0.2 0.1,-1 0.3,-2 0.4,-3.1 0.6,0 1.2,-0.1 1.8,-0.2 0,-0.7 0.1,-1.5 0.2,-2.2 1.1,-0.6 2.2,-1.2 3.4,-1.9 0.6,-1.3 1.3,-2.7 2.1,-4 0.4,1.8 0.8,3.6 1.3,5.3 -0.3,0.4 -1,1.2 -1.3,1.6 0.8,1.2 1.6,2.4 2.3,3.6 -0.6,-0.1 -1.9,-0.3 -2.5,-0.4 1,2.3 1.9,4.6 2.7,7 1.5,0.3 3.1,0.5 4.6,0.8 -1.3,1.8 -3,3.4 -5.3,3.8 -0.4,-0.4 -1.2,-1.1 -1.6,-1.4 -0.4,0.1 -1,0.4 -1.4,0.6 -0.2,-3.6 -1.6,-7 -4.7,-8.9 0.1,2 0.3,4 0.4,6 0.7,0.4 1.4,0.9 2.1,1.3 -0.5,1.8 -1,3.6 -1.5,5.4 -0.7,-0.3 -1.4,-0.5 -2.2,-0.7 0.3,2.8 1.4,5.4 2.7,7.9 0.6,2 1,4 1.4,6 -0.9,-0.5 -1.8,-0.9 -2.8,-1.3 -0.6,0.9 -1.3,1.9 -2,2.8 0.1,-1.1 0.2,-3.2 0.3,-4.3 -1,0.1 -3,0.2 -4,0.3 -0.5,1.9 -0.9,3.8 -1.4,5.8 1.3,0 2.5,0.1 3.8,0.2 -0.9,1.1 -1.8,2.2 -2.7,3.3 0.3,1.2 0.5,2.3 0.8,3.4 2.9,-1.8 6.9,0.2 9.4,-2.4 2.9,-2 4.8,-4.8 6.4,-7.9 0.6,-0.1 1.9,-0.3 2.5,-0.4 -2.1,3.1 -4.5,6.1 -5.9,9.5 -0.9,6.6 1,13.6 -1.7,20 -1.6,1 -3.4,2.1 -5.1,3.1 -1.2,-0.3 -2.5,-0.5 -3.8,-0.8 -0.6,3.4 -3.6,1 -4.8,-0.6 -1.5,-1.2 -0.6,-3.2 -0.6,-4.7 -0.9,1.1 -1.8,2.3 -2.7,3.4 -0.5,-0.6 -1,-1.3 -1.5,-1.9 2.4,-2.4 2,-5.5 1.5,-8.5 0.4,-0.3 1.2,-0.9 1.7,-1.2 -1,-3.6 -1.9,-7.2 -2.5,-10.9 -0.8,0.7 -1.5,1.4 -2.2,2 -0.2,-4.5 0.9,-9 3.7,-12.7 0.7,-1.1 1.4,-2.2 2.1,-3.2 -1.1,-4.8 -4.1,-9 -8.6,-11.1 -3.4,-1.5 -6.8,-3.4 -10.3,-4.7 -4.7,0 -9.4,0.7 -14.1,0.1 -0.5,1.1 -1,2.2 -1.4,3.3 -3.5,-0.2 -7,-0.4 -10.5,-0.5 -0.4,-1.7 -0.7,-3.3 -1.1,-5 -1.4,0.1 -2.8,0.1 -4.1,0.2 -1.7,-1.3 -3.3,-2.6 -4.9,-3.8 -1.4,2 0.4,3.5 2,4.4 -4.7,-1.1 -9.2,-3.5 -11.8,-7.8 -0.1,1.6 -0.2,3.2 -0.4,4.8 -0.1,-0.8 -0.4,-2.3 -0.6,-3.1 -2.1,0.8 -4.1,1.6 -6.1,2.5 -0.2,-0.6 -0.5,-1.7 -0.7,-2.3 -1,0 -2,0.1 -3,0.1 -0.2,0.7 -0.7,2 -1,2.6 -0.3,-1.5 -0.6,-3.1 -0.9,-4.6 -1,0.4 -1.9,0.9 -2.9,1.4 -0.7,-0.7 -1.4,-1.5 -2.1,-2.2 -3.4,-0.1 -6.4,-1.9 -9,-4 0.8,-1.3 1.7,-2.6 2.5,-4 -2.7,-0.7 -5.5,-0.2 -8.2,0.4 -0.1,-3.4 0.2,-6.7 0.6,-10 m 100.5,69.3 c 0.1,3.7 -0.2,7.4 0,11 0.9,-3.6 1,-7.4 0,-11 z"
       inkscape:connector-curvature="0"
       id="path92"
       style="fill:#637f49;stroke:#637f49;stroke-width:0.09375;display:inline" />
    <path
       d="m 495.7,201.2 c 1.8,-1.3 3.7,-2.6 5.7,-3.7 -0.2,1.5 -0.3,3 -0.5,4.6 -0.3,3 -2.6,5.3 -4.1,7.8 -1.5,2.1 -2.9,4.4 -4.3,6.6 -1.1,0 -2.1,0 -3.1,0 -0.9,-6.2 6.5,-9.1 6.3,-15.3 z"
       inkscape:connector-curvature="0"
       id="path120"
       style="fill:#637f49;stroke:#637f49;stroke-width:0.09375;display:inline" />
    <path
       d="m 469.7,204.1 c 2.1,-0.4 4.2,-0.5 6.2,-0.3 -0.4,1.7 -0.9,3.4 -1.7,4.9 -2.2,-0.8 -4.9,-1.8 -4.5,-4.6 z"
       inkscape:connector-curvature="0"
       id="path124"
       style="fill:#637f49;stroke:#637f49;stroke-width:0.09375;display:inline" />
  </g>
  <g
     id="layer6"
     style="display:inline">
    <path
       d="m 540.21875,37.53125 c -3.00894,0.434425 -6.32583,0.489513 -8.34375,2.84375 -0.125,1.875 -0.125,3.75 0,5.625 2.625,-0.25 5.125,-0.875 7.625,-1.75 1.5,2.25 2.875,4.5 4.375,6.875 3.375,-0.75 5.375,-3.625 7.125,-6.375 -1.125,-1.125 -2.125,-2.25 -3.125,-3.5 1.74901,-1.166004 3.50099,-2.436672 5.25,-3.71875 l -12.90625,0 z"
       inkscape:connector-curvature="0"
       transform="scale(0.8,0.8)"
       id="path10"
       style="fill:#57c6a7;stroke:#57c6a7;stroke-width:0.1171875;display:inline" />
    <path
       d="m 554.375,37.53125 c -0.002,2.072917 -0.0159,4.145833 -0.125,6.21875 6,-1.25 12.125,-1 18.25,-0.5 -3,0.75 -6,2 -8.75,3.5 -0.625,-0.375 -1.875,-1 -2.5,-1.25 -1.375,1.375 -2.875,2.875 -4.25,4.5 -0.125,0.75 -0.25,2.375 -0.375,3.125 -6.25,0.25 -12.5,0.5 -18.75,-0.25 0.25,-1.75 0.375,-3.5 0.5,-5.25 -1,0.375 -1.875,0.75 -2.875,1 0.125,1.5 0.375,2.875 0.5,4.375 -2.125,0.625 -4.125,1.375 -6.25,2.125 2.625,2.125 5.75,3.375 9.125,3.5 2.875,3.375 7.25,4.75 11.25,6.625 -6.125,0.25 -12.25,0.5 -18.25,1.75 -0.875,1.75 -1.875,3.5 -3,5.25 0.875,0.5 2.625,1.375 3.5,1.875 C 532.125,73 532,71.875 531.875,70.875 533,70.25 534,69.75 535,69.125 c 4.375,0.375 8.625,0.375 12.875,0.125 1.875,2.375 3.625,4.75 5.625,7.125 2.625,1.5 6,2.875 6.875,6.125 1.375,3.75 4.625,6.5 6,10.375 0.75,0.625 1.625,1.25 2.5,1.875 0.75,-1.5 1.625,-2.875 2.5,-4.375 -2.375,-1 -3.5,-3 -3.75,-5.5 0.75,-0.375 2.5,-1.25 3.375,-1.625 3,0.75 6.125,1 9.25,0.75 -1.125,-1.25 -2.25,-2.375 -3.25,-3.5 0.625,-2.875 1.375,-5.75 1.5,-8.75 -1.375,0.125 -2.75,0.25 -4.125,0.25 l 0,-6.375 c 3.75,0.625 7.375,1.625 11,2.625 -2.375,1 -5.75,0.75 -6.875,3.5 4.5,-1 7.5,2.75 11.125,4.5 -0.125,-1.625 -0.25,-3.25 -0.375,-5 0.875,-0.125 2.875,-0.5 3.75,-0.75 0.125,1.5 0.25,3 0.25,4.5 4.75,2 10,4 12.5,8.75 1.125,-0.25 2.25,-0.5 3.375,-0.625 l 2.125,2.125 c 1.375,0.25 2.625,0.5 4,0.75 0.25,0.625 0.625,1.75 0.875,2.375 1.375,0 2.875,0 4.25,-0.125 -0.125,-0.5 -0.25,-1.625 -0.375,-2.125 -3,-2.875 -5.625,-6.25 -9.125,-8.5 -5.75,2 -9.625,-3.875 -15.125,-3.5 -0.125,-1.5 -0.25,-3.125 -0.375,-4.625 l -8.875,0 c 0.125,-1.25 0.25,-2.625 0.375,-3.875 l 5.125,0 c 0.875,-1.375 1.75,-2.75 2.5,-4 1.875,0.625 3.875,1.375 5.75,2.125 0.75,-1 1.5,-1.875 2.25,-2.875 2.25,-0.25 4.625,-0.375 7,-0.5 0.5,0.625 1.625,1.625 2.125,2.25 0.125,-1 0.125,-1.875 0.25,-2.875 -3,-3.75 -5.375,-8.25 -9.625,-10.625 -3.75,-2.25 -7,-5.25 -11,-6.875 -5.28067,-2.160276 -10.79218,-3.50788 -16.3125,-4.71875 l -20.5625,0 z m 7.5,29.34375 c 0,2.125 0,4.375 0.125,6.625 -2.25,-0.25 -4.375,-0.75 -6.375,-1.625 -0.125,-1.375 -0.125,-2.625 -0.25,-4 2,-0.875 4.25,-1 6.5,-1 z"
       inkscape:connector-curvature="0"
       transform="scale(0.8,0.8)"
       id="path12"
       style="fill:#57c6a7;stroke:#57c6a7;stroke-width:0.1171875;display:inline" />
    <path
       d="m 410.6,35.7 c 1.2,-0.1 2.4,-0.2 3.6,-0.3 0.1,2.5 0.6,5.1 1.8,7.4 -1.1,-0.5 -2.2,-1.1 -3.2,-1.6 -0.7,-0.4 -2,-1.1 -2.7,-1.5 0.2,-1.3 0.4,-2.6 0.5,-4 z"
       inkscape:connector-curvature="0"
       id="path18"
       style="fill:#57c6a7;stroke:#57c6a7;stroke-width:0.09375;display:inline" />
    <path
       d="m 400.9,44.7 c 1.6,-2.5 3.9,-4.8 7,-5.3 -0.1,0.8 -0.2,2.4 -0.3,3.3 -2.1,1 -4.4,1.8 -6.7,2 z"
       inkscape:connector-curvature="0"
       id="path20"
       style="fill:#57c6a7;stroke:#57c6a7;stroke-width:0.09375;display:inline" />
    <path
       d="m 469.4,89.5 c 2.3,-1.2 4.8,-1.5 7.2,-0.6 0,0.4 0,1.3 0,1.8 -1.6,-0.1 -3.1,-0.2 -4.7,-0.3 -0.6,-0.3 -1.8,-0.7 -2.5,-0.9 z"
       inkscape:connector-curvature="0"
       id="path66"
       style="fill:#57c6a7;stroke:#57c6a7;stroke-width:0.09375;display:inline" />
  </g>
  <g
     id="layer12"
     style="display:inline">
    <path
       d="m 444.3,54.3 c 1.6,-0.7 3.4,-0.8 5.2,-0.8 0,1.7 0,3.5 0.1,5.3 -1.8,-0.2 -3.5,-0.6 -5.1,-1.3 -0.1,-1.1 -0.1,-2.1 -0.2,-3.2 z"
       inkscape:connector-curvature="0"
       id="path28"
       style="fill:#908657;stroke:#908657;stroke-width:0.09375;display:inline" />
    <path
       d="m 403.6,65.4 c 1.3,0 2.7,0 4,0 0.7,1.3 1.3,2.5 2,3.8 -0.4,0.5 -1.2,1.5 -1.6,2 -0.8,0.1 -2.4,0.1 -3.3,0.1 -1.5,-0.1 -3,-0.3 -4.5,-0.5 1.3,-1.7 2.4,-3.5 3.4,-5.4 z"
       inkscape:connector-curvature="0"
       id="path40"
       style="fill:#908657;stroke:#908657;stroke-width:0.09375;display:inline" />
    <path
       d="m 401.3,75.8 c 4,0.6 7.8,-1.2 11.7,-2.1 5.8,-0.2 11.6,0.1 17.4,-0.1 0.1,0.5 0.3,1.6 0.4,2.1 -4.1,3.8 -10.1,0.8 -14.8,3.3 -5.3,2.3 -10.5,4.7 -15.6,7.4 1.1,1 2.2,2 3.3,2.9 -4.3,3.7 -3.8,9.8 -6.5,14.5 0.9,1 1.9,2.1 2.7,3.2 -1.3,3.9 -5.7,3.3 -8.9,3.5 -2.9,-0.1 -4.8,2.5 -7,4 2.2,2.3 5.1,5.2 8.6,4 3.2,-0.7 5.4,-3.3 6.8,-6.1 0.8,0.4 1.6,0.8 2.5,1.2 0.3,1 0.6,2 1,3 0.2,0 0.8,-0.1 1.1,-0.1 0.7,-1 1.1,-4.2 3,-2.8 1.5,1.7 1.5,4 1.7,6.2 -0.7,-0.1 -2.1,-0.1 -2.8,-0.2 2.6,1 5,2.6 7.8,2.7 4,-1.8 7.4,-4.7 9.9,-8.4 1.1,1.5 2.2,3 3.3,4.5 -1.5,2.1 -3,4.3 -4.7,6.3 5.1,1.9 10,6 15.8,5 3,-0.3 6,0.3 9,0.3 2.9,-0.3 5.3,-2.4 8,-3.4 2.8,1.8 6,2.9 9,4.3 0.4,1.2 0.5,2.4 0.7,3.6 0.7,-0.4 1.5,-0.8 2.2,-1.2 0.9,0.3 1.7,0.6 2.6,0.9 0.4,-0.5 0.9,-1.1 1.3,-1.7 3,1.2 6.3,2.2 9.4,1 0.2,-2.1 0.8,-4.1 1.5,-6 3.1,0.3 6.2,0 9.4,0.2 0.5,-0.4 1.4,-1.1 1.9,-1.5 -0.3,1.7 -0.9,3.4 -1.8,4.9 -0.8,1.3 -1.5,2.7 -2.1,4 -1.2,0.7 -2.3,1.3 -3.4,1.9 -0.1,0.7 -0.2,1.5 -0.2,2.2 -0.6,0.1 -1.2,0.2 -1.8,0.2 -0.1,1.1 -0.3,2.1 -0.4,3.1 -1.9,-0.5 -4.1,-1.7 -5.9,-0.2 -2.8,1.4 -5.6,4.3 -8.9,3.1 -3,-2.5 -6,-5.1 -10,-6 -0.1,-1 -0.2,-1.9 -0.3,-2.9 -5.7,-0.6 -11.4,1.1 -17.1,0.5 -1.3,-1.7 -1.2,-4.9 -3.6,-5.4 -2.9,0.3 -5.7,0.9 -8.6,0.9 -0.2,-0.7 -0.6,-2.2 -0.8,-2.9 -0.3,-0.2 -0.9,-0.5 -1.3,-0.7 0.3,1.4 0.6,2.7 0.9,4.1 -2.6,-1 -5.5,-0.5 -7.9,-1.8 -1.8,-2.1 -3.1,-4.6 -5.2,-6.4 0.2,1.9 0.5,3.8 0.8,5.7 -3.3,-0.3 -8.2,0.2 -9.5,-3.8 -0.9,-1.9 1.8,-3 2.8,-4.2 -4.5,-1.2 -9.1,0 -13.7,-0.8 -3.1,-0.5 -6.2,0.4 -9.2,1 -0.1,-1.1 -0.2,-2.1 -0.3,-3.2 -1.8,-0.3 -3.6,-0.5 -5.4,-0.8 l 0,-0.9 c 0.1,-4.5 -1,-9.2 0.2,-13.6 3.8,-2.6 9.4,-2.5 11.7,-7 -1.2,-1 -2.5,-2 -3.8,-3 2.4,-0.3 4.8,-0.9 6.8,-2.5 -2.3,-0.9 -4.7,-1.4 -7,-0.3 -0.9,3.8 -4.7,4.7 -8,5.1 0.2,-2.1 0.4,-4.2 0.3,-6.4 1.7,-0.6 3.4,-1.4 5,-2.1 1.4,-3.1 1.9,-7.1 5.3,-8.6 0.6,0.2 1.7,0.5 2.3,0.7 -1,1.2 -2,2.5 -3.1,3.7 4.9,-0.6 8.3,-4.7 11.5,-8.1 z"
       inkscape:connector-curvature="0"
       id="path50"
       style="fill:#908657;stroke:#908657;stroke-width:0.09375;display:inline" />
    <path
       d="m 450.1,86.1 c 1.4,-0.8 3,-1.6 4.7,-1.9 -1.3,1.2 -2.7,2.4 -4,3.5 -0.2,-0.4 -0.6,-1.2 -0.7,-1.6 z"
       inkscape:connector-curvature="0"
       id="path60"
       style="fill:#908657;stroke:#908657;stroke-width:0.09375;display:inline" />
    <path
       d="m 443.1,96.6 c 1.4,-1.7 4.6,-1.5 4.1,1.4 -1.1,2.7 -2.9,-0.6 -4.1,-1.4 z"
       inkscape:connector-curvature="0"
       id="path80"
       style="fill:#908657;stroke:#908657;stroke-width:0.09375;display:inline" />
    <path
       d="m 412.4,97.6 c 4.5,-2.2 9.4,-0.5 14.1,0 0.3,0.4 1.1,1.2 1.4,1.7 -1,1.2 -2.2,2.3 -3.6,3.1 -2.1,-1.9 -4.3,-3.4 -7,-4.1 -0.8,1 -1.5,2 -2.3,3 -1.4,0.2 -2.6,0.5 -3.5,1.5 -1.5,-0.5 -2.9,-1 -4.4,-1.6 -0.2,-3.5 3.3,-2.4 5.3,-3.6 z"
       inkscape:connector-curvature="0"
       id="path82"
       style="fill:#908657;stroke:#908657;stroke-width:0.09375;display:inline" />
    <path
       d="m 414.8,106.9 c 1.2,-1.2 2.3,-2.3 3.5,-3.4 0.4,0.3 1.2,0.9 1.6,1.3 0.8,-0.3 1.5,-1.4 2.4,-1.1 0.4,1 0.7,2 1.1,3 -0.6,-0.1 -1.6,-0.3 -2.2,-0.4 -0.2,0.6 -0.5,1.7 -0.7,2.3 -2,-0.3 -4,-0.5 -5.7,-1.7 z"
       inkscape:connector-curvature="0"
       id="path86"
       style="fill:#908657;stroke:#908657;stroke-width:0.09375;display:inline" />
    <path
       d="m 446.6,113.5 c -0.3,-2.2 0.4,-3.5 2.9,-3.2 0,2.4 0,4.8 -0.1,7.2 -2.6,-1.2 -6.1,-2 -7.1,-5.1 1.5,0 3,0.3 4.3,1.1 z"
       inkscape:connector-curvature="0"
       id="path88"
       style="fill:#908657;stroke:#908657;stroke-width:0.09375;display:inline" />
    <path
       d="m 497.3,128.3 c 2.6,2.3 6,4.6 5.3,8.5 -1.4,1.2 -2.8,2.6 -4.2,3.9 -0.3,-4.1 -0.7,-8.3 -1.1,-12.4 z"
       inkscape:connector-curvature="0"
       id="path96"
       style="fill:#908657;stroke:#908657;stroke-width:0.09375;display:inline" />
    <path
       d="m 487.8,150.5 c 0.5,0.4 1.7,1.2 2.2,1.6 0.9,2 1.8,3.9 2.6,5.9 0.1,1.3 -1.3,1.5 -2,2 -0.5,1.4 -0.9,2.7 -1.4,4.1 -0.4,-3 -1.1,-5.9 -2.9,-8.2 0.5,-1.8 1,-3.6 1.5,-5.4 z"
       inkscape:connector-curvature="0"
       id="path106"
       style="fill:#908657;stroke:#908657;stroke-width:0.09375;display:inline" />
    <path
       d="m 486.8,163.1 c 2.9,1.4 5.6,3 8.2,4.7 2.1,-1.1 4.2,-2.1 6.2,-3.2 -0.9,1.4 -1.7,2.7 -2.7,4 -0.6,0.1 -1.9,0.3 -2.5,0.4 -1.6,3.1 -3.5,5.9 -6.4,7.9 -2.5,2.6 -6.5,0.6 -9.4,2.4 -0.3,-1.1 -0.5,-2.2 -0.8,-3.4 0.9,-1.1 1.8,-2.2 2.7,-3.3 0.4,-0.7 0.9,-1.3 1.3,-2 0.7,-0.9 1.4,-1.9 2,-2.8 1,0.4 1.9,0.8 2.8,1.3 -0.4,-2 -0.8,-4 -1.4,-6 m 2.4,10.1 c 0.5,0.5 0.5,0.5 0,0 z"
       inkscape:connector-curvature="0"
       id="path108"
       style="fill:#908657;stroke:#908657;stroke-width:0.09375;display:inline" />
  </g>
  <g
     id="layer13"
     style="display:inline">
    <path
       d="m 475.6,49.3 c 1.5,0.5 3.1,1.1 4.6,1.7 0.6,-0.8 1.2,-1.5 1.8,-2.3 0.8,1.4 2,2.4 3.3,3.4 0.1,3.1 0.5,6.3 1.3,9.4 l 1.2,0.3 0.9,0.3 c -4.6,1.6 -7.7,-3.1 -12.1,-2.8 -0.1,-1.2 -0.2,-2.5 -0.3,-3.7 -2.4,0 -4.7,0 -7.1,0 0.1,-1 0.2,-2.1 0.3,-3.1 1.4,0 2.7,0 4.1,0 0.7,-1.1 1.4,-2.2 2,-3.2 z"
       inkscape:connector-curvature="0"
       id="path24"
       style="fill:#b29e7f;stroke:#b29e7f;stroke-width:0.09375;display:inline" />
    <path
       d="m 459.5,52.5 c 3,0.5 5.9,1.3 8.8,2.1 -1.9,0.8 -4.6,0.6 -5.5,2.8 -1.1,0.1 -2.2,0.2 -3.3,0.2 0,-1.7 0,-3.4 0,-5.1 z"
       inkscape:connector-curvature="0"
       id="path26"
       style="fill:#b29e7f;stroke:#b29e7f;stroke-width:0.09375;display:inline" />
    <path
       d="m 470.1,66.5 c 4.4,-1.1 8.1,2.2 12.4,2 2,1.6 4.2,2.9 6.8,3.1 0.1,0.7 0.3,1.9 0.4,2.5 4,0.2 6.2,3.7 8.3,6.6 0.3,0 1.1,0.1 1.5,0.1 0,0.6 0,1.7 0,2.3 4.5,1.3 8.1,5.5 8.3,10.3 0.7,0 2.1,0.2 2.8,0.3 -0.1,1 -0.1,2.1 -0.2,3.1 -2.3,-1.5 -3.7,-3.8 -5.1,-6.2 -1,-1.6 -2.1,-3.2 -3.3,-4.7 -3.2,-1 -6.1,-3.1 -9.6,-2.5 0,-1.5 0,-3 0.1,-4.5 -0.7,-0.3 -2.1,-0.8 -2.8,-1.1 -3.4,0.2 -6.5,1.6 -8.7,4.3 2.6,1.8 5.3,3.4 8.6,3.6 -0.1,1.3 -0.1,2.6 -0.1,3.9 -0.9,-0.1 -1.8,-0.1 -2.7,-0.2 -0.3,-0.5 -0.8,-1.4 -1.1,-1.9 -1.1,-0.5 -2.2,-0.9 -3.3,-1.3 0,1.2 0.1,2.4 0.1,3.6 -1.3,-0.1 -2.6,-0.3 -3.9,-0.5 1.8,-3 2.5,-6.5 1.8,-10 -0.3,-2.7 0.6,-5.3 1.4,-7.8 -2.2,1.4 -4.4,3 -6.7,4.3 -2.9,-0.5 -5.5,-2 -7.9,-3.5 -0.4,-2.3 1.9,-3.9 2.9,-5.8 z"
       inkscape:connector-curvature="0"
       id="path46"
       style="fill:#b29e7f;stroke:#b29e7f;stroke-width:0.09375;display:inline" />
    <path
       d="m 416,79 c 4.7,-2.5 10.7,0.5 14.8,-3.3 0.3,0.6 0.7,1.7 0.9,2.3 -0.6,0.9 -1.3,1.9 -1.9,2.9 3.1,2.3 6.9,2.8 10.5,3.6 0.4,0.9 0.9,1.8 1.3,2.7 2.9,0.5 5.6,1.8 8.2,3.1 -0.6,0.2 -1.8,0.7 -2.4,0.9 0.9,0.6 1.8,1.2 2.7,1.8 -0.6,0.6 -1.3,1.2 -1.9,1.8 0.5,1 1,2 1.5,3 -1.3,1.8 -1.2,3.8 -0.1,5.7 2.1,-0.1 4.1,-0.1 6.2,-0.2 1.3,-1.4 2.6,-2.8 3.9,-4.2 3.9,0.8 7.7,1.8 11.7,1.3 2.4,2.7 4.2,6 7.3,8 -0.1,-2.1 -0.2,-4.3 -0.3,-6.4 -2.5,-2.3 -4.5,-5.7 -8.2,-6 0.2,-0.9 0.3,-1.8 0.5,-2.8 1.1,0.3 2.3,0.5 3.4,0.7 -1.7,-2.8 -5.8,-0.9 -8.6,-1.5 1.3,-2.4 4.1,-1.8 6.4,-2 1.6,0.1 3.1,0.2 4.7,0.3 0,0.6 0,1.9 0,2.5 -0.7,0.5 -2,1.3 -2.6,1.8 0.8,1.5 1.8,2.8 2.9,4.1 0.2,-1 0.4,-3 0.5,-4.1 0.5,0.1 1.5,0.2 1.9,0.3 2.5,5.4 5.2,10.7 8.8,15.4 2,2.6 1.1,6.4 3.5,8.7 1.8,1.9 3.1,4.1 3.3,6.7 0.8,0.8 1.6,1.5 2.4,2.2 0.4,4.1 0.8,8.3 1.1,12.4 1.4,-1.3 2.8,-2.7 4.2,-3.9 0.8,0.7 1.6,1.3 2.5,1.8 3.7,-1.1 7.2,-3 10.8,-4.5 -0.1,2.9 -0.3,5.9 -1.4,8.7 -1.5,4.3 -2.6,8.8 -5.1,12.7 -2.5,3.3 -6.1,5.5 -8.2,9.1 -2,1.1 -4.1,2.1 -6.2,3.2 -2.6,-1.7 -5.3,-3.3 -8.2,-4.7 -1.3,-2.5 -2.4,-5.1 -2.7,-7.9 0.8,0.2 1.5,0.4 2.2,0.7 1.8,2.3 2.5,5.2 2.9,8.2 0.5,-1.4 0.9,-2.7 1.4,-4.1 0.7,-0.5 2.1,-0.7 2,-2 -0.8,-2 -1.7,-3.9 -2.6,-5.9 0.4,-0.2 1,-0.5 1.4,-0.6 0.4,0.3 1.2,1 1.6,1.4 2.3,-0.4 4,-2 5.3,-3.8 -1.5,-0.3 -3.1,-0.5 -4.6,-0.8 -0.8,-2.4 -1.7,-4.7 -2.7,-7 0.6,0.1 1.9,0.3 2.5,0.4 -0.7,-1.2 -1.5,-2.4 -2.3,-3.6 0.3,-0.4 1,-1.2 1.3,-1.6 -0.5,-1.7 -0.9,-3.5 -1.3,-5.3 0.9,-1.5 1.5,-3.2 1.8,-4.9 -0.5,0.4 -1.4,1.1 -1.9,1.5 -3.2,-0.2 -6.3,0.1 -9.4,-0.2 -0.7,1.9 -1.3,3.9 -1.5,6 -3.1,1.2 -6.4,0.2 -9.4,-1 -0.4,0.6 -0.9,1.2 -1.3,1.7 -0.9,-0.3 -1.7,-0.6 -2.6,-0.9 -0.7,0.4 -1.5,0.8 -2.2,1.2 -0.2,-1.2 -0.3,-2.4 -0.7,-3.6 -3,-1.4 -6.2,-2.5 -9,-4.3 -2.7,1 -5.1,3.1 -8,3.4 -3,0 -6,-0.6 -9,-0.3 -5.8,1 -10.7,-3.1 -15.8,-5 1.7,-2 3.2,-4.2 4.7,-6.3 -1.1,-1.5 -2.2,-3 -3.3,-4.5 -2.5,3.7 -5.9,6.6 -9.9,8.4 -2.8,-0.1 -5.2,-1.7 -7.8,-2.7 0.7,0.1 2.1,0.1 2.8,0.2 -0.2,-2.2 -0.2,-4.5 -1.7,-6.2 -1.9,-1.4 -2.3,1.8 -3,2.8 -0.3,0 -0.9,0.1 -1.1,0.1 -0.4,-1 -0.7,-2 -1,-3 -0.9,-0.4 -1.7,-0.8 -2.5,-1.2 -1.4,2.8 -3.6,5.4 -6.8,6.1 -3.5,1.2 -6.4,-1.7 -8.6,-4 2.2,-1.5 4.1,-4.1 7,-4 3.2,-0.2 7.6,0.4 8.9,-3.5 -0.8,-1.1 -1.8,-2.2 -2.7,-3.2 2.7,-4.7 2.2,-10.8 6.5,-14.5 -1.1,-0.9 -2.2,-1.9 -3.3,-2.9 5.1,-2.7 10.3,-5.1 15.6,-7.4 m 3.9,3.5 c 1.2,-0.1 2.4,-0.1 3.6,-0.2 0.3,0.4 1,1.1 1.4,1.5 1.1,-0.7 2.2,-1.4 3.4,-2.1 -1.1,-0.1 -2.2,-0.2 -3.2,-0.3 -0.5,-1 -1.2,-1.7 -2.1,-2.2 -1.3,0.8 -2.2,2.1 -3.1,3.3 m 23.2,14.1 c 1.2,0.8 3,4.1 4.1,1.4 0.5,-2.9 -2.7,-3.1 -4.1,-1.4 m -30.7,1 c -2,1.2 -5.5,0.1 -5.3,3.6 1.5,0.6 2.9,1.1 4.4,1.6 0.9,-1 2.1,-1.3 3.5,-1.5 0.8,-1 1.5,-2 2.3,-3 2.7,0.7 4.9,2.2 7,4.1 1.4,-0.8 2.6,-1.9 3.6,-3.1 -0.3,-0.5 -1.1,-1.3 -1.4,-1.7 -4.7,-0.5 -9.6,-2.2 -14.1,0 m 2.4,9.3 c 1.7,1.2 3.7,1.4 5.7,1.7 0.2,-0.6 0.5,-1.7 0.7,-2.3 0.6,0.1 1.6,0.3 2.2,0.4 -0.4,-1 -0.7,-2 -1.1,-3 -0.9,-0.3 -1.6,0.8 -2.4,1.1 -0.4,-0.4 -1.2,-1 -1.6,-1.3 -1.2,1.1 -2.3,2.2 -3.5,3.4 m 31.8,6.6 c -1.3,-0.8 -2.8,-1.1 -4.3,-1.1 1,3.1 4.5,3.9 7.1,5.1 0.1,-2.4 0.1,-4.8 0.1,-7.2 -2.5,-0.3 -3.2,1 -2.9,3.2 z"
       inkscape:connector-curvature="0"
       id="path52"
       style="fill:#b29e7f;stroke:#b29e7f;stroke-width:0.09375;display:inline" />
    <path
       d="m 488.8,83.4 c -1.8,-0.2 -1.4,-3.1 0.2,-3.5 1.5,0.4 1.2,3.2 -0.2,3.5 z"
       inkscape:connector-curvature="0"
       id="path58"
       style="fill:#b29e7f;stroke:#b29e7f;stroke-width:0.09375;display:inline" />
    <path
       d="m 454.8,84.2 c 3,1.3 6.1,2.6 9.2,3.5 -0.5,1.3 -0.9,3.4 -2.9,2.6 -3.1,-0.3 -6.2,-1.1 -9.3,-1.7 l -1,-0.9 c 1.3,-1.1 2.7,-2.3 4,-3.5 z"
       inkscape:connector-curvature="0"
       id="path62"
       style="fill:#b29e7f;stroke:#b29e7f;stroke-width:0.09375;display:inline" />
    <path
       d="m 379.1,90.4 1.2,-0.2 c 0.1,2.2 -0.1,4.3 -0.3,6.4 3.3,-0.4 7.1,-1.3 8,-5.1 2.3,-1.1 4.7,-0.6 7,0.3 -2,1.6 -4.4,2.2 -6.8,2.5 1.3,1 2.6,2 3.8,3 -2.3,4.5 -7.9,4.4 -11.7,7 -1.2,4.4 -0.1,9.1 -0.2,13.6 -0.2,0.5 -0.6,1.4 -0.8,1.9 -0.5,-9.8 -0.2,-19.6 -0.2,-29.4 z"
       inkscape:connector-curvature="0"
       id="path70"
       style="fill:#b29e7f;stroke:#b29e7f;stroke-width:0.09375;display:inline" />
    <path
       d="m 484.1,89.4 c 1.6,1.1 3.1,2.2 4.7,3.3 2.6,-2.4 5.4,-0.2 7.6,1.5 -1.4,2.1 -1.1,4.7 -1,7 0.6,0.4 1.8,1.1 2.3,1.4 0.2,3.8 -2.4,7.2 -1.8,11 0.2,-0.8 0.6,-2.4 0.8,-3.2 0.8,-0.1 2.4,-0.1 3.1,-0.1 -0.3,2 -0.5,3.9 -0.8,5.9 1.4,0.3 2.9,0.4 4.3,0.6 -1.1,0.7 -2.2,1.5 -3.3,2.4 1.1,0 2.2,0.1 3.4,0.1 0.3,2 0.8,4 1.1,6 0.9,0.8 1.7,1.7 2.6,2.5 0.8,-0.5 1.6,-1.1 2.5,-1.6 0.3,-1.6 0.7,-3.2 1.1,-4.8 -0.9,0 -2.6,0.1 -3.4,0.1 0,-0.5 0.2,-1.5 0.3,-2 0.5,0 1.5,-0.1 2,-0.1 1.5,2.3 3.2,4.5 4.3,7 -3,3 -6.8,4.8 -10.2,7.4 -1.4,-3.3 -2.2,-6.9 -3.1,-10.3 -1.6,-4.3 -4.8,-7.7 -7.9,-10.9 -0.1,-1.3 -0.1,-2.5 -0.2,-3.7 -4.3,-5 -8,-10.3 -11.8,-15.6 0,-0.4 0,-1.3 0,-1.7 1.5,-0.1 3,-0.5 3.4,-2.2 m 4.1,6.9 c 0,0.7 0,1.9 -0.1,2.5 1.8,-0.1 3.6,-0.3 5.3,-0.5 -1.3,-1.7 -3.3,-2 -5.2,-2 z"
       inkscape:connector-curvature="0"
       id="path72"
       style="fill:#b29e7f;stroke:#b29e7f;stroke-width:0.09375;display:inline" />
    <path
       d="m 498.7,99.3 c -0.2,-2.5 -1,-5.8 1.6,-7.3 0,0.8 0.1,2.3 0.2,3.1 1.1,3 4.4,4.7 4.3,8.1 -0.5,-0.9 -0.9,-1.9 -1.4,-2.8 -1.6,-0.2 -3.8,0.7 -4.7,-1.1 z"
       inkscape:connector-curvature="0"
       id="path76"
       style="fill:#b29e7f;stroke:#b29e7f;stroke-width:0.09375;display:inline" />
    <path
       d="m 452.3,96.4 c 0.2,-1.5 0.3,-2.9 0.4,-4.4 1.9,1.6 3.7,3.4 5.3,5.2 -1.8,2.4 -4.3,1.2 -5.7,-0.8 z"
       inkscape:connector-curvature="0"
       id="path78"
       style="fill:#b29e7f;stroke:#b29e7f;stroke-width:0.09375;display:inline" />
  </g>
  <g
     id="layer7"
     style="display:inline">
    <path
       d="m 574.9375,37.53125 c 5.52032,1.21087 11.03183,2.558474 16.3125,4.71875 4,1.625 7.25,4.625 11,6.875 4.25,2.375 6.625,6.875 9.625,10.625 -0.125,1 -0.125,1.875 -0.25,2.875 C 611.125,62 610,61 609.5,60.375 c -2.375,0.125 -4.75,0.25 -7,0.5 1,1.75 2.5,3 4.125,4.25 0.125,3.875 0.625,7.875 1.625,11.75 l 1.5,0.375 c -0.125,-1.375 -0.25,-4 -0.375,-5.375 2.125,0 4.375,-0.125 6.5,-0.25 -0.125,2 -0.25,3.875 -0.375,5.875 3,2.25 6.125,4.5 9.25,6.5 -0.125,0.625 -0.5,1.75 -0.75,2.375 2.875,3.25 5.75,6.625 7.125,10.875 -3.125,-0.75 -6.25,-1.75 -9.25,-3.125 -0.625,-1.875 -1.125,-3.875 -1.5,-5.875 -1.375,0.125 -2.875,0.125 -4.25,0.125 -0.25,-0.625 -0.625,-1.75 -0.875,-2.375 -1.375,-0.25 -2.625,-0.5 -4,-0.75 l -2.125,-2.125 C 608,83.25 606.875,83.5 605.75,83.75 l 0,2 -2.625,-0.125 c 2.5,2 5.25,3.625 8.5,3.875 0.125,0.875 0.375,2.375 0.5,3.125 5,0.25 7.75,4.625 10.375,8.25 0.375,0 1.375,0.125 1.875,0.125 l 0,2.875 c 5.625,1.625 10.125,6.875 10.375,12.875 0.875,0 2.625,0.25 3.5,0.375 -0.125,1.25 -0.125,2.625 -0.25,3.875 2.375,1.75 5.125,3.125 7.375,0.125 l 1.875,4.5 c 3.5,0.125 6.875,0.125 10.375,-0.25 L 661.75,131 c 0.125,0.625 0.375,2 0.5,2.625 1.5,1.5 3.5,2.75 4.25,4.75 3,9.875 4.75,20 7.25,30 -1,-23.125 -5.625,-46.375 -16.625,-67 C 642.875,74.25 620,51.625 592.25,38.5 c -0.93436,-0.436034 -1.90441,-0.739748 -2.875,-0.96875 l -14.4375,0 z"
       inkscape:connector-curvature="0"
       transform="scale(0.8,0.8)"
       id="path14"
       style="fill:#ffffff;stroke:#ffffff;stroke-width:0.1171875;display:inline" />
    <path
       d="m 481,82.100004 c 2.2,-2.7 5.3,-4.1 8.7,-4.3 0.7,0.3 2.1,0.8 2.8,1.1 -0.1,1.5 -0.1,3 -0.1,4.5 3.5,-0.6 6.4,1.5 9.6,2.5 1.2,1.5 2.3,3.1 3.3,4.7 -0.8,0.1 -2.4,0.1 -3.2,0.1 0.3,0.3 0.7,0.8 1,1.1 1.4,5.3 6.7,7.8 8.8,12.599996 2.8,0.8 3,-2.6 4.2,-4.2 0.6,1.4 1.1,2.8 1.8,4.2 0.5,0.1 1.6,0.2 2.2,0.3 0.7,1.1 1.5,2.1 2.2,3.2 -0.5,2.8 -0.7,5.6 -1.1,8.4 -0.8,2.8 -3.2,4.6 -5.1,6.6 -0.6,1.2 -1.3,2.4 -2.2,3.5 -1.1,-2.5 -2.8,-4.7 -4.3,-7 -0.5,0 -1.5,0.1 -2,0.1 -0.1,0.5 -0.3,1.5 -0.3,2 0.8,0 2.5,-0.1 3.4,-0.1 -0.4,1.6 -0.8,3.2 -1.1,4.8 -0.9,0.5 -1.7,1.1 -2.5,1.6 -0.9,-0.8 -1.7,-1.7 -2.6,-2.5 -0.3,-2 -0.8,-4 -1.1,-6 -1.2,0 -2.3,-0.1 -3.4,-0.1 1.1,-0.9 2.2,-1.7 3.3,-2.4 -1.4,-0.2 -2.9,-0.3 -4.3,-0.6 0.3,-2 0.5,-3.9 0.8,-5.9 -0.7,0 -2.3,0 -3.1,0.1 -0.2,0.8 -0.6,2.4 -0.8,3.2 -0.6,-3.8 2,-7.2 1.8,-11 -0.5,-0.3 -1.7,-1 -2.3,-1.4 -0.1,-2.299996 -0.4,-4.899996 1,-6.999996 -2.2,-1.7 -5,-3.9 -7.6,-1.5 -1.6,-1.1 -3.1,-2.2 -4.7,-3.3 -0.4,1.7 -1.9,2.1 -3.4,2.2 0,0.4 0,1.3 0,1.7 0,0.7 0,2.1 0,2.8 -1.2,-1.6 -2.4,-3.2 -3.5,-4.9 0.1,1.3 0.2,2.6 0.2,3.8 -0.1,1.1 -0.3,3.1 -0.5,4.1 -1.1,-1.3 -2.1,-2.6 -2.9,-4.1 0.6,-0.5 1.9,-1.3 2.6,-1.8 0,-0.6 0,-1.9 0,-2.5 0,-0.5 0,-1.4 0,-1.8 0.5,0.1 1.5,0.3 2,0.4 1.3,0.2 2.6,0.4 3.9,0.5 0,-1.2 -0.1,-2.4 -0.1,-3.6 1.1,0.4 2.2,0.8 3.3,1.3 0.3,0.5 0.8,1.4 1.1,1.9 0.9,0.1 1.8,0.1 2.7,0.2 0,-1.3 0,-2.6 0.1,-3.9 -3.3,-0.2 -6,-1.8 -8.6,-3.6 m 7.8,1.3 c 1.4,-0.3 1.7,-3.1 0.2,-3.5 -1.6,0.4 -2,3.3 -0.2,3.5 m 9.9,15.9 C 499.6,101.1 501.8,100.2 503.4,100.4 c 0.5,0.9 0.9,1.9 1.4,2.8 0.1,-3.399996 -3.2,-5.099996 -4.3,-8.099996 -0.1,-0.8 -0.2,-2.3 -0.2,-3.1 -2.6,1.5 -1.8,4.8 -1.6,7.3 z"
       inkscape:connector-curvature="0"
       id="path54"
       style="fill:#ffffff;stroke:#ffffff;stroke-width:0.09375;display:inline" />
    <path
       d="m 419.9,82.500004 c 0.9,-1.2 1.8,-2.5 3.1,-3.3 0.9,0.5 1.6,1.2 2.1,2.2 1,0.1 2.1,0.2 3.2,0.3 -1.2,0.7 -2.3,1.4 -3.4,2.1 -0.4,-0.4 -1.1,-1.1 -1.4,-1.5 -1.2,0.1 -2.4,0.1 -3.6,0.2 z"
       inkscape:connector-curvature="0"
       id="path56"
       style="fill:#ffffff;stroke:#ffffff;stroke-width:0.09375;display:inline" />
    <path
       d="m 464,87.700004 c 1.8,0.6 3.7,1.2 5.4,1.8 0.7,0.2 1.9,0.6 2.5,0.9 -2.3,0.2 -5.1,-0.4 -6.4,2 2.8,0.6 6.9,-1.3 8.6,1.5 -1.1,-0.2 -2.3,-0.4 -3.4,-0.7 -0.2,1 -0.3,1.9 -0.5,2.8 3.7,0.3 5.7,3.7 8.2,5.999996 0.1,2.1 0.2,4.3 0.3,6.4 -3.1,-2 -4.9,-5.3 -7.3,-8 -4,0.5 -7.8,-0.499996 -11.7,-1.299996 C 458.4,100.5 457.1,101.9 455.8,103.3 c -2.1,0.1 -4.1,0.1 -6.2,0.2 -1.1,-1.9 -1.2,-3.899996 0.1,-5.699996 -0.5,-1 -1,-2 -1.5,-3 0.6,-0.6 1.3,-1.2 1.9,-1.8 -0.9,-0.6 -1.8,-1.2 -2.7,-1.8 0.6,-0.2 1.8,-0.7 2.4,-0.9 0.5,-0.4 1.5,-1.3 2,-1.7 3.1,0.6 6.2,1.4 9.3,1.7 2,0.8 2.4,-1.3 2.9,-2.6 m -11.7,8.7 c 1.4,2 3.9,3.2 5.7,0.8 -1.6,-1.8 -3.4,-3.6 -5.3,-5.2 -0.1,1.5 -0.2,2.9 -0.4,4.4 z"
       inkscape:connector-curvature="0"
       id="path64"
       style="fill:#ffffff;stroke:#ffffff;stroke-width:0.09375;display:inline" />
    <path
       d="m 488.2,96.300004 c 1.9,0 3.9,0.3 5.2,2 -1.7,0.2 -3.5,0.4 -5.3,0.5 0.1,-0.6 0.1,-1.8 0.1,-2.5 z"
       inkscape:connector-curvature="0"
       id="path84"
       style="fill:#ffffff;stroke:#ffffff;stroke-width:0.09375;display:inline" />
  </g>
  <g
     id="layer2"
     style="display:inline">
    <path
       d="m 82.9,83.899996 c 10.3,-9.9 24.1,-15.9 38.2,-17.3 10.1,-1.2 20.2,-0.5 30.2,-0.7 0.1,5.5 0.1,11 0,16.5 -7.8,0.2 -15.6,-0.1 -23.4,0.1 -14.5,-0.3 -29.3,6.5 -37.9,18.500004 -10.6,14.4 -12.6,35.6 -3.9,51.8 4.1,8.5 11.1,15.5 19.5,19.6 3,1.6 6.3,2.4 9.4,3.7 3.6,0.6 7.2,1.6 11,1.5 14,0.1 28,0 42,0 3,0.3 5.4,-1.8 7.3,-3.9 1.9,-3.6 1.1,-7.8 1.2,-11.7 0.1,-24.4 0,-48.8 0.1,-73.200004 l 0,-0.8 c 0.7,-0.4 2,-1.1 2.6,-1.4 1.4,0.5 3,0.9 3.6,2.4 C 196.7,111.6 210.7,134 224.6,156.5 c 4.6,6.8 8.1,14.3 13.7,20.4 1.1,0.7 2.4,1 3.7,1.4 2.6,-0.7 5.4,-2.5 6.1,-5.4 0.8,-2.9 0.4,-5.9 0.5,-8.9 0,-23.7 0,-47.3 0,-71.000004 0,-1.8 -0.1,-3.8 1.1,-5.4 1.3,-0.7 2.9,-0.3 4.3,-0.5 C 271.6,115.2 288.8,143.4 306.4,171.5 c 1.7,2.9 3.9,6 7.5,6.7 3.8,-0.1 7.2,-3.3 7.2,-7.1 0,-35.1 0,-70.1 0,-105.200004 5.6,0 11.1,0 16.7,0 0,35.400004 0,70.700004 0,106.100004 0,2 -0.5,4 -0.9,6 -0.5,8.4 -7.7,15.7 -15.8,17.3 -10.6,2.8 -22,-2.8 -27.8,-11.7 -7.7,-12.6 -15.2,-25.2 -22.9,-37.8 -1.6,-3 -3.3,-6.1 -5.8,-8.6 0.3,12.6 0.2,25.2 0.2,37.8 0,8.2 -5.1,16.1 -12.6,19.3 -11.4,4.7 -25.1,-0.7 -31.4,-10.9 -9,-14.6 -17.8,-29.4 -26.6,-44.2 -0.4,0 -1.2,0 -1.7,-0.1 0.3,10 0.1,19.9 0.1,29.9 0.1,6.8 -1.4,14.2 -6.7,18.9 -4.5,4.8 -11.4,6.5 -17.8,6.5 -13.4,-0.1 -26.7,0.1 -40.1,-0.1 C 112,193.8 95.9,187.9 84.1,176.9 71.2,164.6 64.1,146.7 64.4,129 64.5,112.4 70.9,95.599996 82.9,83.899996 z"
       inkscape:connector-curvature="0"
       id="path42"
       style="fill:#d81921;stroke:#d81921;stroke-width:0.09375" />
    <path
       d="m 164,70.999996 c 5.6,-5.4 14.3,-6.5 21.5,-4.4 6.7,2.1 12.1,7.2 15.8,13 9.3,15.3 17.8,31.000004 27.1,46.200004 -0.1,-12.3 0,-24.6 -0.1,-36.800004 0,-9 5.3,-18.2 13.8,-21.6 4.3,-2.1 9.3,-2 13.9,-1.3 8.5,1.8 14.8,8.6 19.1,15.8 8.6,14.7 17.2,29.400004 25.8,44.100004 0.5,-20 0.1,-40.100004 0.2,-60.100004 5.6,-0.1 11.1,0 16.7,0 0,34 0,68.100004 0,102.100004 0,2.2 -0.9,4.1 -1.6,6.1 -0.8,0 -2.5,0.1 -3.3,0.1 -5.4,-7.2 -9.6,-15.1 -14.5,-22.6 -13.5,-21.6 -26.8,-43.3 -40.3,-64.800004 -1.8,-3.5 -6.6,-4.7 -9.9,-2.6 -2.8,1.5 -3.3,5 -3.6,7.8 C 244.4,119.1 244.9,146.2 244.4,173.3 c -2,1.2 -4.5,1.2 -5.6,-1.1 -17.7,-28.3 -35.2,-56.7 -52.8,-85.000004 -1.3,-2.6 -4,-4.3 -7,-4 -4,-0.1 -6.7,4.1 -6.8,7.8 0.1,25.700004 0,51.400004 0,77.000004 0.1,1.8 -0.4,3.5 -1,5.2 -2,0.5 -4.1,1 -6.2,1 -11.7,-0.1 -23.4,-0.1 -35.1,0 -12.5,-0.1 -25.6,-4.3 -34.2,-13.8 -9,-9.7 -12.6,-23.5 -10.9,-36.5 1.3,-9.5 5.5,-18.9 12.5,-25.600004 7,-7.3 17,-11.3 27,-11.9 9,-0.3 18,0.2 27,-0.4 0.1,5.6 0.1,11.2 0.1,16.800004 -7.2,-0.1 -14.3,0 -21.4,-0.1 -7.6,-0.4 -15.4,2.3 -20.8,7.6 -10.4,9.7 -11.5,27.7 -1.6,38.2 5.2,5.6 12.9,8.4 20.4,9 8.5,0.1 17,0.1 25.5,0 0.7,-0.6 1.4,-1.2 2.1,-1.8 0.1,-21.9 0,-43.8 0.1,-65.700004 0.2,-7.1 2.7,-14.4 8.3,-19 z"
       inkscape:connector-curvature="0"
       id="path44"
       style="fill:#d81921;stroke:#d81921;stroke-width:0.09375" />
  </g>
</svg>
