<?xml version="1.0" encoding="UTF-8" standalone="no"?>
<!-- Created with Inkscape (http://www.inkscape.org/) -->
<svg
   xmlns:dc="http://purl.org/dc/elements/1.1/"
   xmlns:cc="http://web.resource.org/cc/"
   xmlns:rdf="http://www.w3.org/1999/02/22-rdf-syntax-ns#"
   xmlns:svg="http://www.w3.org/2000/svg"
   xmlns="http://www.w3.org/2000/svg"
   xmlns:xlink="http://www.w3.org/1999/xlink"
   xmlns:sodipodi="http://sodipodi.sourceforge.net/DTD/sodipodi-0.dtd"
   xmlns:inkscape="http://www.inkscape.org/namespaces/inkscape"
   width="135"
   height="25.000004"
   id="svg2"
   sodipodi:version="0.32"
   inkscape:version="0.45.1"
   version="1.0"
   inkscape:output_extension="org.inkscape.output.svg.inkscape">
  <sodipodi:namedview
     id="base"
     pagecolor="#ffffff"
     bordercolor="#666666"
     borderopacity="1.0"
     gridtolerance="10000"
     guidetolerance="10"
     objecttolerance="10"
     inkscape:pageopacity="0.0"
     inkscape:pageshadow="2"
     inkscape:zoom="4.982292"
     inkscape:cx="67.450421"
     inkscape:cy="12.333791"
     inkscape:document-units="px"
     inkscape:current-layer="layer1"
     showgrid="false"
     width="135px"
     height="25.000004px"
     inkscape:window-width="784"
     inkscape:window-height="575"
     inkscape:window-x="-19"
     inkscape:window-y="54" />
  <metadata
     id="metadata7">
    <rdf:RDF>
      <cc:Work
         rdf:about="">
        <dc:format>image/svg+xml</dc:format>
        <dc:type
           rdf:resource="http://purl.org/dc/dcmitype/StillImage" />
      </cc:Work>
    </rdf:RDF>
  </metadata>
  <g
     inkscape:label="Layer 1"
     inkscape:groupmode="layer"
     id="layer1"
     transform="translate(-16.329786,-964.15598)">
    <g
       id="g3710"
       clip-path="url(#id207)"
       transform="matrix(3.463084,0,0,-3.463084,-891.58163,2793.7881)">
      <g
         id="g3712"
         transform="translate(266.5141,526.0789)">
        <path
           id="path3714"
           d="M 0,0 L -2.262,0.002 C -2.262,-0.312 -2.262,-0.606 -2.262,-0.903 L -0.452,-0.905 C -0.453,-1.271 -0.453,-2.292 -0.454,-2.675 L -2.228,-2.657 L -2.229,-4.866 L -4.105,-4.864 L -4.1,1.775 L -0.139,1.773 L 0,0"
           style="fill:#7a7879;fill-rule:nonzero;stroke:none" />
      </g>
      <g
         id="g3716"
         transform="translate(273.9554,527.8459)">
        <path
           id="path3718"
           d="M 0,0 L 0.796,-1.391 L 1.587,0.004 C 1.587,0.004 2.926,-0.013 3.611,-0.002 L 1.802,-3.186 L 3.762,-6.645 L 1.678,-6.644 L 0.758,-4.973 L -0.164,-6.642 L -2.216,-6.64 L -0.214,-3.185 L -2.089,0.002 L 0,0"
           style="fill:#7a7879;fill-rule:nonzero;stroke:none" />
      </g>
      <g
         id="g3720"
         transform="translate(272.1784,526.4236)">
        <path
           id="path3722"
           d="M 0,0 C 0.56,-0.795 0.745,-1.914 0.45,-2.887 C 0.106,-4.052 -1.07,-5.044 -2.298,-5.11 C -3.503,-5.207 -4.507,-4.666 -5.217,-3.716 C -5.846,-2.841 -5.954,-1.319 -5.386,-0.38 C -4.851,0.676 -3.769,1.294 -2.642,1.355 C -1.591,1.312 -0.643,0.885 0,0 M -2.035,-0.451 C -2.034,-0.222 -2.244,-0.037 -2.505,-0.037 L -2.603,-0.037 C -2.866,-0.037 -3.078,-0.222 -3.078,-0.451 L -3.08,-3.303 C -3.08,-3.531 -2.868,-3.718 -2.606,-3.719 L -2.508,-3.719 C -2.247,-3.719 -2.037,-3.532 -2.036,-3.303 L -2.035,-0.451"
           style="fill:#7a7879;fill-rule:nonzero;stroke:none" />
      </g>
      <g
         id="g3724"
         transform="translate(282.4298,527.5084)">
        <path
           id="path3726"
           d="M 0,0 L -0.001,-1.151 C -0.56,-0.678 -1.143,-0.442 -1.743,-0.441 C -2.402,-0.44 -2.962,-0.679 -3.414,-1.153 C -3.871,-1.626 -4.099,-2.207 -4.099,-2.891 C -4.099,-3.566 -3.872,-4.136 -3.417,-4.601 C -2.959,-5.064 -2.404,-5.3 -1.743,-5.3 C -1.399,-5.301 -1.107,-5.243 -0.869,-5.131 C -0.737,-5.075 -0.598,-5.001 -0.456,-4.907 C -0.314,-4.812 -0.161,-4.699 -0.003,-4.565 L -0.004,-5.741 C -0.56,-6.054 -1.143,-6.212 -1.756,-6.212 C -2.676,-6.211 -3.458,-5.888 -4.108,-5.247 C -4.757,-4.598 -5.079,-3.815 -5.078,-2.901 C -5.078,-2.082 -4.807,-1.349 -4.264,-0.707 C -3.597,0.082 -2.733,0.474 -1.676,0.473 C -1.096,0.472 -0.539,0.313 0,0"
           style="fill:#d72f2d;fill-rule:nonzero;stroke:none" />
      </g>
      <g
         id="g3728"
         transform="translate(285.2798,524.153)">
        <path
           id="path3730"
           d="M 0,0 L 1.997,-2.744 L 0.807,-2.743 L -1.042,-0.11 L -1.217,-0.109 L -1.219,-2.742 L -2.186,-2.741 L -2.181,3.694 L -1.039,3.693 C -0.187,3.693 0.431,3.532 0.807,3.214 C 1.228,2.857 1.434,2.386 1.433,1.802 C 1.433,1.346 1.301,0.955 1.039,0.628 C 0.777,0.302 0.43,0.09 0,0 M -1.216,0.737 L -0.909,0.737 C 0.018,0.736 0.481,1.088 0.481,1.791 C 0.481,2.451 0.031,2.779 -0.869,2.779 L -1.215,2.78 L -1.216,0.737"
           style="fill:#d72f2d;fill-rule:nonzero;stroke:none" />
      </g>
      <g
         id="g3732"
         transform="translate(288.8662,527.8431)">
        <path
           id="path3734"
           d="M 0,0 L -0.005,-6.435 L -0.973,-6.435 L -0.969,0.001 L 0,0 z "
           style="fill:#d72f2d;fill-rule:nonzero;stroke:none" />
      </g>
      <g
         id="g3736"
         transform="translate(289.6383,521.4075)">
        <path
           id="path3738"
           d="M 0,0 L 1.36,6.917 L 3.567,1.913 L 5.858,6.913 L 7.07,-0.005 L 6.074,-0.004 L 5.457,3.882 L 3.55,-0.302 L 1.699,3.887 L 1.003,-0.001 L 0,0 z "
           style="fill:#d72f2d;fill-rule:nonzero;stroke:none" />
      </g>
      <g
         id="g3740"
         transform="translate(300.8613,526.9205)">
        <path
           id="path3742"
           d="M 0,0 L -2.581,0.002 L -2.583,-1.537 L -0.496,-1.539 L -0.497,-2.453 L -2.583,-2.451 L -2.585,-4.607 L -0.003,-4.609 L -0.004,-5.521 L -3.553,-5.519 L -3.548,0.917 L 0.001,0.914 L 0,0 z "
           style="fill:#d72f2d;fill-rule:nonzero;stroke:none" />
      </g>
    </g>
  </g>
</svg>
