<?xml version="1.0" encoding="UTF-8" standalone="no"?>
<svg
   xmlns:dc="http://purl.org/dc/elements/1.1/"
   xmlns:cc="http://creativecommons.org/ns#"
   xmlns:rdf="http://www.w3.org/1999/02/22-rdf-syntax-ns#"
   xmlns:svg="http://www.w3.org/2000/svg"
   xmlns="http://www.w3.org/2000/svg"
   version="1.1"
   id="svg107275"
   viewBox="0 0 640 201.78799"
   height="56.949055mm"
   width="180.62222mm">
  <defs
     id="defs107277" />
  <metadata
     id="metadata107280">
    <rdf:RDF>
      <cc:Work
         rdf:about="">
        <dc:format>image/svg+xml</dc:format>
        <dc:type
           rdf:resource="http://purl.org/dc/dcmitype/StillImage" />
        <dc:title></dc:title>
      </cc:Work>
    </rdf:RDF>
  </metadata>
  <g
     transform="translate(-25.714289,-100.03966)"
     id="layer1">
    <g
       id="g107156"
       transform="matrix(1.8434609,0,0,1.882958,-270.52962,-605.3364)">
      <path
         id="path40330"
         style="fill:#0daa4c;fill-opacity:1;fill-rule:nonzero;stroke:none"
         d="m 192.66749,405.63649 -17.65184,-0.01 0,7.0415 14.13109,0.01 c 0,2.857 -0.0192,10.83159 -0.0192,13.81364 l -13.81364,-0.15391 -0.0289,17.22858 -14.58321,-0.01 0,-51.75307 30.88831,0.0289 1.07739,13.80403 z" />
      <path
         id="path40334"
         style="fill:#0daa4c;fill-opacity:1;fill-rule:nonzero;stroke:none"
         d="m 250.63862,391.87383 6.23346,10.81235 6.16611,-10.84121 c 0,0 10.40834,0.13467 15.77603,0.0481 l -14.13109,24.80877 15.2662,26.95392 -16.21853,-0.0289 -7.17617,-13.0056 -7.18579,12.99598 -15.99728,0 15.6125,-26.92506 -14.60245,-24.82801 16.25701,0.01 z" />
      <path
         id="path40338"
         style="fill:#0daa4c;fill-opacity:1;fill-rule:nonzero;stroke:none"
         d="m 236.81055,402.94014 c 4.36727,6.21422 5.8102,14.92951 3.50151,22.5097 -2.68385,9.08084 -11.85126,16.82456 -21.42269,17.33439 -9.37905,0.75033 -17.20934,-3.47265 -22.72134,-10.87006 -4.93481,-6.82025 -5.74286,-18.69075 -1.32749,-25.98236 4.1364,-8.25355 12.58234,-13.07294 21.36498,-13.54429 8.21507,0.33668 15.59325,3.66504 20.60503,10.55262 m -15.85299,3.52075 c 0,-1.75076 -1.65456,-3.21293 -3.66504,-3.21293 l -0.75994,0 c -2.05858,0 -3.71314,1.45255 -3.71314,3.21293 l -0.0289,22.23073 c 0,1.77 1.65456,3.23216 3.72276,3.23216 l 0.75032,0 c 2.03934,0 3.66505,-1.45254 3.6939,-3.23216 l 0,-22.23073 z" />
      <path
         id="path40342"
         style="fill:#000000;fill-opacity:1;fill-rule:nonzero;stroke:none"
         d="m 289.68911,401.30578 c 1.6257,-5.12721 5.42542,-7.8303 11.01436,-7.8303 6.57976,0 10.84121,3.96325 11.72621,10.91817 0.0866,0.4906 -0.0962,0.86576 -0.58679,1.07739 l -2.79929,0.55793 c -0.58679,0.22125 -1.07738,-0.0866 -1.16396,-0.64451 -0.77918,-5.24264 -3.16482,-7.36856 -7.17617,-7.36856 -2.9051,0 -5.3196,1.3275 -6.48356,4.72319 -0.54831,2.14516 -0.8369,3.28988 -0.8369,14.63131 0,11.30294 0.28859,12.48615 0.8369,14.60244 1.16396,3.38608 3.57846,4.74243 6.48356,4.74243 4.01135,0 6.39699,-2.14515 7.17617,-7.34932 0.0866,-0.58679 0.57717,-0.885 1.16396,-0.69261 l 2.79929,0.57718 c 0.49059,0.20201 0.67337,0.60603 0.58679,1.087 -0.885,6.95492 -5.14645,10.92779 -11.72621,10.92779 -5.58894,0 -9.38866,-2.70309 -11.01436,-7.8303 -0.89462,-2.71271 -1.05815,-4.06906 -1.05815,-16.06461 0,-11.98594 0.16353,-13.36153 1.05815,-16.06462" />
      <path
         id="path40346"
         style="fill:#000000;fill-opacity:1;fill-rule:nonzero;stroke:none"
         d="m 340.37056,402.85549 c -1.03891,-3.28988 -3.47265,-4.83862 -6.86834,-4.83862 -3.38608,0 -5.80058,1.54874 -6.85873,4.83862 -0.67337,2.02972 -0.7888,3.56885 -0.7888,14.41006 0,10.94702 0.11543,12.48615 0.7888,14.51587 1.05815,3.28988 3.47265,4.83862 6.85873,4.83862 3.39569,0 5.82943,-1.54874 6.86834,-4.83862 0.69261,-2.02972 0.7888,-3.56885 0.7888,-14.51587 0,-10.84121 -0.0962,-12.38034 -0.7888,-14.41006 m 4.55966,30.3881 c -1.63532,5.2234 -5.8102,7.91687 -11.428,7.91687 -5.57933,0 -9.77345,-2.69347 -11.40877,-7.91687 -0.75994,-2.61652 -0.98119,-4.46347 -0.98119,-15.97804 0,-11.42801 0.22125,-13.25572 0.98119,-15.87223 1.63532,-5.21378 5.82944,-7.92649 11.40877,-7.92649 5.6178,0 9.79268,2.71271 11.428,7.92649 0.75032,2.61651 0.97157,4.44422 0.97157,15.87223 0,11.51457 -0.22125,13.36152 -0.97157,15.97804" />
      <path
         id="path40350"
         style="fill:#000000;fill-opacity:1;fill-rule:nonzero;stroke:none"
         d="m 397.65583,440.38512 c -0.58679,0 -0.98119,-0.3944 -0.98119,-0.96195 l 0,-31.14804 c 0,-6.88759 -2.4145,-10.25442 -7.53209,-10.25442 -4.45385,0 -7.26275,3.28988 -7.34933,9.96583 l 0,31.43663 c 0,0.56755 -0.3944,0.96195 -0.96195,0.96195 l -2.82814,0 c -0.56755,0 -0.95233,-0.3944 -0.95233,-0.96195 l 0,-31.14804 c 0,-6.68558 -2.25097,-10.25442 -7.45514,-10.25442 -4.55966,0 -7.45514,3.28988 -7.45514,10.25442 l 0,31.14804 c 0,0.56755 -0.38478,0.96195 -0.98119,0.96195 l -2.7608,0 c -0.60603,0 -0.9812,-0.3944 -0.9812,-0.96195 l 0,-44.22098 c 0,-0.5868 0.37517,-0.96196 0.9812,-0.96196 l 2.7608,0 c 0.59641,0 0.98119,0.37516 0.98119,0.96196 l 0,3.79971 0.10582,0 c 1.24092,-3.01091 3.94401,-5.53123 8.78263,-5.53123 4.75205,0 7.95535,2.02972 9.5041,6.09878 l 0.0962,0 c 1.55837,-3.57846 4.93482,-6.09878 9.65801,-6.09878 7.45514,0 11.12018,4.55004 11.12018,14.01566 l 0,31.93684 c 0,0.56755 -0.35593,0.96195 -0.92348,0.96195 l -2.82814,0 z" />
      <path
         id="path40354"
         style="fill:#000000;fill-opacity:1;fill-rule:nonzero;stroke:none"
         d="m 432.1784,413.49854 c 0,-7.55133 -0.38478,-9.37904 -0.86576,-10.75463 -1.06777,-3.17445 -3.36683,-4.82901 -6.58938,-4.82901 -3.16482,0 -5.51199,1.65456 -6.56052,4.82901 -0.49059,1.37559 -0.86575,3.2033 -0.86575,10.75463 0,0.36554 0.19239,0.56755 0.56755,0.56755 l 13.73669,0 c 0.3944,0 0.57717,-0.20201 0.57717,-0.56755 m 3.78048,4.829 -18.09434,0 c -0.37516,0 -0.56755,0.20201 -0.56755,0.57718 0,9.49447 0.37516,11.3318 0.86575,12.98636 1.04853,3.17445 3.3957,4.72319 6.48357,4.72319 3.95362,0 6.17574,-1.84695 7.47437,-6.37775 0.16353,-0.68298 0.54832,-0.86576 1.13511,-0.68298 l 2.60689,0.56755 c 0.4906,0.11543 0.76956,0.48097 0.59641,1.20244 -1.34673,6.46432 -5.53123,9.84078 -11.90898,9.84078 -5.43503,0 -9.27322,-2.69347 -10.91816,-7.8303 -0.71185,-1.95276 -1.08701,-4.27107 -1.08701,-15.96842 0,-11.71659 0.37516,-14.03489 1.08701,-16.06461 1.64494,-5.11759 5.48313,-7.8303 11.09131,-7.8303 5.63705,0 9.48486,2.71271 11.13942,7.8303 0.67337,2.02972 1.05815,4.34802 1.05815,16.06461 0,0.59641 -0.38478,0.96195 -0.96195,0.96195" />
      <path
         id="path40358"
         style="fill:#000000;fill-opacity:1;fill-rule:nonzero;stroke:none"
         d="m 466.05358,431.77949 c 0.67337,-2.02972 0.96195,-3.48227 0.96195,-14.41006 0,-10.94702 -0.28858,-12.37071 -0.96195,-14.51587 -0.98119,-3.00129 -3.38607,-4.83862 -6.67595,-4.83862 -3.3957,0 -5.72362,1.54874 -6.78177,4.83862 -0.65413,2.14516 -0.86576,3.56885 -0.86576,14.51587 0,10.92779 0.21163,12.38034 0.86576,14.41006 1.05815,3.28988 3.38607,4.83862 6.78177,4.83862 3.28988,0 5.69476,-1.72189 6.67595,-4.83862 m -18.01738,2.03934 c -0.86576,-2.62613 -1.04853,-4.5789 -1.04853,-16.4494 0,-11.98593 0.18277,-13.85212 1.04853,-16.56483 1.66418,-5.11759 5.15607,-7.33008 9.98507,-7.33008 5.12721,0 7.64753,2.59727 8.89807,5.60819 l 0.0962,0 0,-23.50052 c 0,-0.59641 0.41364,-0.97157 0.9812,-0.97157 l 2.78966,0 c 0.60603,0 0.98119,0.37516 0.98119,0.97157 l 0,63.84483 c 0,0.56755 -0.37516,0.96195 -0.98119,0.96195 l -2.78966,0 c -0.56756,0 -0.9812,-0.3944 -0.9812,-0.96195 l 0,-3.78048 -0.0962,0 c -1.25054,2.91472 -3.77086,5.52161 -8.89807,5.52161 -4.829,0 -8.32089,-2.24135 -9.98507,-7.34932" />
      <path
         id="path40362"
         style="fill:#000000;fill-opacity:1;fill-rule:nonzero;stroke:none"
         d="m 484.05268,457.80128 c -0.60603,0 -0.98119,-0.37516 -0.98119,-0.95233 l 0,-2.62614 c 0,-0.57717 0.37516,-0.96195 0.98119,-0.96195 l 1.04853,-0.0962 c 2.60689,0 3.96325,-1.15435 5.05025,-5.3196 l 2.13554,-8.60948 -10.96627,-44.03821 c -0.0962,-0.57718 0.20201,-0.95234 0.76957,-0.95234 l 3.2033,0 c 0.59641,0 0.87538,0.37516 0.97157,0.95234 l 8.34013,35.04395 0.0673,0 8.34013,-35.04395 c 0.0866,-0.57718 0.3944,-0.95234 0.96196,-0.95234 l 3.09749,0 c 0.56755,0 0.86575,0.37516 0.7888,0.95234 l -13.18838,52.27252 c -1.9239,8.19584 -4.4346,10.33138 -9.7542,10.33138 l -0.86576,0 z" />
      <path
         id="path40366"
         style="fill:#000000;fill-opacity:1;fill-rule:nonzero;stroke:none"
         d="m 317.69348,463.30654 c -8.89807,0 -17.29592,-3.21292 -22.61552,-8.69606 l 3.23217,-3.12634 c 4.60775,4.76166 12.14946,7.50323 20.05672,7.32046 7.35894,-0.15391 13.90022,-2.84738 17.95966,-7.42628 l 3.38607,3.0013 c -4.93481,5.51199 -12.64968,8.73453 -21.24954,8.9173 -0.24049,0.01 -0.54831,0.01 -0.76956,0.01" />
      <path
         id="path40370"
         style="fill:#000000;fill-opacity:1;fill-rule:nonzero;stroke:none"
         d="m 160.69986,452.1931 6.51242,0 0,11.70697 22.88486,0 0,-11.70697 6.50281,0 0,29.58006 -6.50281,0 0,-11.8705 -22.88486,0 0,11.8705 -6.51242,0 0,-29.58006 z" />
      <path
         id="path40374"
         style="fill:#000000;fill-opacity:1;fill-rule:nonzero;stroke:none"
         d="m 207.68838,458.08313 0,17.83461 15.58364,0 c 5.3196,0 8.93654,-3.59771 8.93654,-8.84035 l 0,-0.077 c 0,-5.24264 -3.61694,-8.9173 -8.93654,-8.9173 l -15.58364,0 z m -6.54128,-5.88715 22.12492,0 c 9.29247,0 15.73755,6.36813 15.73755,14.70826 l 0,0.0962 c 0,8.33052 -6.44508,14.7756 -15.73755,14.7756 l -22.12492,0 0,-29.58005 z" />
    </g>
  </g>
</svg>
