<?xml version="1.0" encoding="UTF-8" standalone="no"?>
<!-- Created with Inkscape (http://www.inkscape.org/) -->

<svg
   xmlns:dc="http://purl.org/dc/elements/1.1/"
   xmlns:cc="http://creativecommons.org/ns#"
   xmlns:rdf="http://www.w3.org/1999/02/22-rdf-syntax-ns#"
   xmlns:svg="http://www.w3.org/2000/svg"
   xmlns="http://www.w3.org/2000/svg"
   version="1.1"
   width="824.00354"
   height="302.71906"
   id="svg2">
  <metadata
     id="metadata8">
    <rdf:RDF>
      <cc:Work
         rdf:about="">
        <dc:format>image/svg+xml</dc:format>
        <dc:type
           rdf:resource="http://purl.org/dc/dcmitype/StillImage" />
        <dc:title></dc:title>
      </cc:Work>
    </rdf:RDF>
  </metadata>
  <defs
     id="defs6" />
  <path
     d="m 442.59317,229.17236 c -0.65642,-0.0111 -1.13827,0.76344 -1.12238,1.37179 l 0,1.99534 0,15.65088 c 0,1.03893 -0.12733,1.69701 -0.34295,2.08887 -2.10101,-1.16518 -5.5438,-4.1858 -9.9143,-4.17773 l -1.99534,0 -3.05535,0 c -5.37847,-0.0111 -9.54006,4.30667 -9.54018,9.35312 l 0,1.99533 0,33.60888 0,1.99533 c 0,5.12952 4.16171,9.665 9.54018,9.66489 l 1.99533,0 1.06002,0 1.99534,0 c 4.32415,0 5.46927,-1.11291 7.66955,-3.11771 0.64674,-0.60758 1.26377,-1.00219 1.83945,-1.24708 0.45646,0.33979 0.74282,0.9826 0.74825,1.93298 0,0.70569 0.45007,1.40297 1.12238,1.40297 l 1.99533,0 4.8948,0 1.99533,0 c 0.67231,0 1.52768,-0.71167 1.52768,-1.40297 l 0,-67.74776 0,-1.99534 c 0,-0.60835 -0.85537,-1.3856 -1.52768,-1.37179 l -1.99533,0 -6.89013,0 z m -275.66761,1.02885 c -0.56474,0 -1.32904,0.36545 -1.52768,1.40296 l -14.12321,67.03069 c -0.0503,0.31615 0.0534,0.57855 0.24942,0.74825 l -0.24942,1.24709 c -0.11002,0.69131 0.55765,1.04675 1.12238,1.06002 l 1.99533,0 6.42247,0 1.99533,0 c 0.58064,0 1.32906,-0.35218 1.52768,-1.40297 l 1.9018,-10.69373 c 0.38139,-1.82505 1.90166,-3.46066 4.20891,-3.46066 l 9.85195,0 c 2.50588,0 3.42148,1.89841 3.8036,3.46066 l 2.3071,10.35078 c 0.29092,1.29967 0.77217,1.74592 1.15355,1.74592 l 1.99534,0 6.39129,0 1.99534,0 c 0.6723,0.0111 1.35281,-0.45167 1.15355,-1.06002 l -0.2806,-1.21591 c 0.24143,-0.18519 0.38339,-0.4656 0.2806,-0.77943 l -15.27676,-66.68774 c -0.28971,-1.13375 -0.68049,-1.74591 -1.15355,-1.74591 l -1.99534,0 -13.74908,0 z m 38.1919,0 c -0.76399,0 -1.12237,0.45277 -1.12237,1.06002 l 0,1.99533 0,65.3783 0,1.99534 c 0,0.69131 0.45128,1.06002 1.12237,1.06002 l 1.99533,0 5.64305,0 1.99533,0 c 0.67231,-0.0111 1.15356,-0.53462 1.15356,-1.06002 l 0,-1.99534 0,-23.56986 c 0,-1.99098 1.52753,-3.8036 3.83478,-3.8036 l 2.18239,0 c 1.63494,0 2.5664,1.37843 3.05535,2.77476 l 9.94549,26.25109 c 0.47428,1.29966 0.77217,1.41679 1.15355,1.40297 l 1.99533,0 6.3913,0 1.99533,0 c 0.67231,-0.0111 0.96278,-0.42264 0.77943,-0.6859 l -0.49884,-1.37179 c 0.45544,-0.10677 0.65268,-0.40267 0.49884,-0.62354 l -11.09904,-29.74292 c -0.007,-0.0127 -0.0242,-0.0185 -0.0312,-0.0312 0.18919,-0.28093 0.46433,-0.55397 0.81061,-0.74825 5.37847,-3.13855 8.79193,-8.22855 8.79193,-15.18323 l 0,-1.99533 0,-3.46065 c -0.0123,-10.52175 -8.46157,-17.64622 -19.11154,-17.64622 l -1.99533,0 -19.48567,0 z m 49.29094,0 c -0.76399,0 -1.52767,0.62871 -1.52767,1.40296 l 0,1.99534 0,64.69241 0,1.99533 c 0,0.77427 0.85536,1.40286 1.52767,1.40297 l 1.99533,0 17.11621,0 1.99533,0 c 11.03196,0 20.23405,-8.24999 20.23392,-18.67507 l 0,-1.99533 0,-31.8006 c 0,-10.42496 -9.20183,-19.01812 -20.23392,-19.01801 l -1.99533,0 -19.11154,0 z m 230.08674,0 c -0.76398,0 -1.51238,0.549 -1.52768,1.06002 l 0,1.99533 0,4.2089 0,1.99534 c 0.0123,0.51101 0.65734,1.02994 1.52768,1.02884 l 1.99533,0 18.64389,0 c 0.55262,0 2.01126,0.47383 2.65005,1.43414 -0.005,0.009 0.005,0.0219 0,0.0312 l -26.34462,49.44683 c -0.19925,0.44244 -0.37413,0.84098 -0.37413,2.05768 l 0,1.99533 0,3.18006 c -0.002,0.0864 -0.0157,0.1738 0,0.24942 l 0,1.74592 c -0.0123,0.6913 0.54176,1.06112 1.12238,1.06002 l 1.99533,0 35.0742,0 1.99533,0 c 0.6882,0 1.15355,-0.46605 1.15355,-1.06002 l 0,-1.99534 0,-6.89013 c 0,-0.44243 -0.29788,-1.06002 -1.15355,-1.06002 l -1.99533,0 -21.29394,0 c -0.82519,0 -1.8212,-0.39022 -2.3071,-1.09119 l 26.34462,-49.10388 c 0.47427,-0.8716 0.4053,-1.44663 0.4053,-2.40064 l 0,-1.99533 0,-4.83244 c 0.0123,-0.5254 -0.76369,-1.06002 -1.52767,-1.06002 l -1.99534,0 -34.3883,0 z m 46.23559,0 c -0.77866,0 -1.52768,0.62871 -1.52768,1.40296 l 0,1.99534 0,64.69241 0,1.99533 c 0,0.77427 0.87125,1.40297 1.52768,1.40297 l 1.99533,0 17.08503,0 1.99533,0 c 11.03197,0 19.85992,-8.25021 19.85979,-18.67507 l 0,-1.99533 0,-31.8006 c 0,-10.42496 -8.8277,-19.01801 -19.85979,-19.01801 l -1.99533,0 -19.08036,0 z m 50.41331,0 c -0.76398,0 -1.52767,0.79462 -1.52767,1.40296 l 0,1.99534 0,64.69241 0,1.99533 c 0,0.69131 0.76369,1.40297 1.52767,1.40297 l 1.99533,0 5.64305,0 1.99534,0 c 0.6723,0 1.52767,-0.6287 1.52767,-1.40297 l 0,-1.99533 0,-24.94166 c 0,-1.99098 1.695,-3.8036 3.8036,-3.8036 l 12.15906,0 1.99533,0 c 0.76401,0 1.51231,-0.71165 1.52768,-1.40297 l 0,-1.99533 0,-5.86129 c 0,-0.60834 -0.85535,-1.40296 -1.52768,-1.40296 l -1.99533,0 -11.75375,0 c -2.01693,0 -4.20891,-1.51886 -4.20891,-3.77243 l 0,-10.13254 c 0.0123,-2.17072 2.28366,-3.77243 4.20891,-3.77243 l 16.33678,0 1.99533,0 c 0.76391,0 1.15355,-0.69728 1.15355,-1.40297 l 0,-1.99533 0,-6.20424 c 0,-0.6913 -0.38964,-1.40296 -1.15355,-1.40296 l -1.99533,0 -31.70708,0 z m -361.80984,10.63138 5.64305,0 c 4.99647,0 9.19712,3.54041 9.19724,8.32427 l 0,3.86596 c 0,4.77004 -4.20077,8.29299 -9.19724,8.2931 l -5.23774,0 c -1.81829,0 -3.83478,-1.71584 -3.83478,-3.8036 l 0,-12.87613 c 0,-1.8389 1.22908,-3.81732 3.42947,-3.8036 z m 50.44449,0 1.06002,0 c 6.53973,0.0111 11.84716,5.16125 11.84729,11.4108 l 0,27.74759 c 0,6.18031 -5.30756,11.06798 -11.84729,11.06786 l -1.06002,0 c -2.10859,0 -4.2089,-1.71595 -4.2089,-3.8036 l 0,-42.61905 c 0,-2.08777 2.10018,-3.80349 4.2089,-3.8036 z m 276.29115,0 1.06002,0 c 6.52444,0 11.84717,5.14753 11.84729,11.4108 l 0,27.74759 c 0,6.16648 -5.32285,11.06775 -11.84729,11.06786 l -1.06002,0 c -2.1086,0 -4.193,-1.71585 -4.17772,-3.8036 l 0,-42.61905 c 0,-2.08777 2.06901,-3.80371 4.17772,-3.8036 z m -489.105792,4.92597 c -7.869061,0 -14.528512,5.75608 -14.528512,13.12555 l 0,1.99533 0,26.3758 0,1.99533 c 0,7.47998 6.659451,13.46849 14.528512,13.46849 l 1.995332,0 2.182395,0 1.995332,0 c 7.869051,0 14.154388,-6.00223 14.154388,-13.46849 l 0,-1.99533 0,-27.99701 c 0,-7.38319 -6.285337,-13.49955 -14.154388,-13.49967 l -1.995332,0 -4.177727,0 z m 52.720422,0 c -5.00283,-0.007 -9.762407,4.06828 -12.502008,5.26893 -0.264127,-0.33135 -0.405285,-0.90419 -0.405302,-1.80827 l 0,-1.37179 c 0,-0.7057 -0.855369,-1.0744 -1.527676,-1.06002 l -1.995332,0 -6.890131,0 c -0.672308,0 -1.153552,0.35542 -1.153552,1.06002 l 0,1.99533 0,48.44916 0,1.99533 c 0,0.69131 0.482452,1.40319 1.153552,1.40297 l 1.995332,0 4.894799,0 1.995332,0 c 0.672307,0 1.527796,-0.71166 1.527676,-1.40297 l 0,-1.99533 0,-36.00951 c 0,-2.9588 4.07019,-5.7072 7.23308,-6.57836 0.48704,-0.14015 1.00776,-0.21734 1.4965,-0.2806 2.32036,0.34326 4.17766,1.99455 4.17773,5.83011 l 0,37.03836 0,1.99533 c 0,0.70569 0.85537,1.40319 1.52767,1.40297 l 1.99533,0 4.86363,0 1.99533,0 c 0.67231,0 1.15355,-0.71166 1.15355,-1.40297 l 0,-1.99533 0,-43.55436 c 0,-5.3784 -3.96309,-8.97911 -9.54018,-8.979 -0.32688,-4.7e-4 -0.6735,0.0296 -0.99767,0.0624 -0.33545,-0.0277 -0.6491,-0.0624 -0.99766,-0.0624 z m 285.55073,0 c -5.04878,0 -9.97393,4.16692 -12.81377,5.33128 -0.30325,-0.32248 -0.46766,-0.92233 -0.46766,-1.87062 l 0,-1.37179 c 0,-0.69132 -0.48124,-1.06113 -1.15355,-1.06002 l -1.99533,0 -6.85895,0 c -0.67231,0 -1.5278,0.3687 -1.52768,1.06002 l 0,1.99533 0,48.44916 0,1.99533 c 0,0.69131 0.85537,1.40308 1.52768,1.40297 l 1.99533,0 4.86362,0 1.99533,0 c 0.67231,0 1.15355,-0.71166 1.15355,-1.40297 l 0,-1.99533 0,-36.00951 c 0,-2.94497 4.10135,-5.7072 7.26426,-6.57836 0.49556,-0.14123 0.99793,-0.21921 1.4965,-0.2806 2.30971,0.35608 4.15687,2.01976 4.14655,5.83011 l 0.37412,39.03369 c -0.0123,0.69131 0.48248,1.40308 1.15356,1.40297 l 1.99533,0 4.86362,0 1.99533,0 c 0.67231,0 1.15355,-0.71166 1.15355,-1.40297 l 0,-1.99533 0,-43.55436 c 0,-5.3784 -3.60413,-8.97911 -9.16605,-8.979 -0.32407,0 -0.64392,0.0299 -0.96649,0.0624 -0.33194,-0.0277 -0.68123,-0.0624 -1.02885,-0.0624 z m -220.82715,0.65472 c 0.57714,0.48681 1.06021,1.44011 1.30944,2.74358 l 4.52067,23.07103 0,0.0312 c -0.40333,1.45438 -1.71623,2.51503 -3.36712,2.52534 l -4.95715,0 c -1.56162,-0.17885 -2.59383,-1.28978 -2.93065,-2.55652 l 4.14655,-23.07103 c 0.21873,-1.29994 0.69331,-2.25572 1.27826,-2.74358 z M 1.5624041,246.78741 c -1.05368505,0 -1.72631142,0.44951 -1.5276761,1.40296 l 0.24941652,0.99767 c -0.22788023,0.22588 -0.34045771,0.56067 -0.24941652,0.99767 l 12.221409,50.44449 c 0.199254,0.5254 0.955535,1.06112 1.153552,1.06002 l 1.995332,0 6.391298,0 1.995332,0 c 0.199244,0 0.687751,-0.45167 0.779427,-1.06002 l 13.374961,-50.44449 c 0.105427,-0.54824 0.03976,-0.93391 -0.21824,-1.15356 l 0.21824,-0.84178 c 0.183351,-0.95345 -0.09368,-1.40307 -1.153552,-1.40296 l -1.995332,0 -6.110705,0 c -0.381377,0 -1.061865,0.37086 -1.153551,0.71707 l -7.638381,32.14355 c -0.286342,1.17177 -0.633757,1.91967 -1.028843,2.36946 -0.508954,-0.51763 -0.955917,-1.36731 -1.184728,-2.36946 l -6.48483,-32.14355 c -0.0855,-0.3451 -0.772174,-0.71707 -1.153551,-0.71707 l -1.9953324,0 -6.4848295,0 z m 324.5220659,0 c -0.6723,0 -1.12359,0.45277 -1.12237,1.06002 l 0,1.99533 0,42.24492 0,1.99533 c 0.0123,4.17551 3.98665,8.63616 7.63838,8.63605 l 1.99533,0 1.43415,0 1.99533,0 c 3.88375,0 5.70049,-4.45372 8.54252,-5.36246 1.33606,0.43879 1.88106,1.73038 2.43181,2.93065 0.47429,1.2167 0.85536,1.40308 1.52767,1.40297 l 1.99533,0 4.52068,0 1.99533,0 c 0.77988,0 1.52768,-0.79461 1.52768,-1.40297 l 0,-1.99533 0,-50.44449 c 0,-0.60836 -0.7637,-1.06113 -1.52768,-1.06002 l -1.99533,0 -6.51601,0 c -0.65641,0 -1.5124,0.45277 -1.52767,1.06002 l 0,1.99533 0,34.98066 c 0.0112,3.56145 -3.87156,6.36574 -7.10837,6.82778 -3.72406,-0.46728 -5.76776,-3.30088 -5.76776,-6.48483 l 0,-37.31894 c 0,-0.60836 -0.49713,-1.06113 -1.15355,-1.06002 l -1.99533,0 -6.89014,0 z m -266.002715,8.57369 0.31177,0 c 3.453222,0 6.110705,3.01403 6.110705,6.23541 l 0,25.2846 c 0,3.20768 -2.550533,6.23541 -6.110705,6.23541 l -0.31177,0 c -3.453222,0 -6.48483,-2.93095 -6.48483,-6.23541 l 0,-25.2846 c 0,-3.30446 3.031608,-6.23541 6.48483,-6.23541 z m 373.813005,1.02884 1.43415,0 c 3.36154,0 6.14188,3.98726 6.14188,5.54952 l 0,24.94165 c 0,1.29966 -2.67326,5.54941 -6.14188,5.54952 l -1.43415,0 c -3.25458,0 -6.11083,-2.50786 -6.1107,-5.54952 l 0,-24.94165 c 0,-3.12473 2.94792,-5.54962 6.1107,-5.54952 z"
     id="path473"
     style="fill:#015b63;fill-opacity:1;fill-rule:nonzero;stroke:none" />
  <path
     d="M 21.003559,3.110354e-4 C 8.6514822,3.110354e-4 0.00355924,12.089521 0.00355924,22.000311 l 0,169.999999 c 0,14.05568 10.00226176,23 22.99999976,23 l 57,0 0,-44 46.000001,40 c 3.35443,2.89729 6.42074,4 12,4 l 26.8125,0 c 8.01125,0 14.71001,-3.56099 18.8125,-8.75 3.90628,5.21587 10.17202,8.75 18.375,8.75 l 18,0 c 4.35837,0 9.41975,-2.2696 14,-6 l 16,-13.03125 0,19.03125 57,0 c 14.3345,0 23,-10.72914 23,-23 l 0,-21 44,38 c 3.89858,3.36695 7.89177,6 14,6 l 26.8125,0 c 7.71656,0 14.17936,-3.52911 18.3125,-8.84375 3.80785,5.35596 10.32763,8.84375 19.875,8.84375 l 55,0 0,-63 29,0 0,63 56,0 c 14.1124,0 23,-8.88868 23,-23 l 0,-170.00031 c 0,-12.27411 -8.45891,-22.000040111702 -22,-22 l -105,3.110354e-4 -51,40.6562499646 0,-18.65625 c 0,-10.55026 -9.39693,-21.9999999646 -22,-21.9999999646 l -28,0 c -6.32829,0 -9.43773,2.0598599646 -14,5.9999999646 l -44,38 0,-22 c 0,-10.56822 -9.58692,-21.9999999646 -22,-21.9999999646 l -107,0 c -7.49448,0 -13.70214,3.3004099646 -17.59375,8.4687499646 C 179.41738,3.313221 173.16053,3.110354e-4 166.00356,3.110354e-4 l -28,0 c -4.74138,0 -8.87738,1.2846799646 -12,3.9999999646 l -46.000001,40 0,-43.9999999646 z M 508.00356,60.000311 l 29,0 0,27 -29,0 z m -79,3.25 0,88.312499 -55,-44.0625 z m -250,0.0937 0,88.124999 -54,-43.96875 z"
     id="path3033"
     style="fill:#015b63;fill-opacity:1;stroke:none" />
  <path
     d="m 21.003559,8.000311 c -6.554497,0 -12.9999998,6.88953 -12.9999998,14 l 0,169.999999 c 0,9.82393 5.1760748,15 14.9999998,15 l 49,0 0,-54 60.000001,52 c 1.50304,1.31038 3.59455,2 6,2 l 26.8125,0 c 8.96611,0 15.1875,-5.05161 15.1875,-15 l 0,-29.21875 -69,-55.28125 69,-55.499999 0,-30 c 0,-9.22784 -6.15765,-14 -14,-14 l -28,0 c -2.88999,0 -4.39423,0.60833 -6,2 l -60.000001,52 0,-54 z m 180.000001,0 c -8.12632,0 -14,5.6935 -14,14 l 0,30 64,0 0,-44 z m 57,0 0,198.999999 49,0 c 10.36723,0 15,-6.43192 15,-15 l 0,-39 60,52 c 1.50304,1.31038 3.59455,2 6,2 l 26.8125,0 c 8.96611,0 15.1875,-5.05161 15.1875,-15 l 0,-29.21875 -69,-55.28125 69,-55.499999 0,-30 c 0,-8.96335 -6.9511,-14 -14,-14 l -28,0 c -2.88999,0 -4.39423,0.60833 -6,2 l -60,52 0,-40 c 0,-7.65889 -4.75524,-14 -14,-14 z m 233,0 -54,43.84375 0,140.156249 c 0,8.84525 5.79474,15 16,15 l 47,0 0,-63 45,0 0,63 48,0 c 10.11804,0 15,-5.70763 15,-15 l 0,-169.999999 c 0,-7.77788 -6.27611,-14 -14,-14 z m 9,44 45,0 0,43 -45,0 z m -313,8 0,131.999999 c 0,8.79011 4.17152,15 15,15 l 18,0 c 2.24249,0 4.28054,-0.62443 6,-2 l 25,-20 0,-110.999999 c 0,-8.3065 -5.87368,-14 -14,-14 z"
     id="path2995"
     style="fill:#ffeb1b;fill-opacity:1;stroke:none" />
  <path
     d="m 632.00356,137.719 174,0 c 10.81886,0 18,-9.11507 18,-18 l 0,-85.952814 L 781.29748,0 654.00356,0 c -12.48568,0 -22,9.9551695 -22,22 z"
     id="path2996"
     style="fill:#015b63;fill-opacity:1;stroke:none" />
  <path
     d="m 663.97231,20.719061 c -3.29817,0 -5.96875,2.670577 -5.96875,5.96875 l 0,85.062499 c 0,3.29817 2.67058,5.96875 5.96875,5.96875 l 19.03125,0 0,-36.249999 16,0 0,36.249999 19.03125,0 c 3.29817,0 5.96875,-2.67058 5.96875,-5.96875 l 0,-85.062499 c 0,-3.298173 -2.67058,-5.96875 -5.96875,-5.96875 l -19.03125,0 0,36 -16,0 0,-36 -19.03125,0 z m 70.03125,0 0,96.999999 42,0 23,-18.999999 0,-59 -23,-19 -42,0 z m 22,24 14,0 7,7 0,35 -7,7 -14,0 0,-49 z"
     id="rect2998"
     style="fill:#ffeb1b;fill-opacity:1;stroke:none" />
</svg>
